# Author : Radia User
# 
# Undulator Length [m]
2.0056
# Number of Horizontal Points
61
# Number of Vertical Points
41
# Horizontal 2nd Order Kick [T2m2]
START
               -2.00000e-002 -1.93333e-002 -1.86667e-002 -1.80000e-002 -1.73333e-002 -1.66667e-002 -1.60000e-002 -1.53333e-002 -1.46667e-002 -1.40000e-002 -1.33333e-002 -1.26667e-002 -1.20000e-002 -1.13333e-002 -1.06667e-002 -1.00000e-002 -9.33333e-003 -8.66667e-003 -8.00000e-003 -7.33333e-003 -6.66667e-003 -6.00000e-003 -5.33333e-003 -4.66667e-003 -4.00000e-003 -3.33333e-003 -2.66667e-003 -2.00000e-003 -1.33333e-003 -6.66667e-004  0.00000e+000  6.66667e-004  1.33333e-003  2.00000e-003  2.66667e-003  3.33333e-003  4.00000e-003  4.66667e-003  5.33333e-003  6.00000e-003  6.66667e-003  7.33333e-003  8.00000e-003  8.66667e-003  9.33333e-003  1.00000e-002  1.06667e-002  1.13333e-002  1.20000e-002  1.26667e-002  1.33333e-002  1.40000e-002  1.46667e-002  1.53333e-002  1.60000e-002  1.66667e-002  1.73333e-002  1.80000e-002  1.86667e-002  1.93333e-002  2.00000e-002
  2.50000e-003 -3.58943e-005 -5.78810e-005 -8.19552e-005 -7.61526e-005 -5.76946e-005 -6.63874e-005 -7.78823e-005 -6.17211e-005 -4.74888e-005 -3.72573e-005 -2.94326e-005 -2.32777e-005 -1.83598e-005 -1.43729e-005 -1.10679e-005 -8.18795e-006 -5.41622e-006 -4.90546e-006 -6.35383e-006 -5.86009e-006 -4.19731e-006 -3.16921e-006 -2.44110e-006 -1.88323e-006 -1.43997e-006 -1.06993e-006 -7.49256e-007 -4.56436e-007 -1.50800e-007  1.56458e-007  0.00000e+000 -1.56458e-007  1.50800e-007  4.56436e-007  7.49256e-007  1.06993e-006  1.43997e-006  1.88323e-006  2.44110e-006  3.16921e-006  4.19731e-006  5.86009e-006  6.35383e-006  4.90546e-006  5.41702e-006  8.18795e-006  1.10671e-005  1.43729e-005  1.83598e-005  2.32777e-005  2.94326e-005  3.72573e-005  4.74888e-005  6.17211e-005  7.78823e-005  6.63874e-005  5.76946e-005  7.61526e-005  8.19552e-005  5.78810e-005  3.58943e-005
  2.37500e-003 -1.13892e-004 -1.13127e-004 -1.06572e-004 -9.00878e-005 -7.01487e-005 -7.10793e-005 -7.54152e-005 -6.15980e-005 -4.77513e-005 -3.74304e-005 -2.95086e-005 -2.32922e-005 -1.83430e-005 -1.43499e-005 -1.10585e-005 -8.23878e-006 -5.74323e-006 -5.12122e-006 -6.03670e-006 -5.54531e-006 -4.11156e-006 -3.12440e-006 -2.41191e-006 -1.86326e-006 -1.42308e-006 -1.05863e-006 -7.44940e-007 -4.57001e-007 -1.67453e-007  7.98534e-008  0.00000e+000 -7.98534e-008  1.67453e-007  4.57001e-007  7.44940e-007  1.05863e-006  1.42308e-006  1.86326e-006  2.41191e-006  3.12440e-006  4.11156e-006  5.54531e-006  6.03670e-006  5.12122e-006  5.74323e-006  8.23878e-006  1.10585e-005  1.43499e-005  1.83430e-005  2.32922e-005  2.95086e-005  3.74304e-005  4.77513e-005  6.15980e-005  7.54152e-005  7.10793e-005  7.01487e-005  9.00878e-005  1.06572e-004  1.13127e-004  1.13892e-004
  2.25000e-003 -1.83872e-004 -1.63547e-004 -1.30082e-004 -1.03535e-004 -8.06809e-005 -7.53597e-005 -7.42331e-005 -6.13792e-005 -4.79061e-005 -3.75397e-005 -2.95423e-005 -2.32757e-005 -1.83046e-005 -1.43095e-005 -1.10408e-005 -8.28664e-006 -5.99827e-006 -5.27295e-006 -5.76136e-006 -5.25928e-006 -4.01368e-006 -3.07489e-006 -2.37936e-006 -1.83989e-006 -1.40601e-006 -1.04715e-006 -7.38054e-007 -4.58046e-007 -1.86437e-007  2.68741e-008  0.00000e+000 -2.68741e-008  1.86437e-007  4.58046e-007  7.38054e-007  1.04715e-006  1.40601e-006  1.83989e-006  2.37936e-006  3.07489e-006  4.01368e-006  5.25928e-006  5.76136e-006  5.27295e-006  5.99827e-006  8.28664e-006  1.10415e-005  1.43095e-005  1.83046e-005  2.32757e-005  2.95416e-005  3.75390e-005  4.79061e-005  6.13799e-005  7.42331e-005  7.53597e-005  8.06809e-005  1.03535e-004  1.30082e-004  1.63547e-004  1.83872e-004
  2.12500e-003 -2.44102e-004 -2.07999e-004 -1.52110e-004 -1.16302e-004 -8.98736e-005 -7.93196e-005 -7.38287e-005 -6.11717e-005 -4.79940e-005 -3.76020e-005 -2.95465e-005 -2.32432e-005 -1.82567e-005 -1.42651e-005 -1.10176e-005 -8.32531e-006 -6.19419e-006 -5.37649e-006 -5.53011e-006 -5.00937e-006 -3.91400e-006 -3.02181e-006 -2.34490e-006 -1.81655e-006 -1.38951e-006 -1.03529e-006 -7.31383e-007 -4.59019e-007 -2.03172e-007 -1.35341e-008  0.00000e+000  1.35341e-008  2.03172e-007  4.59019e-007  7.31383e-007  1.03529e-006  1.38951e-006  1.81655e-006  2.34490e-006  3.02181e-006  3.91400e-006  5.00937e-006  5.53011e-006  5.37649e-006  6.19419e-006  8.32531e-006  1.10176e-005  1.42651e-005  1.82567e-005  2.32432e-005  2.95465e-005  3.76020e-005  4.79940e-005  6.11717e-005  7.38287e-005  7.93196e-005  8.98736e-005  1.16302e-004  1.52110e-004  2.07999e-004  2.44102e-004
  2.00000e-003 -2.94181e-004 -2.46099e-004 -1.72400e-004 -1.28264e-004 -9.80311e-005 -8.30031e-005 -7.39238e-005 -6.10256e-005 -4.80402e-005 -3.76336e-005 -2.95327e-005 -2.32007e-005 -1.82025e-005 -1.42155e-005 -1.09943e-005 -8.36081e-006 -6.33924e-006 -5.44138e-006 -5.34065e-006 -4.79511e-006 -3.81309e-006 -2.96922e-006 -2.31155e-006 -1.79156e-006 -1.37247e-006 -1.02486e-006 -7.25876e-007 -4.60065e-007 -2.17851e-007 -4.13495e-008  0.00000e+000  4.13495e-008  2.17851e-007  4.60065e-007  7.25876e-007  1.02486e-006  1.37247e-006  1.79156e-006  2.31155e-006  2.96922e-006  3.81309e-006  4.79511e-006  5.34065e-006  5.44138e-006  6.33924e-006  8.36081e-006  1.09943e-005  1.42155e-005  1.82025e-005  2.32007e-005  2.95327e-005  3.76336e-005  4.80402e-005  6.10256e-005  7.39238e-005  8.30031e-005  9.80311e-005  1.28264e-004  1.72400e-004  2.46099e-004  2.94181e-004
  1.87500e-003 -3.34627e-004 -2.78004e-004 -1.90795e-004 -1.39349e-004 -1.05334e-004 -8.64288e-005 -7.43387e-005 -6.09559e-005 -4.80645e-005 -3.76438e-005 -2.95086e-005 -2.31510e-005 -1.81444e-005 -1.41667e-005 -1.09687e-005 -8.38851e-006 -6.44847e-006 -5.48099e-006 -5.18432e-006 -4.61241e-006 -3.71676e-006 -2.91548e-006 -2.27680e-006 -1.76971e-006 -1.35666e-006 -1.01307e-006 -7.20159e-007 -4.61275e-007 -2.32094e-007 -6.38238e-008  0.00000e+000  6.38238e-008  2.32094e-007  4.61275e-007  7.20159e-007  1.01307e-006  1.35666e-006  1.76971e-006  2.27680e-006  2.91548e-006  3.71676e-006  4.61241e-006  5.18432e-006  5.48099e-006  6.44847e-006  8.38851e-006  1.09687e-005  1.41667e-005  1.81444e-005  2.31510e-005  2.95086e-005  3.76438e-005  4.80645e-005  6.09559e-005  7.43387e-005  8.64288e-005  1.05334e-004  1.39349e-004  1.90795e-004  2.78004e-004  3.34627e-004
  1.75000e-003 -3.66466e-004 -3.04203e-004 -2.07232e-004 -1.49510e-004 -1.11899e-004 -8.96093e-005 -7.49572e-005 -6.09614e-005 -4.80772e-005 -3.76399e-005 -2.94752e-005 -2.30993e-005 -1.80874e-005 -1.41162e-005 -1.09438e-005 -8.41007e-006 -6.52700e-006 -5.50176e-006 -5.05420e-006 -4.45718e-006 -3.62588e-006 -2.86313e-006 -2.24454e-006 -1.74678e-006 -1.34074e-006 -1.00299e-006 -7.15765e-007 -4.63419e-007 -2.41698e-007 -7.98529e-008  0.00000e+000  7.98529e-008  2.41698e-007  4.63419e-007  7.15765e-007  1.00299e-006  1.34074e-006  1.74749e-006  2.24454e-006  2.86241e-006  3.62588e-006  4.45718e-006  5.05420e-006  5.50176e-006  6.52700e-006  8.41007e-006  1.09438e-005  1.41162e-005  1.80874e-005  2.30993e-005  2.94752e-005  3.76399e-005  4.80772e-005  6.09614e-005  7.49572e-005  8.96093e-005  1.11899e-004  1.49510e-004  2.07232e-004  3.04203e-004  3.66466e-004
  1.62500e-003 -3.90953e-004 -3.25355e-004 -2.21725e-004 -1.58737e-004 -1.17802e-004 -9.25484e-005 -7.56950e-005 -6.10323e-005 -4.80877e-005 -3.76245e-005 -2.94356e-005 -2.30446e-005 -1.80304e-005 -1.40686e-005 -1.09194e-005 -8.42678e-006 -6.58285e-006 -5.50809e-006 -4.94649e-006 -4.32405e-006 -3.54113e-006 -2.81372e-006 -2.21346e-006 -1.72577e-006 -1.32625e-006 -9.93212e-007 -7.10596e-007 -4.63701e-007 -2.51150e-007 -9.33057e-008  0.00000e+000  9.33057e-008  2.51150e-007  4.63701e-007  7.10596e-007  9.93212e-007  1.32625e-006  1.72577e-006  2.21346e-006  2.81372e-006  3.54183e-006  4.32405e-006  4.94579e-006  5.50879e-006  6.58285e-006  8.42608e-006  1.09194e-005  1.40686e-005  1.80304e-005  2.30446e-005  2.94356e-005  3.76245e-005  4.80877e-005  6.10323e-005  7.56950e-005  9.25484e-005  1.17802e-004  1.58737e-004  2.21725e-004  3.25355e-004  3.90953e-004
  1.50000e-003 -4.09349e-004 -3.42166e-004 -2.34350e-004 -1.67037e-004 -1.23098e-004 -9.52499e-005 -7.64935e-005 -6.11526e-005 -4.80999e-005 -3.76051e-005 -2.93921e-005 -2.29892e-005 -1.79752e-005 -1.40234e-005 -1.08937e-005 -8.43490e-006 -6.62267e-006 -5.50808e-006 -4.85624e-006 -4.21006e-006 -3.46375e-006 -2.76728e-006 -2.18295e-006 -1.70535e-006 -1.31252e-006 -9.84493e-007 -7.06127e-007 -4.65019e-007 -2.59121e-007 -1.02959e-007  0.00000e+000  1.02959e-007  2.59121e-007  4.65019e-007  7.06127e-007  9.84493e-007  1.31252e-006  1.70535e-006  2.18295e-006  2.76728e-006  3.46375e-006  4.21006e-006  4.85624e-006  5.50808e-006  6.62267e-006  8.43490e-006  1.08937e-005  1.40234e-005  1.79752e-005  2.29892e-005  2.93921e-005  3.76051e-005  4.80999e-005  6.11526e-005  7.64935e-005  9.52499e-005  1.23098e-004  1.67037e-004  2.34350e-004  3.42166e-004  4.09349e-004
  1.37500e-003 -4.22838e-004 -3.55334e-004 -2.45222e-004 -1.74433e-004 -1.27833e-004 -9.77168e-005 -7.73103e-005 -6.13107e-005 -4.81145e-005 -3.75798e-005 -2.93473e-005 -2.29355e-005 -1.79216e-005 -1.39791e-005 -1.08690e-005 -8.44167e-006 -6.64988e-006 -5.49978e-006 -4.77812e-006 -4.11308e-006 -3.39490e-006 -2.72383e-006 -2.15514e-006 -1.68627e-006 -1.29893e-006 -9.75489e-007 -7.01697e-007 -4.66007e-007 -2.65715e-007 -1.10376e-007  0.00000e+000  1.10376e-007  2.65715e-007  4.66007e-007  7.01697e-007  9.75489e-007  1.29893e-006  1.68627e-006  2.15514e-006  2.72383e-006  3.39490e-006  4.11308e-006  4.77812e-006  5.49978e-006  6.64988e-006  8.44167e-006  1.08690e-005  1.39791e-005  1.79216e-005  2.29355e-005  2.93473e-005  3.75798e-005  4.81145e-005  6.13107e-005  7.73103e-005  9.77168e-005  1.27833e-004  1.74433e-004  2.45222e-004  3.55334e-004  4.22838e-004
  1.25000e-003 -4.32460e-004 -3.65497e-004 -2.54484e-004 -1.80963e-004 -1.32041e-004 -9.99517e-005 -7.81148e-005 -6.14910e-005 -4.81318e-005 -3.75548e-005 -2.93033e-005 -2.28826e-005 -1.78702e-005 -1.39378e-005 -1.08461e-005 -8.44246e-006 -6.66695e-006 -5.48931e-006 -4.71315e-006 -4.02982e-006 -3.33165e-006 -2.68332e-006 -2.12869e-006 -1.66855e-006 -1.28688e-006 -9.68281e-007 -6.97350e-007 -4.66046e-007 -2.71702e-007 -1.17023e-007  0.00000e+000  1.17023e-007  2.71702e-007  4.66046e-007  6.97350e-007  9.68281e-007  1.28688e-006  1.66855e-006  2.12869e-006  2.68332e-006  3.33165e-006  4.02982e-006  4.71315e-006  5.48931e-006  6.66695e-006  8.44246e-006  1.08461e-005  1.39378e-005  1.78702e-005  2.28826e-005  2.93033e-005  3.75548e-005  4.81318e-005  6.14910e-005  7.81148e-005  9.99517e-005  1.32041e-004  1.80963e-004  2.54484e-004  3.65497e-004  4.32460e-004
  1.12500e-003 -4.39099e-004 -3.73225e-004 -2.62288e-004 -1.86672e-004 -1.35754e-004 -1.01956e-004 -7.88835e-005 -6.16837e-005 -4.81533e-005 -3.75276e-005 -2.92595e-005 -2.28338e-005 -1.78227e-005 -1.38991e-005 -1.08236e-005 -8.44079e-006 -6.67679e-006 -5.47713e-006 -4.65699e-006 -3.95914e-006 -3.27582e-006 -2.64575e-006 -2.10561e-006 -1.65222e-006 -1.27570e-006 -9.61525e-007 -6.93785e-007 -4.66536e-007 -2.75147e-007 -1.21625e-007  0.00000e+000  1.21625e-007  2.75147e-007  4.66536e-007  6.93785e-007  9.61525e-007  1.27570e-006  1.65222e-006  2.10561e-006  2.64575e-006  3.27582e-006  3.95914e-006  4.65699e-006  5.47713e-006  6.67679e-006  8.44079e-006  1.08242e-005  1.38991e-005  1.78220e-005  2.28338e-005  2.92595e-005  3.75276e-005  4.81533e-005  6.16837e-005  7.88835e-005  1.01956e-004  1.35753e-004  1.86672e-004  2.62289e-004  3.73225e-004  4.39099e-004
  1.00000e-003 -4.43488e-004 -3.79010e-004 -2.68795e-004 -1.91606e-004 -1.38997e-004 -1.03734e-004 -7.95994e-005 -6.18781e-005 -4.81775e-005 -3.75031e-005 -2.92178e-005 -2.27865e-005 -1.77781e-005 -1.38636e-005 -1.08028e-005 -8.43796e-006 -6.68210e-006 -5.46297e-006 -4.60950e-006 -3.89805e-006 -3.22789e-006 -2.61370e-006 -2.08258e-006 -1.63795e-006 -1.26609e-006 -9.53934e-007 -6.91013e-007 -4.66837e-007 -2.78139e-007 -1.25593e-007  0.00000e+000  1.25593e-007  2.78139e-007  4.66837e-007  6.91013e-007  9.53934e-007  1.26609e-006  1.63795e-006  2.08258e-006  2.61370e-006  3.22789e-006  3.89805e-006  4.60950e-006  5.46297e-006  6.68210e-006  8.43796e-006  1.08028e-005  1.38636e-005  1.77781e-005  2.27865e-005  2.92178e-005  3.75031e-005  4.81775e-005  6.18781e-005  7.95994e-005  1.03734e-004  1.38997e-004  1.91606e-004  2.68795e-004  3.79010e-004  4.43488e-004
  8.75000e-004 -4.46232e-004 -3.83267e-004 -2.74152e-004 -1.95814e-004 -1.41799e-004 -1.05292e-004 -8.02494e-005 -6.20647e-005 -4.82013e-005 -3.74797e-005 -2.91789e-005 -2.27444e-005 -1.77386e-005 -1.38314e-005 -1.07850e-005 -8.43323e-006 -6.68215e-006 -5.44848e-006 -4.56924e-006 -3.84823e-006 -3.18505e-006 -2.58512e-006 -2.06422e-006 -1.62378e-006 -1.25738e-006 -9.48828e-007 -6.88391e-007 -4.66984e-007 -2.80070e-007 -1.28314e-007  0.00000e+000  1.28314e-007  2.80070e-007  4.66984e-007  6.88391e-007  9.48828e-007  1.25738e-006  1.62378e-006  2.06422e-006  2.58512e-006  3.18505e-006  3.84823e-006  4.56924e-006  5.44848e-006  6.68215e-006  8.43323e-006  1.07850e-005  1.38314e-005  1.77386e-005  2.27444e-005  2.91789e-005  3.74797e-005  4.82013e-005  6.20647e-005  8.02494e-005  1.05292e-004  1.41799e-004  1.95814e-004  2.74152e-004  3.83267e-004  4.46232e-004
  7.50000e-004 -4.47804e-004 -3.86338e-004 -2.78498e-004 -1.99349e-004 -1.44178e-004 -1.06629e-004 -8.08250e-005 -6.22388e-005 -4.82269e-005 -3.74592e-005 -2.91437e-005 -2.27060e-005 -1.77041e-005 -1.38031e-005 -1.07661e-005 -8.42775e-006 -6.68264e-006 -5.43587e-006 -4.53548e-006 -3.80557e-006 -3.14849e-006 -2.55866e-006 -2.04721e-006 -1.61427e-006 -1.24896e-006 -9.42945e-007 -6.86591e-007 -4.67010e-007 -2.82929e-007 -1.30486e-007  0.00000e+000  1.30486e-007  2.82929e-007  4.67010e-007  6.86591e-007  9.42945e-007  1.24896e-006  1.61427e-006  2.04721e-006  2.55866e-006  3.14849e-006  3.80557e-006  4.53548e-006  5.43587e-006  6.68264e-006  8.42775e-006  1.07661e-005  1.38031e-005  1.77041e-005  2.27060e-005  2.91437e-005  3.74592e-005  4.82269e-005  6.22388e-005  8.08250e-005  1.06629e-004  1.44178e-004  1.99349e-004  2.78498e-004  3.86338e-004  4.47804e-004
  6.25000e-004 -4.48587e-004 -3.88508e-004 -2.81960e-004 -2.02255e-004 -1.46156e-004 -1.07753e-004 -8.13196e-005 -6.23946e-005 -4.82497e-005 -3.74402e-005 -2.91134e-005 -2.26734e-005 -1.76736e-005 -1.37797e-005 -1.07510e-005 -8.42194e-006 -6.68067e-006 -5.42405e-006 -4.50754e-006 -3.77057e-006 -3.12001e-006 -2.53751e-006 -2.03221e-006 -1.60359e-006 -1.24212e-006 -9.39536e-007 -6.84340e-007 -4.67582e-007 -2.84151e-007 -1.31494e-007  0.00000e+000  1.31494e-007  2.84151e-007  4.67582e-007  6.84340e-007  9.39536e-007  1.24212e-006  1.60359e-006  2.03221e-006  2.53751e-006  3.12001e-006  3.77057e-006  4.50754e-006  5.42405e-006  6.68067e-006  8.42194e-006  1.07510e-005  1.37797e-005  1.76736e-005  2.26734e-005  2.91134e-005  3.74402e-005  4.82497e-005  6.23940e-005  8.13196e-005  1.07754e-004  1.46156e-004  2.02255e-004  2.81960e-004  3.88508e-004  4.48587e-004
  5.00000e-004 -4.48870e-004 -3.90000e-004 -2.84645e-004 -2.04571e-004 -1.47750e-004 -1.08667e-004 -8.17301e-005 -6.25269e-005 -4.82705e-005 -3.74248e-005 -2.90878e-005 -2.26462e-005 -1.76487e-005 -1.37592e-005 -1.07376e-005 -8.41615e-006 -6.67851e-006 -5.41509e-006 -4.48539e-006 -3.74247e-006 -3.09502e-006 -2.51970e-006 -2.02049e-006 -1.59625e-006 -1.23687e-006 -9.36030e-007 -6.82305e-007 -4.66797e-007 -2.85700e-007 -1.33287e-007  0.00000e+000  1.33287e-007  2.85700e-007  4.66797e-007  6.82305e-007  9.36030e-007  1.23687e-006  1.59625e-006  2.02049e-006  2.51970e-006  3.09502e-006  3.74247e-006  4.48539e-006  5.41509e-006  6.67851e-006  8.41615e-006  1.07376e-005  1.37592e-005  1.76487e-005  2.26462e-005  2.90878e-005  3.74248e-005  4.82705e-005  6.25269e-005  8.17301e-005  1.08667e-004  1.47750e-004  2.04571e-004  2.84645e-004  3.90000e-004  4.48870e-004
  3.75000e-004 -4.48884e-004 -3.90991e-004 -2.86639e-004 -2.06335e-004 -1.48974e-004 -1.09373e-004 -8.20516e-005 -6.26322e-005 -4.82880e-005 -3.74134e-005 -2.90683e-005 -2.26248e-005 -1.76280e-005 -1.37432e-005 -1.07281e-005 -8.41193e-006 -6.67574e-006 -5.40658e-006 -4.46775e-006 -3.72055e-006 -3.07665e-006 -2.50772e-006 -2.01203e-006 -1.58906e-006 -1.23257e-006 -9.33082e-007 -6.80501e-007 -4.66598e-007 -2.86317e-007 -1.34591e-007  0.00000e+000  1.34591e-007  2.86317e-007  4.66598e-007  6.80501e-007  9.33082e-007  1.23257e-006  1.58906e-006  2.01203e-006  2.50772e-006  3.07665e-006  3.72055e-006  4.46775e-006  5.40658e-006  6.67574e-006  8.41193e-006  1.07281e-005  1.37432e-005  1.76280e-005  2.26248e-005  2.90683e-005  3.74134e-005  4.82880e-005  6.26322e-005  8.20516e-005  1.09373e-004  1.48974e-004  2.06335e-004  2.86639e-004  3.90991e-004  4.48884e-004
  2.50000e-004 -4.48783e-004 -3.91610e-004 -2.88016e-004 -2.07574e-004 -1.49840e-004 -1.09876e-004 -8.22828e-005 -6.27094e-005 -4.83004e-005 -3.74053e-005 -2.90531e-005 -2.26086e-005 -1.76137e-005 -1.37312e-005 -1.07208e-005 -8.40949e-006 -6.67318e-006 -5.40053e-006 -4.45650e-006 -3.70603e-006 -3.06293e-006 -2.49710e-006 -2.00491e-006 -1.58520e-006 -1.23049e-006 -9.31336e-007 -6.79569e-007 -4.66357e-007 -2.86658e-007 -1.35422e-007  0.00000e+000  1.35422e-007  2.86658e-007  4.66357e-007  6.79569e-007  9.31336e-007  1.23049e-006  1.58520e-006  2.00491e-006  2.49710e-006  3.06293e-006  3.70603e-006  4.45650e-006  5.40053e-006  6.67318e-006  8.40949e-006  1.07208e-005  1.37312e-005  1.76137e-005  2.26086e-005  2.90531e-005  3.74053e-005  4.83004e-005  6.27094e-005  8.22828e-005  1.09876e-004  1.49840e-004  2.07574e-004  2.88016e-004  3.91610e-004  4.48783e-004
  1.25000e-004 -4.48679e-004 -3.91945e-004 -2.88822e-004 -2.08308e-004 -1.50356e-004 -1.10177e-004 -8.24213e-005 -6.27563e-005 -4.83088e-005 -3.73998e-005 -2.90440e-005 -2.25985e-005 -1.76056e-005 -1.37255e-005 -1.07152e-005 -8.40708e-006 -6.67160e-006 -5.39637e-006 -4.44975e-006 -3.69757e-006 -3.05572e-006 -2.49162e-006 -2.00101e-006 -1.58212e-006 -1.22810e-006 -9.30159e-007 -6.78881e-007 -4.66083e-007 -2.87365e-007 -1.35790e-007  0.00000e+000  1.35790e-007  2.87365e-007  4.66083e-007  6.78881e-007  9.30159e-007  1.22810e-006  1.58212e-006  2.00101e-006  2.49162e-006  3.05572e-006  3.69757e-006  4.44975e-006  5.39637e-006  6.67160e-006  8.40708e-006  1.07152e-005  1.37255e-005  1.76056e-005  2.25985e-005  2.90440e-005  3.73998e-005  4.83088e-005  6.27563e-005  8.24213e-005  1.10177e-004  1.50356e-004  2.08308e-004  2.88822e-004  3.91945e-004  4.48679e-004
  0.00000e+000 -4.48639e-004 -3.92052e-004 -2.89087e-004 -2.08552e-004 -1.50527e-004 -1.10276e-004 -8.24685e-005 -6.27729e-005 -4.83113e-005 -3.73972e-005 -2.90411e-005 -2.25965e-005 -1.76018e-005 -1.37230e-005 -1.07152e-005 -8.40606e-006 -6.67107e-006 -5.39477e-006 -4.44687e-006 -3.69581e-006 -3.05248e-006 -2.48875e-006 -1.99972e-006 -1.58110e-006 -1.22793e-006 -9.30187e-007 -6.79072e-007 -4.66412e-007 -2.87178e-007 -1.35071e-007  0.00000e+000  1.35071e-007  2.87178e-007  4.66412e-007  6.79072e-007  9.30187e-007  1.22793e-006  1.58110e-006  1.99972e-006  2.48875e-006  3.05248e-006  3.69581e-006  4.44687e-006  5.39477e-006  6.67107e-006  8.40606e-006  1.07152e-005  1.37230e-005  1.76018e-005  2.25965e-005  2.90411e-005  3.73972e-005  4.83113e-005  6.27729e-005  8.24685e-005  1.10276e-004  1.50527e-004  2.08552e-004  2.89087e-004  3.92052e-004  4.48639e-004
 -1.25000e-004 -4.48679e-004 -3.91945e-004 -2.88822e-004 -2.08308e-004 -1.50356e-004 -1.10177e-004 -8.24213e-005 -6.27563e-005 -4.83088e-005 -3.73998e-005 -2.90440e-005 -2.25985e-005 -1.76056e-005 -1.37255e-005 -1.07152e-005 -8.40708e-006 -6.67160e-006 -5.39637e-006 -4.44975e-006 -3.69757e-006 -3.05572e-006 -2.49162e-006 -2.00101e-006 -1.58212e-006 -1.22810e-006 -9.30159e-007 -6.78881e-007 -4.66083e-007 -2.87365e-007 -1.35790e-007  0.00000e+000  1.35790e-007  2.87365e-007  4.66083e-007  6.78881e-007  9.30159e-007  1.22810e-006  1.58212e-006  2.00101e-006  2.49162e-006  3.05572e-006  3.69757e-006  4.44975e-006  5.39637e-006  6.67160e-006  8.40708e-006  1.07152e-005  1.37255e-005  1.76056e-005  2.25985e-005  2.90440e-005  3.73998e-005  4.83088e-005  6.27563e-005  8.24213e-005  1.10177e-004  1.50356e-004  2.08308e-004  2.88822e-004  3.91945e-004  4.48679e-004
 -2.50000e-004 -4.48783e-004 -3.91610e-004 -2.88016e-004 -2.07574e-004 -1.49840e-004 -1.09876e-004 -8.22828e-005 -6.27094e-005 -4.83004e-005 -3.74053e-005 -2.90531e-005 -2.26086e-005 -1.76137e-005 -1.37312e-005 -1.07208e-005 -8.40949e-006 -6.67318e-006 -5.40053e-006 -4.45650e-006 -3.70603e-006 -3.06293e-006 -2.49710e-006 -2.00491e-006 -1.58520e-006 -1.23049e-006 -9.31336e-007 -6.79569e-007 -4.66357e-007 -2.86658e-007 -1.35422e-007  0.00000e+000  1.35422e-007  2.86658e-007  4.66357e-007  6.79569e-007  9.31336e-007  1.23049e-006  1.58520e-006  2.00491e-006  2.49710e-006  3.06293e-006  3.70603e-006  4.45650e-006  5.40053e-006  6.67318e-006  8.40949e-006  1.07208e-005  1.37312e-005  1.76137e-005  2.26086e-005  2.90531e-005  3.74053e-005  4.83004e-005  6.27094e-005  8.22828e-005  1.09876e-004  1.49840e-004  2.07574e-004  2.88016e-004  3.91610e-004  4.48783e-004
 -3.75000e-004 -4.48884e-004 -3.90991e-004 -2.86639e-004 -2.06335e-004 -1.48974e-004 -1.09373e-004 -8.20516e-005 -6.26322e-005 -4.82880e-005 -3.74134e-005 -2.90683e-005 -2.26248e-005 -1.76280e-005 -1.37432e-005 -1.07281e-005 -8.41193e-006 -6.67574e-006 -5.40658e-006 -4.46775e-006 -3.72055e-006 -3.07665e-006 -2.50772e-006 -2.01203e-006 -1.58906e-006 -1.23257e-006 -9.33082e-007 -6.80501e-007 -4.66598e-007 -2.86317e-007 -1.34591e-007  0.00000e+000  1.34591e-007  2.86317e-007  4.66598e-007  6.80501e-007  9.33082e-007  1.23257e-006  1.58906e-006  2.01203e-006  2.50772e-006  3.07665e-006  3.72055e-006  4.46775e-006  5.40658e-006  6.67574e-006  8.41193e-006  1.07281e-005  1.37432e-005  1.76280e-005  2.26248e-005  2.90683e-005  3.74134e-005  4.82880e-005  6.26322e-005  8.20516e-005  1.09373e-004  1.48974e-004  2.06335e-004  2.86639e-004  3.90991e-004  4.48884e-004
 -5.00000e-004 -4.48870e-004 -3.90000e-004 -2.84645e-004 -2.04571e-004 -1.47750e-004 -1.08667e-004 -8.17301e-005 -6.25269e-005 -4.82705e-005 -3.74248e-005 -2.90878e-005 -2.26462e-005 -1.76487e-005 -1.37592e-005 -1.07376e-005 -8.41615e-006 -6.67851e-006 -5.41509e-006 -4.48539e-006 -3.74247e-006 -3.09502e-006 -2.51970e-006 -2.02049e-006 -1.59625e-006 -1.23687e-006 -9.36030e-007 -6.82305e-007 -4.66797e-007 -2.85700e-007 -1.33287e-007  0.00000e+000  1.33287e-007  2.85700e-007  4.66797e-007  6.82305e-007  9.36030e-007  1.23687e-006  1.59625e-006  2.02049e-006  2.51970e-006  3.09502e-006  3.74247e-006  4.48539e-006  5.41509e-006  6.67851e-006  8.41615e-006  1.07376e-005  1.37592e-005  1.76487e-005  2.26462e-005  2.90878e-005  3.74248e-005  4.82705e-005  6.25269e-005  8.17301e-005  1.08667e-004  1.47750e-004  2.04571e-004  2.84645e-004  3.90000e-004  4.48870e-004
 -6.25000e-004 -4.48587e-004 -3.88508e-004 -2.81960e-004 -2.02255e-004 -1.46156e-004 -1.07753e-004 -8.13196e-005 -6.23946e-005 -4.82497e-005 -3.74402e-005 -2.91134e-005 -2.26734e-005 -1.76736e-005 -1.37797e-005 -1.07510e-005 -8.42194e-006 -6.68067e-006 -5.42405e-006 -4.50754e-006 -3.77057e-006 -3.12001e-006 -2.53751e-006 -2.03221e-006 -1.60359e-006 -1.24212e-006 -9.39536e-007 -6.84340e-007 -4.67582e-007 -2.84151e-007 -1.31494e-007  0.00000e+000  1.31494e-007  2.84151e-007  4.67582e-007  6.84340e-007  9.39536e-007  1.24212e-006  1.60359e-006  2.03221e-006  2.53751e-006  3.12001e-006  3.77057e-006  4.50754e-006  5.42405e-006  6.68067e-006  8.42194e-006  1.07510e-005  1.37797e-005  1.76736e-005  2.26734e-005  2.91134e-005  3.74402e-005  4.82497e-005  6.23940e-005  8.13196e-005  1.07754e-004  1.46156e-004  2.02255e-004  2.81960e-004  3.88508e-004  4.48587e-004
 -7.50000e-004 -4.47804e-004 -3.86338e-004 -2.78498e-004 -1.99350e-004 -1.44178e-004 -1.06629e-004 -8.08250e-005 -6.22388e-005 -4.82269e-005 -3.74592e-005 -2.91437e-005 -2.27060e-005 -1.77041e-005 -1.38031e-005 -1.07661e-005 -8.42775e-006 -6.68264e-006 -5.43587e-006 -4.53548e-006 -3.80557e-006 -3.14849e-006 -2.55866e-006 -2.04721e-006 -1.61427e-006 -1.24896e-006 -9.42945e-007 -6.86591e-007 -4.67010e-007 -2.82929e-007 -1.30486e-007  0.00000e+000  1.30486e-007  2.82929e-007  4.67010e-007  6.86591e-007  9.42945e-007  1.24896e-006  1.61427e-006  2.04721e-006  2.55866e-006  3.14849e-006  3.80557e-006  4.53548e-006  5.43587e-006  6.68264e-006  8.42775e-006  1.07661e-005  1.38031e-005  1.77041e-005  2.27060e-005  2.91437e-005  3.74592e-005  4.82269e-005  6.22388e-005  8.08250e-005  1.06629e-004  1.44178e-004  1.99350e-004  2.78498e-004  3.86338e-004  4.47804e-004
 -8.75000e-004 -4.46232e-004 -3.83267e-004 -2.74152e-004 -1.95814e-004 -1.41799e-004 -1.05292e-004 -8.02494e-005 -6.20647e-005 -4.82013e-005 -3.74797e-005 -2.91789e-005 -2.27444e-005 -1.77386e-005 -1.38314e-005 -1.07850e-005 -8.43323e-006 -6.68215e-006 -5.44848e-006 -4.56924e-006 -3.84823e-006 -3.18505e-006 -2.58512e-006 -2.06422e-006 -1.62378e-006 -1.25738e-006 -9.48828e-007 -6.88391e-007 -4.66984e-007 -2.80070e-007 -1.28314e-007  0.00000e+000  1.28314e-007  2.80070e-007  4.66984e-007  6.88391e-007  9.48828e-007  1.25738e-006  1.62378e-006  2.06422e-006  2.58512e-006  3.18505e-006  3.84823e-006  4.56924e-006  5.44848e-006  6.68215e-006  8.43323e-006  1.07850e-005  1.38314e-005  1.77386e-005  2.27444e-005  2.91789e-005  3.74797e-005  4.82013e-005  6.20647e-005  8.02494e-005  1.05292e-004  1.41799e-004  1.95814e-004  2.74152e-004  3.83267e-004  4.46232e-004
 -1.00000e-003 -4.43488e-004 -3.79010e-004 -2.68795e-004 -1.91606e-004 -1.38997e-004 -1.03734e-004 -7.95994e-005 -6.18781e-005 -4.81775e-005 -3.75031e-005 -2.92178e-005 -2.27865e-005 -1.77781e-005 -1.38636e-005 -1.08028e-005 -8.43796e-006 -6.68210e-006 -5.46297e-006 -4.60950e-006 -3.89805e-006 -3.22789e-006 -2.61370e-006 -2.08258e-006 -1.63795e-006 -1.26609e-006 -9.53934e-007 -6.91013e-007 -4.66837e-007 -2.78139e-007 -1.25593e-007  0.00000e+000  1.25593e-007  2.78139e-007  4.66837e-007  6.91013e-007  9.53934e-007  1.26609e-006  1.63795e-006  2.08258e-006  2.61370e-006  3.22789e-006  3.89805e-006  4.60950e-006  5.46297e-006  6.68210e-006  8.43796e-006  1.08028e-005  1.38636e-005  1.77781e-005  2.27865e-005  2.92178e-005  3.75031e-005  4.81775e-005  6.18781e-005  7.95994e-005  1.03734e-004  1.38997e-004  1.91606e-004  2.68795e-004  3.79010e-004  4.43488e-004
 -1.12500e-003 -4.39099e-004 -3.73225e-004 -2.62288e-004 -1.86672e-004 -1.35754e-004 -1.01956e-004 -7.88835e-005 -6.16837e-005 -4.81533e-005 -3.75276e-005 -2.92595e-005 -2.28338e-005 -1.78220e-005 -1.38991e-005 -1.08242e-005 -8.44079e-006 -6.67679e-006 -5.47713e-006 -4.65699e-006 -3.95914e-006 -3.27582e-006 -2.64575e-006 -2.10561e-006 -1.65222e-006 -1.27570e-006 -9.61525e-007 -6.93785e-007 -4.66536e-007 -2.75147e-007 -1.21625e-007  0.00000e+000  1.21625e-007  2.75147e-007  4.66536e-007  6.93785e-007  9.61525e-007  1.27570e-006  1.65222e-006  2.10561e-006  2.64575e-006  3.27582e-006  3.95914e-006  4.65699e-006  5.47713e-006  6.67679e-006  8.44079e-006  1.08242e-005  1.38991e-005  1.78220e-005  2.28338e-005  2.92595e-005  3.75276e-005  4.81533e-005  6.16837e-005  7.88835e-005  1.01956e-004  1.35754e-004  1.86672e-004  2.62288e-004  3.73225e-004  4.39099e-004
 -1.25000e-003 -4.32460e-004 -3.65497e-004 -2.54484e-004 -1.80963e-004 -1.32041e-004 -9.99517e-005 -7.81148e-005 -6.14910e-005 -4.81318e-005 -3.75548e-005 -2.93033e-005 -2.28826e-005 -1.78702e-005 -1.39378e-005 -1.08461e-005 -8.44246e-006 -6.66695e-006 -5.48931e-006 -4.71315e-006 -4.02982e-006 -3.33165e-006 -2.68332e-006 -2.12869e-006 -1.66855e-006 -1.28688e-006 -9.68281e-007 -6.97350e-007 -4.66046e-007 -2.71702e-007 -1.17023e-007  0.00000e+000  1.17023e-007  2.71702e-007  4.66046e-007  6.97350e-007  9.68281e-007  1.28688e-006  1.66855e-006  2.12869e-006  2.68332e-006  3.33165e-006  4.02982e-006  4.71315e-006  5.48931e-006  6.66695e-006  8.44246e-006  1.08461e-005  1.39378e-005  1.78702e-005  2.28826e-005  2.93033e-005  3.75548e-005  4.81318e-005  6.14910e-005  7.81148e-005  9.99517e-005  1.32041e-004  1.80963e-004  2.54484e-004  3.65497e-004  4.32460e-004
 -1.37500e-003 -4.22838e-004 -3.55334e-004 -2.45222e-004 -1.74433e-004 -1.27833e-004 -9.77168e-005 -7.73103e-005 -6.13107e-005 -4.81145e-005 -3.75798e-005 -2.93473e-005 -2.29355e-005 -1.79216e-005 -1.39791e-005 -1.08690e-005 -8.44167e-006 -6.64988e-006 -5.49978e-006 -4.77812e-006 -4.11308e-006 -3.39490e-006 -2.72383e-006 -2.15514e-006 -1.68627e-006 -1.29893e-006 -9.75489e-007 -7.01697e-007 -4.66007e-007 -2.65715e-007 -1.10376e-007  0.00000e+000  1.10376e-007  2.65715e-007  4.66007e-007  7.01697e-007  9.75489e-007  1.29893e-006  1.68627e-006  2.15514e-006  2.72383e-006  3.39490e-006  4.11308e-006  4.77812e-006  5.49978e-006  6.64988e-006  8.44167e-006  1.08690e-005  1.39791e-005  1.79216e-005  2.29355e-005  2.93473e-005  3.75798e-005  4.81145e-005  6.13107e-005  7.73103e-005  9.77168e-005  1.27833e-004  1.74433e-004  2.45222e-004  3.55334e-004  4.22838e-004
 -1.50000e-003 -4.09349e-004 -3.42166e-004 -2.34350e-004 -1.67037e-004 -1.23098e-004 -9.52499e-005 -7.64935e-005 -6.11526e-005 -4.80999e-005 -3.76051e-005 -2.93921e-005 -2.29892e-005 -1.79752e-005 -1.40234e-005 -1.08937e-005 -8.43490e-006 -6.62267e-006 -5.50808e-006 -4.85624e-006 -4.21006e-006 -3.46375e-006 -2.76728e-006 -2.18295e-006 -1.70535e-006 -1.31252e-006 -9.84493e-007 -7.06127e-007 -4.65019e-007 -2.59121e-007 -1.02959e-007  0.00000e+000  1.02959e-007  2.59121e-007  4.65019e-007  7.06127e-007  9.84493e-007  1.31252e-006  1.70535e-006  2.18295e-006  2.76728e-006  3.46375e-006  4.21006e-006  4.85624e-006  5.50808e-006  6.62267e-006  8.43490e-006  1.08937e-005  1.40234e-005  1.79752e-005  2.29892e-005  2.93921e-005  3.76051e-005  4.80999e-005  6.11526e-005  7.64935e-005  9.52499e-005  1.23098e-004  1.67037e-004  2.34350e-004  3.42166e-004  4.09349e-004
 -1.62500e-003 -3.90953e-004 -3.25355e-004 -2.21725e-004 -1.58737e-004 -1.17802e-004 -9.25484e-005 -7.56950e-005 -6.10323e-005 -4.80877e-005 -3.76245e-005 -2.94356e-005 -2.30446e-005 -1.80304e-005 -1.40686e-005 -1.09194e-005 -8.42678e-006 -6.58285e-006 -5.50809e-006 -4.94649e-006 -4.32405e-006 -3.54113e-006 -2.81372e-006 -2.21346e-006 -1.72577e-006 -1.32625e-006 -9.93212e-007 -7.10596e-007 -4.63701e-007 -2.51150e-007 -9.33057e-008  0.00000e+000  9.33057e-008  2.51150e-007  4.63701e-007  7.10596e-007  9.93212e-007  1.32625e-006  1.72577e-006  2.21346e-006  2.81372e-006  3.54183e-006  4.32405e-006  4.94579e-006  5.50809e-006  6.58285e-006  8.42678e-006  1.09194e-005  1.40686e-005  1.80304e-005  2.30446e-005  2.94356e-005  3.76245e-005  4.80877e-005  6.10323e-005  7.56950e-005  9.25484e-005  1.17802e-004  1.58737e-004  2.21725e-004  3.25355e-004  3.90953e-004
 -1.75000e-003 -3.66466e-004 -3.04203e-004 -2.07232e-004 -1.49510e-004 -1.11899e-004 -8.96093e-005 -7.49572e-005 -6.09614e-005 -4.80772e-005 -3.76399e-005 -2.94752e-005 -2.30993e-005 -1.80874e-005 -1.41162e-005 -1.09438e-005 -8.41007e-006 -6.52700e-006 -5.50176e-006 -5.05420e-006 -4.45718e-006 -3.62588e-006 -2.86313e-006 -2.24454e-006 -1.74678e-006 -1.34074e-006 -1.00299e-006 -7.15765e-007 -4.63419e-007 -2.41698e-007 -7.98529e-008  0.00000e+000  7.98529e-008  2.41698e-007  4.63419e-007  7.15765e-007  1.00299e-006  1.34074e-006  1.74749e-006  2.24454e-006  2.86241e-006  3.62588e-006  4.45718e-006  5.05420e-006  5.50176e-006  6.52700e-006  8.41007e-006  1.09438e-005  1.41162e-005  1.80874e-005  2.30993e-005  2.94752e-005  3.76399e-005  4.80772e-005  6.09614e-005  7.49572e-005  8.96093e-005  1.11899e-004  1.49510e-004  2.07232e-004  3.04203e-004  3.66466e-004
 -1.87500e-003 -3.34627e-004 -2.78004e-004 -1.90795e-004 -1.39349e-004 -1.05334e-004 -8.64288e-005 -7.43387e-005 -6.09559e-005 -4.80638e-005 -3.76438e-005 -2.95093e-005 -2.31510e-005 -1.81444e-005 -1.41667e-005 -1.09687e-005 -8.38851e-006 -6.44847e-006 -5.48099e-006 -5.18432e-006 -4.61241e-006 -3.71676e-006 -2.91548e-006 -2.27680e-006 -1.76899e-006 -1.35666e-006 -1.01380e-006 -7.20159e-007 -4.61275e-007 -2.32094e-007 -6.38238e-008  0.00000e+000  6.38238e-008  2.32094e-007  4.61275e-007  7.20159e-007  1.01380e-006  1.35666e-006  1.76899e-006  2.27680e-006  2.91548e-006  3.71676e-006  4.61241e-006  5.18432e-006  5.48099e-006  6.44847e-006  8.38851e-006  1.09687e-005  1.41667e-005  1.81444e-005  2.31510e-005  2.95093e-005  3.76438e-005  4.80638e-005  6.09559e-005  7.43387e-005  8.64288e-005  1.05334e-004  1.39349e-004  1.90795e-004  2.78004e-004  3.34627e-004
 -2.00000e-003 -2.94181e-004 -2.46098e-004 -1.72400e-004 -1.28265e-004 -9.80311e-005 -8.30031e-005 -7.39238e-005 -6.10256e-005 -4.80402e-005 -3.76336e-005 -2.95327e-005 -2.32007e-005 -1.82025e-005 -1.42155e-005 -1.09943e-005 -8.36081e-006 -6.33924e-006 -5.44138e-006 -5.34065e-006 -4.79511e-006 -3.81309e-006 -2.96922e-006 -2.31155e-006 -1.79156e-006 -1.37247e-006 -1.02486e-006 -7.25876e-007 -4.60065e-007 -2.17851e-007 -4.13495e-008  0.00000e+000  4.13495e-008  2.17851e-007  4.60065e-007  7.25876e-007  1.02486e-006  1.37247e-006  1.79156e-006  2.31155e-006  2.96922e-006  3.81309e-006  4.79511e-006  5.34065e-006  5.44138e-006  6.33924e-006  8.36081e-006  1.09943e-005  1.42155e-005  1.82025e-005  2.32007e-005  2.95327e-005  3.76336e-005  4.80402e-005  6.10256e-005  7.39238e-005  8.30031e-005  9.80311e-005  1.28265e-004  1.72400e-004  2.46098e-004  2.94181e-004
 -2.12500e-003 -2.44102e-004 -2.07999e-004 -1.52110e-004 -1.16302e-004 -8.98736e-005 -7.93196e-005 -7.38287e-005 -6.11717e-005 -4.79940e-005 -3.76020e-005 -2.95465e-005 -2.32432e-005 -1.82567e-005 -1.42643e-005 -1.10176e-005 -8.32606e-006 -6.19419e-006 -5.37649e-006 -5.53011e-006 -5.00937e-006 -3.91400e-006 -3.02181e-006 -2.34490e-006 -1.81655e-006 -1.38951e-006 -1.03529e-006 -7.31383e-007 -4.59019e-007 -2.03172e-007 -1.35341e-008  0.00000e+000  1.35341e-008  2.03172e-007  4.59019e-007  7.31383e-007  1.03529e-006  1.38951e-006  1.81655e-006  2.34490e-006  3.02181e-006  3.91400e-006  5.00937e-006  5.53011e-006  5.37649e-006  6.19419e-006  8.32531e-006  1.10176e-005  1.42651e-005  1.82567e-005  2.32432e-005  2.95465e-005  3.76020e-005  4.79940e-005  6.11717e-005  7.38287e-005  7.93196e-005  8.98736e-005  1.16302e-004  1.52110e-004  2.07999e-004  2.44102e-004
 -2.25000e-003 -1.83872e-004 -1.63547e-004 -1.30082e-004 -1.03535e-004 -8.06809e-005 -7.53597e-005 -7.42331e-005 -6.13792e-005 -4.79061e-005 -3.75397e-005 -2.95416e-005 -2.32757e-005 -1.83054e-005 -1.43095e-005 -1.10408e-005 -8.28664e-006 -5.99827e-006 -5.27295e-006 -5.76136e-006 -5.25928e-006 -4.01368e-006 -3.07489e-006 -2.37936e-006 -1.83989e-006 -1.40601e-006 -1.04715e-006 -7.38054e-007 -4.57279e-007 -1.86437e-007  2.61067e-008  0.00000e+000 -2.61067e-008  1.86437e-007  4.57279e-007  7.38054e-007  1.04715e-006  1.40601e-006  1.83989e-006  2.37936e-006  3.07489e-006  4.01368e-006  5.25928e-006  5.76136e-006  5.27295e-006  5.99827e-006  8.28664e-006  1.10408e-005  1.43095e-005  1.83054e-005  2.32757e-005  2.95416e-005  3.75397e-005  4.79061e-005  6.13792e-005  7.42331e-005  7.53597e-005  8.06809e-005  1.03535e-004  1.30082e-004  1.63547e-004  1.83872e-004
 -2.37500e-003 -1.13892e-004 -1.13127e-004 -1.06572e-004 -9.00878e-005 -7.01487e-005 -7.10793e-005 -7.54152e-005 -6.15980e-005 -4.77513e-005 -3.74304e-005 -2.95086e-005 -2.32922e-005 -1.83430e-005 -1.43499e-005 -1.10585e-005 -8.23878e-006 -5.74323e-006 -5.12122e-006 -6.03670e-006 -5.54531e-006 -4.11156e-006 -3.12440e-006 -2.41191e-006 -1.86326e-006 -1.42308e-006 -1.05863e-006 -7.44940e-007 -4.57001e-007 -1.67453e-007  7.98534e-008  0.00000e+000 -7.98534e-008  1.67453e-007  4.57001e-007  7.44940e-007  1.05863e-006  1.42308e-006  1.86326e-006  2.41191e-006  3.12440e-006  4.11156e-006  5.54531e-006  6.03670e-006  5.12122e-006  5.74323e-006  8.23878e-006  1.10585e-005  1.43499e-005  1.83430e-005  2.32922e-005  2.95086e-005  3.74304e-005  4.77513e-005  6.15980e-005  7.54152e-005  7.10793e-005  7.01487e-005  9.00878e-005  1.06572e-004  1.13127e-004  1.13892e-004
 -2.50000e-003 -3.58943e-005 -5.78810e-005 -8.19552e-005 -7.61526e-005 -5.76946e-005 -6.63874e-005 -7.78823e-005 -6.17211e-005 -4.74888e-005 -3.72573e-005 -2.94326e-005 -2.32777e-005 -1.83598e-005 -1.43729e-005 -1.10671e-005 -8.18795e-006 -5.41702e-006 -4.90546e-006 -6.35383e-006 -5.86009e-006 -4.19731e-006 -3.16921e-006 -2.44110e-006 -1.88323e-006 -1.43997e-006 -1.06993e-006 -7.49256e-007 -4.56436e-007 -1.50800e-007  1.56458e-007  0.00000e+000 -1.56458e-007  1.50800e-007  4.56436e-007  7.49256e-007  1.06993e-006  1.43997e-006  1.88403e-006  2.44110e-006  3.16842e-006  4.19731e-006  5.86009e-006  6.35383e-006  4.90546e-006  5.41702e-006  8.18795e-006  1.10671e-005  1.43729e-005  1.83598e-005  2.32777e-005  2.94326e-005  3.72573e-005  4.74888e-005  6.17211e-005  7.78823e-005  6.63874e-005  5.76946e-005  7.61526e-005  8.19552e-005  5.78810e-005  3.58943e-005
# Vertical 2nd Order Kick [T2m2]
START
               -2.00000e-002 -1.93333e-002 -1.86667e-002 -1.80000e-002 -1.73333e-002 -1.66667e-002 -1.60000e-002 -1.53333e-002 -1.46667e-002 -1.40000e-002 -1.33333e-002 -1.26667e-002 -1.20000e-002 -1.13333e-002 -1.06667e-002 -1.00000e-002 -9.33333e-003 -8.66667e-003 -8.00000e-003 -7.33333e-003 -6.66667e-003 -6.00000e-003 -5.33333e-003 -4.66667e-003 -4.00000e-003 -3.33333e-003 -2.66667e-003 -2.00000e-003 -1.33333e-003 -6.66667e-004  0.00000e+000  6.66667e-004  1.33333e-003  2.00000e-003  2.66667e-003  3.33333e-003  4.00000e-003  4.66667e-003  5.33333e-003  6.00000e-003  6.66667e-003  7.33333e-003  8.00000e-003  8.66667e-003  9.33333e-003  1.00000e-002  1.06667e-002  1.13333e-002  1.20000e-002  1.26667e-002  1.33333e-002  1.40000e-002  1.46667e-002  1.53333e-002  1.60000e-002  1.66667e-002  1.73333e-002  1.80000e-002  1.86667e-002  1.93333e-002  2.00000e-002
  2.50000e-003 -2.66672e-003 -2.25073e-003 -2.07743e-003 -1.98815e-003 -1.92879e-003 -1.85530e-003 -1.87874e-003 -1.88162e-003 -1.88005e-003 -1.87882e-003 -1.87821e-003 -1.87801e-003 -1.87805e-003 -1.87819e-003 -1.87830e-003 -1.87829e-003 -1.87775e-003 -1.87480e-003 -1.87545e-003 -1.87818e-003 -1.87881e-003 -1.87910e-003 -1.87929e-003 -1.87941e-003 -1.87950e-003 -1.87959e-003 -1.87962e-003 -1.87963e-003 -1.87962e-003 -1.87946e-003 -1.87880e-003 -1.87946e-003 -1.87962e-003 -1.87963e-003 -1.87962e-003 -1.87959e-003 -1.87950e-003 -1.87941e-003 -1.87929e-003 -1.87910e-003 -1.87881e-003 -1.87818e-003 -1.87545e-003 -1.87480e-003 -1.87775e-003 -1.87828e-003 -1.87830e-003 -1.87819e-003 -1.87805e-003 -1.87801e-003 -1.87821e-003 -1.87882e-003 -1.88005e-003 -1.88162e-003 -1.87874e-003 -1.85530e-003 -1.92879e-003 -1.98815e-003 -2.07743e-003 -2.25073e-003 -2.66672e-003
  2.37500e-003 -2.60819e-003 -2.21358e-003 -2.04464e-003 -1.95691e-003 -1.89860e-003 -1.83431e-003 -1.85075e-003 -1.85378e-003 -1.85257e-003 -1.85155e-003 -1.85107e-003 -1.85096e-003 -1.85108e-003 -1.85126e-003 -1.85141e-003 -1.85140e-003 -1.85089e-003 -1.84830e-003 -1.84893e-003 -1.85146e-003 -1.85213e-003 -1.85244e-003 -1.85264e-003 -1.85277e-003 -1.85287e-003 -1.85295e-003 -1.85299e-003 -1.85301e-003 -1.85298e-003 -1.85282e-003 -1.85229e-003 -1.85282e-003 -1.85298e-003 -1.85301e-003 -1.85299e-003 -1.85295e-003 -1.85287e-003 -1.85277e-003 -1.85264e-003 -1.85244e-003 -1.85213e-003 -1.85146e-003 -1.84893e-003 -1.84830e-003 -1.85089e-003 -1.85140e-003 -1.85141e-003 -1.85126e-003 -1.85108e-003 -1.85097e-003 -1.85107e-003 -1.85155e-003 -1.85257e-003 -1.85378e-003 -1.85075e-003 -1.83431e-003 -1.89860e-003 -1.95691e-003 -2.04464e-003 -2.21358e-003 -2.60819e-003
  2.25000e-003 -2.46301e-003 -2.11579e-003 -1.95703e-003 -1.87292e-003 -1.81722e-003 -1.76772e-003 -1.77327e-003 -1.77618e-003 -1.77555e-003 -1.77489e-003 -1.77463e-003 -1.77468e-003 -1.77489e-003 -1.77515e-003 -1.77535e-003 -1.77536e-003 -1.77488e-003 -1.77296e-003 -1.77352e-003 -1.77566e-003 -1.77638e-003 -1.77671e-003 -1.77693e-003 -1.77707e-003 -1.77718e-003 -1.77725e-003 -1.77730e-003 -1.77732e-003 -1.77729e-003 -1.77713e-003 -1.77679e-003 -1.77713e-003 -1.77729e-003 -1.77732e-003 -1.77730e-003 -1.77725e-003 -1.77718e-003 -1.77707e-003 -1.77693e-003 -1.77671e-003 -1.77638e-003 -1.77566e-003 -1.77352e-003 -1.77296e-003 -1.77488e-003 -1.77536e-003 -1.77535e-003 -1.77515e-003 -1.77489e-003 -1.77468e-003 -1.77463e-003 -1.77489e-003 -1.77555e-003 -1.77618e-003 -1.77327e-003 -1.76772e-003 -1.81722e-003 -1.87292e-003 -1.95703e-003 -2.11579e-003 -2.46301e-003
  2.12500e-003 -2.27816e-003 -1.98400e-003 -1.83788e-003 -1.75831e-003 -1.70599e-003 -1.66577e-003 -1.66523e-003 -1.66742e-003 -1.66711e-003 -1.66671e-003 -1.66661e-003 -1.66676e-003 -1.66701e-003 -1.66730e-003 -1.66752e-003 -1.66755e-003 -1.66712e-003 -1.66573e-003 -1.66622e-003 -1.66798e-003 -1.66870e-003 -1.66905e-003 -1.66926e-003 -1.66941e-003 -1.66952e-003 -1.66959e-003 -1.66964e-003 -1.66965e-003 -1.66963e-003 -1.66949e-003 -1.66926e-003 -1.66949e-003 -1.66963e-003 -1.66965e-003 -1.66964e-003 -1.66959e-003 -1.66952e-003 -1.66941e-003 -1.66926e-003 -1.66905e-003 -1.66870e-003 -1.66798e-003 -1.66622e-003 -1.66573e-003 -1.66712e-003 -1.66755e-003 -1.66752e-003 -1.66730e-003 -1.66701e-003 -1.66676e-003 -1.66661e-003 -1.66671e-003 -1.66712e-003 -1.66742e-003 -1.66523e-003 -1.66577e-003 -1.70599e-003 -1.75831e-003 -1.83788e-003 -1.98400e-003 -2.27816e-003
  2.00000e-003 -2.07961e-003 -1.83821e-003 -1.70626e-003 -1.63189e-003 -1.58334e-003 -1.54944e-003 -1.54542e-003 -1.54672e-003 -1.54657e-003 -1.54634e-003 -1.54635e-003 -1.54654e-003 -1.54684e-003 -1.54714e-003 -1.54737e-003 -1.54740e-003 -1.54703e-003 -1.54605e-003 -1.54647e-003 -1.54789e-003 -1.54859e-003 -1.54894e-003 -1.54916e-003 -1.54931e-003 -1.54940e-003 -1.54948e-003 -1.54952e-003 -1.54954e-003 -1.54951e-003 -1.54939e-003 -1.54924e-003 -1.54939e-003 -1.54951e-003 -1.54954e-003 -1.54952e-003 -1.54948e-003 -1.54940e-003 -1.54931e-003 -1.54916e-003 -1.54894e-003 -1.54859e-003 -1.54789e-003 -1.54647e-003 -1.54605e-003 -1.54703e-003 -1.54740e-003 -1.54737e-003 -1.54714e-003 -1.54684e-003 -1.54654e-003 -1.54635e-003 -1.54634e-003 -1.54657e-003 -1.54672e-003 -1.54542e-003 -1.54944e-003 -1.58334e-003 -1.63189e-003 -1.70626e-003 -1.83821e-003 -2.07961e-003
  1.87500e-003 -1.88171e-003 -1.68895e-003 -1.57182e-003 -1.50317e-003 -1.45851e-003 -1.42921e-003 -1.42328e-003 -1.42370e-003 -1.42362e-003 -1.42351e-003 -1.42358e-003 -1.42381e-003 -1.42412e-003 -1.42443e-003 -1.42465e-003 -1.42470e-003 -1.42439e-003 -1.42369e-003 -1.42407e-003 -1.42522e-003 -1.42587e-003 -1.42622e-003 -1.42644e-003 -1.42658e-003 -1.42668e-003 -1.42675e-003 -1.42679e-003 -1.42680e-003 -1.42678e-003 -1.42667e-003 -1.42657e-003 -1.42667e-003 -1.42678e-003 -1.42680e-003 -1.42679e-003 -1.42675e-003 -1.42668e-003 -1.42658e-003 -1.42644e-003 -1.42622e-003 -1.42587e-003 -1.42522e-003 -1.42407e-003 -1.42369e-003 -1.42439e-003 -1.42470e-003 -1.42465e-003 -1.42443e-003 -1.42412e-003 -1.42381e-003 -1.42358e-003 -1.42351e-003 -1.42362e-003 -1.42370e-003 -1.42328e-003 -1.42921e-003 -1.45851e-003 -1.50317e-003 -1.57182e-003 -1.68895e-003 -1.88171e-003
  1.75000e-003 -1.69173e-003 -1.54153e-003 -1.43920e-003 -1.37657e-003 -1.33579e-003 -1.31008e-003 -1.30316e-003 -1.30284e-003 -1.30275e-003 -1.30272e-003 -1.30285e-003 -1.30311e-003 -1.30342e-003 -1.30372e-003 -1.30394e-003 -1.30398e-003 -1.30374e-003 -1.30326e-003 -1.30359e-003 -1.30453e-003 -1.30513e-003 -1.30547e-003 -1.30567e-003 -1.30581e-003 -1.30591e-003 -1.30597e-003 -1.30601e-003 -1.30602e-003 -1.30600e-003 -1.30592e-003 -1.30584e-003 -1.30592e-003 -1.30600e-003 -1.30602e-003 -1.30601e-003 -1.30597e-003 -1.30591e-003 -1.30581e-003 -1.30567e-003 -1.30547e-003 -1.30513e-003 -1.30454e-003 -1.30359e-003 -1.30326e-003 -1.30374e-003 -1.30398e-003 -1.30394e-003 -1.30372e-003 -1.30342e-003 -1.30311e-003 -1.30285e-003 -1.30272e-003 -1.30275e-003 -1.30284e-003 -1.30316e-003 -1.31008e-003 -1.33579e-003 -1.37657e-003 -1.43920e-003 -1.54153e-003 -1.69173e-003
  1.62500e-003 -1.51296e-003 -1.39860e-003 -1.31049e-003 -1.25397e-003 -1.21701e-003 -1.19424e-003 -1.18693e-003 -1.18605e-003 -1.18591e-003 -1.18592e-003 -1.18609e-003 -1.18637e-003 -1.18668e-003 -1.18697e-003 -1.18718e-003 -1.18723e-003 -1.18704e-003 -1.18672e-003 -1.18701e-003 -1.18778e-003 -1.18833e-003 -1.18864e-003 -1.18884e-003 -1.18897e-003 -1.18906e-003 -1.18912e-003 -1.18916e-003 -1.18917e-003 -1.18915e-003 -1.18908e-003 -1.18903e-003 -1.18908e-003 -1.18915e-003 -1.18917e-003 -1.18916e-003 -1.18912e-003 -1.18906e-003 -1.18897e-003 -1.18884e-003 -1.18864e-003 -1.18833e-003 -1.18778e-003 -1.18701e-003 -1.18672e-003 -1.18704e-003 -1.18723e-003 -1.18718e-003 -1.18697e-003 -1.18668e-003 -1.18637e-003 -1.18609e-003 -1.18592e-003 -1.18591e-003 -1.18605e-003 -1.18693e-003 -1.19424e-003 -1.21701e-003 -1.25397e-003 -1.31049e-003 -1.39860e-003 -1.51296e-003
  1.50000e-003 -1.34643e-003 -1.26140e-003 -1.18654e-003 -1.13608e-003 -1.10282e-003 -1.08258e-003 -1.07526e-003 -1.07396e-003 -1.07378e-003 -1.07382e-003 -1.07401e-003 -1.07429e-003 -1.07460e-003 -1.07487e-003 -1.07507e-003 -1.07514e-003 -1.07499e-003 -1.07478e-003 -1.07504e-003 -1.07568e-003 -1.07616e-003 -1.07646e-003 -1.07664e-003 -1.07677e-003 -1.07685e-003 -1.07692e-003 -1.07695e-003 -1.07696e-003 -1.07694e-003 -1.07689e-003 -1.07684e-003 -1.07689e-003 -1.07694e-003 -1.07696e-003 -1.07695e-003 -1.07692e-003 -1.07685e-003 -1.07677e-003 -1.07664e-003 -1.07646e-003 -1.07616e-003 -1.07568e-003 -1.07504e-003 -1.07478e-003 -1.07499e-003 -1.07514e-003 -1.07507e-003 -1.07487e-003 -1.07460e-003 -1.07429e-003 -1.07401e-003 -1.07382e-003 -1.07378e-003 -1.07396e-003 -1.07526e-003 -1.08258e-003 -1.10282e-003 -1.13608e-003 -1.18654e-003 -1.26140e-003 -1.34643e-003
  1.37500e-003 -1.19202e-003 -1.13040e-003 -1.06759e-003 -1.02302e-003 -9.93312e-004 -9.75317e-004 -9.68236e-004 -9.66670e-004 -9.66431e-004 -9.66500e-004 -9.66699e-004 -9.66973e-004 -9.67268e-004 -9.67533e-004 -9.67724e-004 -9.67787e-004 -9.67684e-004 -9.67551e-004 -9.67784e-004 -9.68314e-004 -9.68745e-004 -9.69019e-004 -9.69193e-004 -9.69308e-004 -9.69389e-004 -9.69445e-004 -9.69476e-004 -9.69492e-004 -9.69470e-004 -9.69425e-004 -9.69395e-004 -9.69425e-004 -9.69470e-004 -9.69492e-004 -9.69476e-004 -9.69445e-004 -9.69389e-004 -9.69308e-004 -9.69193e-004 -9.69019e-004 -9.68745e-004 -9.68314e-004 -9.67784e-004 -9.67551e-004 -9.67684e-004 -9.67787e-004 -9.67724e-004 -9.67533e-004 -9.67268e-004 -9.66973e-004 -9.66699e-004 -9.66500e-004 -9.66431e-004 -9.66670e-004 -9.68236e-004 -9.75317e-004 -9.93312e-004 -1.02302e-003 -1.06759e-003 -1.13040e-003 -1.19202e-003
  1.25000e-003 -1.04898e-003 -1.00562e-003 -9.53558e-004 -9.14601e-004 -8.88284e-004 -8.72358e-004 -8.65675e-004 -8.63967e-004 -8.63686e-004 -8.63760e-004 -8.63964e-004 -8.64228e-004 -8.64507e-004 -8.64755e-004 -8.64933e-004 -8.64997e-004 -8.64938e-004 -8.64854e-004 -8.65059e-004 -8.65500e-004 -8.65880e-004 -8.66135e-004 -8.66296e-004 -8.66399e-004 -8.66478e-004 -8.66523e-004 -8.66552e-004 -8.66565e-004 -8.66550e-004 -8.66515e-004 -8.66490e-004 -8.66515e-004 -8.66550e-004 -8.66565e-004 -8.66552e-004 -8.66523e-004 -8.66478e-004 -8.66399e-004 -8.66296e-004 -8.66135e-004 -8.65880e-004 -8.65500e-004 -8.65059e-004 -8.64854e-004 -8.64938e-004 -8.64997e-004 -8.64933e-004 -8.64759e-004 -8.64507e-004 -8.64228e-004 -8.63964e-004 -8.63760e-004 -8.63686e-004 -8.63967e-004 -8.65675e-004 -8.72358e-004 -8.88284e-004 -9.14598e-004 -9.53558e-004 -1.00562e-003 -1.04898e-003
  1.12500e-003 -9.16256e-004 -8.86847e-004 -8.44189e-004 -8.10521e-004 -7.87430e-004 -7.73424e-004 -7.67257e-004 -7.65507e-004 -7.65192e-004 -7.65263e-004 -7.65468e-004 -7.65720e-004 -7.65981e-004 -7.66211e-004 -7.66376e-004 -7.66441e-004 -7.66400e-004 -7.66361e-004 -7.66541e-004 -7.66913e-004 -7.67244e-004 -7.67467e-004 -7.67615e-004 -7.67713e-004 -7.67778e-004 -7.67823e-004 -7.67855e-004 -7.67857e-004 -7.67851e-004 -7.67823e-004 -7.67805e-004 -7.67823e-004 -7.67851e-004 -7.67857e-004 -7.67855e-004 -7.67823e-004 -7.67778e-004 -7.67713e-004 -7.67615e-004 -7.67467e-004 -7.67244e-004 -7.66913e-004 -7.66541e-004 -7.66361e-004 -7.66400e-004 -7.66441e-004 -7.66376e-004 -7.66211e-004 -7.65981e-004 -7.65720e-004 -7.65468e-004 -7.65263e-004 -7.65192e-004 -7.65507e-004 -7.67257e-004 -7.73424e-004 -7.87430e-004 -8.10521e-004 -8.44189e-004 -8.86847e-004 -9.16256e-004
  1.00000e-003 -7.92694e-004 -7.73673e-004 -7.39139e-004 -7.10402e-004 -6.90380e-004 -6.78164e-004 -6.72588e-004 -6.70880e-004 -6.70556e-004 -6.70624e-004 -6.70811e-004 -6.71054e-004 -6.71288e-004 -6.71502e-004 -6.71649e-004 -6.71708e-004 -6.71689e-004 -6.71680e-004 -6.71842e-004 -6.72148e-004 -6.72434e-004 -6.72632e-004 -6.72757e-004 -6.72852e-004 -6.72909e-004 -6.72950e-004 -6.72976e-004 -6.72979e-004 -6.72974e-004 -6.72953e-004 -6.72938e-004 -6.72953e-004 -6.72974e-004 -6.72979e-004 -6.72976e-004 -6.72950e-004 -6.72909e-004 -6.72852e-004 -6.72757e-004 -6.72632e-004 -6.72434e-004 -6.72148e-004 -6.71842e-004 -6.71680e-004 -6.71689e-004 -6.71708e-004 -6.71649e-004 -6.71499e-004 -6.71288e-004 -6.71054e-004 -6.70811e-004 -6.70624e-004 -6.70556e-004 -6.70880e-004 -6.72588e-004 -6.78164e-004 -6.90380e-004 -7.10405e-004 -7.39139e-004 -7.73673e-004 -7.92694e-004
  8.75000e-004 -6.77090e-004 -6.65582e-004 -6.38005e-004 -6.13832e-004 -5.96705e-004 -5.86200e-004 -5.81265e-004 -5.79663e-004 -5.79341e-004 -5.79400e-004 -5.79575e-004 -5.79794e-004 -5.80004e-004 -5.80189e-004 -5.80327e-004 -5.80385e-004 -5.80381e-004 -5.80382e-004 -5.80526e-004 -5.80777e-004 -5.81019e-004 -5.81200e-004 -5.81313e-004 -5.81389e-004 -5.81439e-004 -5.81480e-004 -5.81498e-004 -5.81504e-004 -5.81497e-004 -5.81478e-004 -5.81471e-004 -5.81478e-004 -5.81497e-004 -5.81504e-004 -5.81498e-004 -5.81480e-004 -5.81439e-004 -5.81389e-004 -5.81313e-004 -5.81200e-004 -5.81019e-004 -5.80777e-004 -5.80526e-004 -5.80382e-004 -5.80381e-004 -5.80385e-004 -5.80327e-004 -5.80189e-004 -5.80004e-004 -5.79794e-004 -5.79575e-004 -5.79400e-004 -5.79341e-004 -5.79663e-004 -5.81265e-004 -5.86200e-004 -5.96705e-004 -6.13832e-004 -6.38005e-004 -6.65582e-004 -6.77090e-004
  7.50000e-004 -5.68290e-004 -5.62010e-004 -5.40338e-004 -5.20363e-004 -5.05991e-004 -4.97122e-004 -4.92864e-004 -4.91414e-004 -4.91104e-004 -4.91156e-004 -4.91315e-004 -4.91505e-004 -4.91693e-004 -4.91852e-004 -4.91969e-004 -4.92033e-004 -4.92029e-004 -4.92041e-004 -4.92159e-004 -4.92370e-004 -4.92574e-004 -4.92717e-004 -4.92827e-004 -4.92888e-004 -4.92935e-004 -4.92969e-004 -4.92985e-004 -4.92991e-004 -4.92982e-004 -4.92969e-004 -4.92965e-004 -4.92969e-004 -4.92982e-004 -4.92991e-004 -4.92985e-004 -4.92969e-004 -4.92935e-004 -4.92888e-004 -4.92827e-004 -4.92717e-004 -4.92574e-004 -4.92370e-004 -4.92159e-004 -4.92041e-004 -4.92029e-004 -4.92033e-004 -4.91969e-004 -4.91852e-004 -4.91693e-004 -4.91505e-004 -4.91315e-004 -4.91156e-004 -4.91104e-004 -4.91414e-004 -4.92860e-004 -4.97122e-004 -5.05991e-004 -5.20363e-004 -5.40338e-004 -5.62010e-004 -5.68290e-004
  6.25000e-004 -4.65191e-004 -4.62346e-004 -4.45662e-004 -4.29563e-004 -4.17811e-004 -4.10514e-004 -4.06945e-004 -4.05687e-004 -4.05408e-004 -4.05454e-004 -4.05592e-004 -4.05752e-004 -4.05911e-004 -4.06048e-004 -4.06145e-004 -4.06200e-004 -4.06207e-004 -4.06222e-004 -4.06318e-004 -4.06489e-004 -4.06654e-004 -4.06774e-004 -4.06862e-004 -4.06917e-004 -4.06958e-004 -4.06981e-004 -4.06995e-004 -4.07004e-004 -4.06996e-004 -4.06989e-004 -4.06981e-004 -4.06989e-004 -4.06996e-004 -4.07004e-004 -4.06995e-004 -4.06981e-004 -4.06958e-004 -4.06917e-004 -4.06862e-004 -4.06774e-004 -4.06654e-004 -4.06489e-004 -4.06318e-004 -4.06222e-004 -4.06207e-004 -4.06200e-004 -4.06145e-004 -4.06048e-004 -4.05911e-004 -4.05752e-004 -4.05592e-004 -4.05454e-004 -4.05408e-004 -4.05687e-004 -4.06945e-004 -4.10514e-004 -4.17811e-004 -4.29563e-004 -4.45662e-004 -4.62346e-004 -4.65191e-004
  5.00000e-004 -3.66736e-004 -3.65944e-004 -3.53493e-004 -3.40989e-004 -3.31731e-004 -3.25963e-004 -3.23091e-004 -3.22059e-004 -3.21823e-004 -3.21855e-004 -3.21966e-004 -3.22096e-004 -3.22226e-004 -3.22339e-004 -3.22420e-004 -3.22461e-004 -3.22474e-004 -3.22487e-004 -3.22567e-004 -3.22700e-004 -3.22834e-004 -3.22931e-004 -3.22993e-004 -3.23038e-004 -3.23070e-004 -3.23089e-004 -3.23105e-004 -3.23110e-004 -3.23110e-004 -3.23098e-004 -3.23093e-004 -3.23098e-004 -3.23110e-004 -3.23110e-004 -3.23105e-004 -3.23089e-004 -3.23070e-004 -3.23038e-004 -3.22993e-004 -3.22931e-004 -3.22834e-004 -3.22700e-004 -3.22567e-004 -3.22487e-004 -3.22474e-004 -3.22461e-004 -3.22420e-004 -3.22339e-004 -3.22226e-004 -3.22096e-004 -3.21966e-004 -3.21855e-004 -3.21823e-004 -3.22059e-004 -3.23094e-004 -3.25963e-004 -3.31731e-004 -3.40989e-004 -3.53493e-004 -3.65944e-004 -3.66736e-004
  3.75000e-004 -2.71930e-004 -2.72163e-004 -2.63345e-004 -2.54185e-004 -2.47333e-004 -2.43040e-004 -2.40886e-004 -2.40092e-004 -2.39913e-004 -2.39933e-004 -2.40016e-004 -2.40118e-004 -2.40217e-004 -2.40304e-004 -2.40366e-004 -2.40394e-004 -2.40402e-004 -2.40423e-004 -2.40479e-004 -2.40577e-004 -2.40674e-004 -2.40748e-004 -2.40794e-004 -2.40831e-004 -2.40853e-004 -2.40865e-004 -2.40878e-004 -2.40880e-004 -2.40880e-004 -2.40874e-004 -2.40869e-004 -2.40874e-004 -2.40880e-004 -2.40880e-004 -2.40878e-004 -2.40865e-004 -2.40853e-004 -2.40831e-004 -2.40794e-004 -2.40748e-004 -2.40674e-004 -2.40577e-004 -2.40479e-004 -2.40423e-004 -2.40402e-004 -2.40394e-004 -2.40366e-004 -2.40304e-004 -2.40217e-004 -2.40118e-004 -2.40016e-004 -2.39933e-004 -2.39913e-004 -2.40092e-004 -2.40886e-004 -2.43040e-004 -2.47333e-004 -2.54185e-004 -2.63345e-004 -2.72163e-004 -2.71930e-004
  2.50000e-004 -1.79810e-004 -1.80355e-004 -1.74719e-004 -1.68714e-004 -1.64194e-004 -1.61343e-004 -1.59908e-004 -1.59372e-004 -1.59246e-004 -1.59261e-004 -1.59319e-004 -1.59391e-004 -1.59460e-004 -1.59510e-004 -1.59554e-004 -1.59579e-004 -1.59580e-004 -1.59601e-004 -1.59634e-004 -1.59697e-004 -1.59757e-004 -1.59808e-004 -1.59843e-004 -1.59867e-004 -1.59880e-004 -1.59891e-004 -1.59895e-004 -1.59900e-004 -1.59898e-004 -1.59894e-004 -1.59892e-004 -1.59894e-004 -1.59898e-004 -1.59900e-004 -1.59895e-004 -1.59891e-004 -1.59880e-004 -1.59867e-004 -1.59843e-004 -1.59808e-004 -1.59757e-004 -1.59697e-004 -1.59634e-004 -1.59601e-004 -1.59580e-004 -1.59579e-004 -1.59554e-004 -1.59510e-004 -1.59460e-004 -1.59391e-004 -1.59319e-004 -1.59261e-004 -1.59246e-004 -1.59372e-004 -1.59908e-004 -1.61343e-004 -1.64194e-004 -1.68714e-004 -1.74719e-004 -1.80355e-004 -1.79810e-004
  1.25000e-004 -8.94640e-005 -8.98498e-005 -8.71063e-005 -8.41354e-005 -8.18873e-005 -8.04709e-005 -7.97529e-005 -7.94804e-005 -7.94142e-005 -7.94223e-005 -7.94572e-005 -7.94866e-005 -7.95215e-005 -7.95501e-005 -7.95656e-005 -7.95799e-005 -7.95839e-005 -7.95912e-005 -7.96147e-005 -7.96426e-005 -7.96691e-005 -7.96983e-005 -7.97137e-005 -7.97259e-005 -7.97355e-005 -7.97396e-005 -7.97417e-005 -7.97422e-005 -7.97414e-005 -7.97394e-005 -7.97433e-005 -7.97394e-005 -7.97414e-005 -7.97422e-005 -7.97417e-005 -7.97396e-005 -7.97355e-005 -7.97259e-005 -7.97137e-005 -7.96983e-005 -7.96691e-005 -7.96426e-005 -7.96147e-005 -7.95912e-005 -7.95839e-005 -7.95799e-005 -7.95656e-005 -7.95501e-005 -7.95215e-005 -7.94866e-005 -7.94572e-005 -7.94223e-005 -7.94142e-005 -7.94804e-005 -7.97529e-005 -8.04709e-005 -8.18873e-005 -8.41354e-005 -8.71063e-005 -8.98498e-005 -8.94640e-005
  0.00000e+000  0.00000e+000  0.00000e+000  0.00000e+000  0.00000e+000  0.00000e+000  0.00000e+000  0.00000e+000  0.00000e+000  0.00000e+000  0.00000e+000  0.00000e+000  0.00000e+000  0.00000e+000  0.00000e+000  0.00000e+000  0.00000e+000  0.00000e+000  0.00000e+000  0.00000e+000  0.00000e+000  0.00000e+000  0.00000e+000  0.00000e+000  0.00000e+000  0.00000e+000  0.00000e+000  0.00000e+000  0.00000e+000  0.00000e+000  0.00000e+000  0.00000e+000  0.00000e+000  0.00000e+000  0.00000e+000  0.00000e+000  0.00000e+000  0.00000e+000  0.00000e+000  0.00000e+000  0.00000e+000  0.00000e+000  0.00000e+000  0.00000e+000  0.00000e+000  0.00000e+000  0.00000e+000  0.00000e+000  0.00000e+000  0.00000e+000  0.00000e+000  0.00000e+000  0.00000e+000  0.00000e+000  0.00000e+000  0.00000e+000  0.00000e+000  0.00000e+000  0.00000e+000  0.00000e+000  0.00000e+000  0.00000e+000
 -1.25000e-004  8.94640e-005  8.98498e-005  8.71063e-005  8.41354e-005  8.18873e-005  8.04709e-005  7.97529e-005  7.94804e-005  7.94142e-005  7.94223e-005  7.94572e-005  7.94866e-005  7.95215e-005  7.95501e-005  7.95656e-005  7.95799e-005  7.95839e-005  7.95912e-005  7.96147e-005  7.96426e-005  7.96691e-005  7.96983e-005  7.97137e-005  7.97259e-005  7.97355e-005  7.97396e-005  7.97417e-005  7.97422e-005  7.97414e-005  7.97394e-005  7.97433e-005  7.97394e-005  7.97414e-005  7.97422e-005  7.97417e-005  7.97396e-005  7.97355e-005  7.97259e-005  7.97137e-005  7.96983e-005  7.96691e-005  7.96426e-005  7.96147e-005  7.95912e-005  7.95839e-005  7.95799e-005  7.95656e-005  7.95501e-005  7.95215e-005  7.94866e-005  7.94572e-005  7.94223e-005  7.94142e-005  7.94804e-005  7.97529e-005  8.04709e-005  8.18873e-005  8.41354e-005  8.71063e-005  8.98498e-005  8.94640e-005
 -2.50000e-004  1.79810e-004  1.80355e-004  1.74719e-004  1.68714e-004  1.64194e-004  1.61343e-004  1.59908e-004  1.59372e-004  1.59246e-004  1.59261e-004  1.59319e-004  1.59391e-004  1.59460e-004  1.59510e-004  1.59554e-004  1.59579e-004  1.59580e-004  1.59601e-004  1.59634e-004  1.59697e-004  1.59757e-004  1.59808e-004  1.59843e-004  1.59867e-004  1.59880e-004  1.59891e-004  1.59895e-004  1.59900e-004  1.59898e-004  1.59894e-004  1.59892e-004  1.59894e-004  1.59898e-004  1.59900e-004  1.59895e-004  1.59891e-004  1.59880e-004  1.59867e-004  1.59843e-004  1.59808e-004  1.59757e-004  1.59697e-004  1.59634e-004  1.59601e-004  1.59580e-004  1.59579e-004  1.59554e-004  1.59510e-004  1.59460e-004  1.59391e-004  1.59319e-004  1.59261e-004  1.59246e-004  1.59372e-004  1.59908e-004  1.61343e-004  1.64194e-004  1.68714e-004  1.74719e-004  1.80355e-004  1.79810e-004
 -3.75000e-004  2.71930e-004  2.72163e-004  2.63345e-004  2.54185e-004  2.47333e-004  2.43040e-004  2.40886e-004  2.40092e-004  2.39913e-004  2.39933e-004  2.40016e-004  2.40118e-004  2.40217e-004  2.40304e-004  2.40366e-004  2.40394e-004  2.40402e-004  2.40423e-004  2.40479e-004  2.40577e-004  2.40674e-004  2.40748e-004  2.40794e-004  2.40831e-004  2.40853e-004  2.40865e-004  2.40878e-004  2.40880e-004  2.40880e-004  2.40874e-004  2.40869e-004  2.40874e-004  2.40880e-004  2.40880e-004  2.40878e-004  2.40865e-004  2.40853e-004  2.40831e-004  2.40794e-004  2.40748e-004  2.40674e-004  2.40577e-004  2.40479e-004  2.40423e-004  2.40402e-004  2.40394e-004  2.40366e-004  2.40304e-004  2.40217e-004  2.40118e-004  2.40016e-004  2.39933e-004  2.39913e-004  2.40092e-004  2.40886e-004  2.43040e-004  2.47333e-004  2.54185e-004  2.63345e-004  2.72163e-004  2.71930e-004
 -5.00000e-004  3.66736e-004  3.65944e-004  3.53493e-004  3.40989e-004  3.31731e-004  3.25963e-004  3.23091e-004  3.22059e-004  3.21823e-004  3.21855e-004  3.21966e-004  3.22096e-004  3.22226e-004  3.22339e-004  3.22420e-004  3.22461e-004  3.22474e-004  3.22487e-004  3.22567e-004  3.22700e-004  3.22834e-004  3.22931e-004  3.22993e-004  3.23038e-004  3.23070e-004  3.23089e-004  3.23105e-004  3.23110e-004  3.23110e-004  3.23098e-004  3.23093e-004  3.23098e-004  3.23110e-004  3.23110e-004  3.23105e-004  3.23089e-004  3.23070e-004  3.23038e-004  3.22993e-004  3.22931e-004  3.22834e-004  3.22700e-004  3.22567e-004  3.22487e-004  3.22474e-004  3.22461e-004  3.22420e-004  3.22339e-004  3.22226e-004  3.22096e-004  3.21966e-004  3.21855e-004  3.21823e-004  3.22059e-004  3.23094e-004  3.25963e-004  3.31731e-004  3.40989e-004  3.53493e-004  3.65944e-004  3.66736e-004
 -6.25000e-004  4.65191e-004  4.62346e-004  4.45659e-004  4.29563e-004  4.17811e-004  4.10514e-004  4.06945e-004  4.05687e-004  4.05408e-004  4.05454e-004  4.05592e-004  4.05752e-004  4.05911e-004  4.06048e-004  4.06145e-004  4.06200e-004  4.06207e-004  4.06222e-004  4.06318e-004  4.06489e-004  4.06654e-004  4.06774e-004  4.06862e-004  4.06917e-004  4.06958e-004  4.06981e-004  4.06995e-004  4.07004e-004  4.06996e-004  4.06989e-004  4.06981e-004  4.06989e-004  4.06996e-004  4.07004e-004  4.06995e-004  4.06981e-004  4.06958e-004  4.06917e-004  4.06862e-004  4.06774e-004  4.06654e-004  4.06489e-004  4.06318e-004  4.06222e-004  4.06207e-004  4.06200e-004  4.06145e-004  4.06048e-004  4.05911e-004  4.05752e-004  4.05592e-004  4.05454e-004  4.05408e-004  4.05687e-004  4.06945e-004  4.10514e-004  4.17811e-004  4.29563e-004  4.45659e-004  4.62346e-004  4.65191e-004
 -7.50000e-004  5.68290e-004  5.62010e-004  5.40338e-004  5.20363e-004  5.05991e-004  4.97122e-004  4.92864e-004  4.91414e-004  4.91104e-004  4.91156e-004  4.91315e-004  4.91505e-004  4.91693e-004  4.91852e-004  4.91969e-004  4.92033e-004  4.92029e-004  4.92041e-004  4.92159e-004  4.92370e-004  4.92574e-004  4.92717e-004  4.92827e-004  4.92888e-004  4.92935e-004  4.92969e-004  4.92985e-004  4.92991e-004  4.92982e-004  4.92969e-004  4.92965e-004  4.92969e-004  4.92982e-004  4.92991e-004  4.92985e-004  4.92969e-004  4.92935e-004  4.92888e-004  4.92827e-004  4.92717e-004  4.92574e-004  4.92370e-004  4.92159e-004  4.92041e-004  4.92029e-004  4.92033e-004  4.91969e-004  4.91852e-004  4.91693e-004  4.91505e-004  4.91315e-004  4.91156e-004  4.91104e-004  4.91414e-004  4.92860e-004  4.97122e-004  5.05991e-004  5.20363e-004  5.40338e-004  5.62010e-004  5.68290e-004
 -8.75000e-004  6.77090e-004  6.65582e-004  6.38008e-004  6.13832e-004  5.96705e-004  5.86200e-004  5.81265e-004  5.79663e-004  5.79341e-004  5.79400e-004  5.79575e-004  5.79794e-004  5.80004e-004  5.80189e-004  5.80327e-004  5.80385e-004  5.80381e-004  5.80382e-004  5.80526e-004  5.80777e-004  5.81019e-004  5.81200e-004  5.81313e-004  5.81389e-004  5.81439e-004  5.81480e-004  5.81498e-004  5.81504e-004  5.81497e-004  5.81478e-004  5.81471e-004  5.81478e-004  5.81497e-004  5.81504e-004  5.81498e-004  5.81480e-004  5.81439e-004  5.81389e-004  5.81313e-004  5.81200e-004  5.81019e-004  5.80777e-004  5.80526e-004  5.80382e-004  5.80381e-004  5.80385e-004  5.80327e-004  5.80189e-004  5.80004e-004  5.79794e-004  5.79575e-004  5.79400e-004  5.79341e-004  5.79663e-004  5.81265e-004  5.86200e-004  5.96705e-004  6.13832e-004  6.38008e-004  6.65582e-004  6.77090e-004
 -1.00000e-003  7.92694e-004  7.73673e-004  7.39139e-004  7.10402e-004  6.90380e-004  6.78164e-004  6.72588e-004  6.70880e-004  6.70556e-004  6.70624e-004  6.70811e-004  6.71054e-004  6.71288e-004  6.71499e-004  6.71649e-004  6.71708e-004  6.71689e-004  6.71680e-004  6.71842e-004  6.72148e-004  6.72434e-004  6.72632e-004  6.72757e-004  6.72852e-004  6.72909e-004  6.72950e-004  6.72976e-004  6.72979e-004  6.72974e-004  6.72953e-004  6.72938e-004  6.72953e-004  6.72974e-004  6.72979e-004  6.72976e-004  6.72950e-004  6.72909e-004  6.72852e-004  6.72757e-004  6.72632e-004  6.72434e-004  6.72148e-004  6.71842e-004  6.71680e-004  6.71689e-004  6.71708e-004  6.71649e-004  6.71499e-004  6.71288e-004  6.71054e-004  6.70811e-004  6.70624e-004  6.70556e-004  6.70880e-004  6.72588e-004  6.78164e-004  6.90380e-004  7.10402e-004  7.39139e-004  7.73673e-004  7.92694e-004
 -1.12500e-003  9.16256e-004  8.86847e-004  8.44189e-004  8.10521e-004  7.87430e-004  7.73424e-004  7.67257e-004  7.65507e-004  7.65192e-004  7.65263e-004  7.65468e-004  7.65720e-004  7.65981e-004  7.66211e-004  7.66376e-004  7.66441e-004  7.66400e-004  7.66361e-004  7.66541e-004  7.66913e-004  7.67244e-004  7.67467e-004  7.67615e-004  7.67713e-004  7.67778e-004  7.67823e-004  7.67855e-004  7.67857e-004  7.67851e-004  7.67823e-004  7.67805e-004  7.67823e-004  7.67851e-004  7.67857e-004  7.67855e-004  7.67823e-004  7.67778e-004  7.67713e-004  7.67615e-004  7.67467e-004  7.67244e-004  7.66913e-004  7.66541e-004  7.66361e-004  7.66400e-004  7.66441e-004  7.66376e-004  7.66211e-004  7.65981e-004  7.65720e-004  7.65468e-004  7.65263e-004  7.65192e-004  7.65507e-004  7.67257e-004  7.73424e-004  7.87430e-004  8.10521e-004  8.44189e-004  8.86847e-004  9.16256e-004
 -1.25000e-003  1.04898e-003  1.00562e-003  9.53558e-004  9.14601e-004  8.88284e-004  8.72358e-004  8.65675e-004  8.63967e-004  8.63686e-004  8.63760e-004  8.63964e-004  8.64228e-004  8.64507e-004  8.64759e-004  8.64933e-004  8.64997e-004  8.64938e-004  8.64854e-004  8.65059e-004  8.65500e-004  8.65880e-004  8.66135e-004  8.66296e-004  8.66399e-004  8.66478e-004  8.66523e-004  8.66552e-004  8.66565e-004  8.66550e-004  8.66515e-004  8.66490e-004  8.66515e-004  8.66550e-004  8.66565e-004  8.66552e-004  8.66523e-004  8.66478e-004  8.66399e-004  8.66296e-004  8.66135e-004  8.65880e-004  8.65500e-004  8.65059e-004  8.64854e-004  8.64938e-004  8.64997e-004  8.64933e-004  8.64759e-004  8.64507e-004  8.64228e-004  8.63964e-004  8.63760e-004  8.63686e-004  8.63967e-004  8.65675e-004  8.72358e-004  8.88284e-004  9.14601e-004  9.53558e-004  1.00562e-003  1.04898e-003
 -1.37500e-003  1.19202e-003  1.13040e-003  1.06759e-003  1.02302e-003  9.93312e-004  9.75317e-004  9.68236e-004  9.66670e-004  9.66431e-004  9.66500e-004  9.66699e-004  9.66973e-004  9.67268e-004  9.67533e-004  9.67724e-004  9.67787e-004  9.67684e-004  9.67551e-004  9.67784e-004  9.68314e-004  9.68745e-004  9.69019e-004  9.69193e-004  9.69308e-004  9.69389e-004  9.69445e-004  9.69476e-004  9.69492e-004  9.69470e-004  9.69425e-004  9.69395e-004  9.69425e-004  9.69470e-004  9.69492e-004  9.69476e-004  9.69445e-004  9.69389e-004  9.69308e-004  9.69193e-004  9.69019e-004  9.68745e-004  9.68314e-004  9.67784e-004  9.67551e-004  9.67684e-004  9.67787e-004  9.67724e-004  9.67533e-004  9.67268e-004  9.66973e-004  9.66699e-004  9.66500e-004  9.66431e-004  9.66670e-004  9.68236e-004  9.75317e-004  9.93312e-004  1.02302e-003  1.06759e-003  1.13040e-003  1.19202e-003
 -1.50000e-003  1.34643e-003  1.26140e-003  1.18654e-003  1.13608e-003  1.10282e-003  1.08258e-003  1.07526e-003  1.07396e-003  1.07378e-003  1.07382e-003  1.07401e-003  1.07429e-003  1.07460e-003  1.07487e-003  1.07507e-003  1.07514e-003  1.07499e-003  1.07478e-003  1.07504e-003  1.07568e-003  1.07616e-003  1.07646e-003  1.07664e-003  1.07677e-003  1.07685e-003  1.07692e-003  1.07695e-003  1.07696e-003  1.07694e-003  1.07689e-003  1.07684e-003  1.07689e-003  1.07694e-003  1.07696e-003  1.07695e-003  1.07692e-003  1.07685e-003  1.07677e-003  1.07664e-003  1.07646e-003  1.07616e-003  1.07568e-003  1.07504e-003  1.07478e-003  1.07499e-003  1.07514e-003  1.07507e-003  1.07487e-003  1.07460e-003  1.07429e-003  1.07401e-003  1.07382e-003  1.07378e-003  1.07396e-003  1.07526e-003  1.08258e-003  1.10282e-003  1.13608e-003  1.18654e-003  1.26140e-003  1.34643e-003
 -1.62500e-003  1.51296e-003  1.39860e-003  1.31049e-003  1.25397e-003  1.21701e-003  1.19424e-003  1.18693e-003  1.18605e-003  1.18591e-003  1.18592e-003  1.18609e-003  1.18637e-003  1.18668e-003  1.18697e-003  1.18718e-003  1.18723e-003  1.18704e-003  1.18672e-003  1.18701e-003  1.18778e-003  1.18833e-003  1.18864e-003  1.18884e-003  1.18897e-003  1.18906e-003  1.18912e-003  1.18916e-003  1.18917e-003  1.18915e-003  1.18908e-003  1.18903e-003  1.18908e-003  1.18915e-003  1.18917e-003  1.18916e-003  1.18912e-003  1.18906e-003  1.18897e-003  1.18884e-003  1.18864e-003  1.18833e-003  1.18778e-003  1.18701e-003  1.18672e-003  1.18704e-003  1.18723e-003  1.18718e-003  1.18697e-003  1.18668e-003  1.18637e-003  1.18609e-003  1.18592e-003  1.18591e-003  1.18605e-003  1.18693e-003  1.19424e-003  1.21701e-003  1.25397e-003  1.31049e-003  1.39860e-003  1.51296e-003
 -1.75000e-003  1.69173e-003  1.54153e-003  1.43920e-003  1.37657e-003  1.33579e-003  1.31008e-003  1.30316e-003  1.30284e-003  1.30275e-003  1.30272e-003  1.30285e-003  1.30311e-003  1.30342e-003  1.30372e-003  1.30394e-003  1.30398e-003  1.30374e-003  1.30326e-003  1.30359e-003  1.30453e-003  1.30513e-003  1.30547e-003  1.30567e-003  1.30581e-003  1.30591e-003  1.30597e-003  1.30601e-003  1.30602e-003  1.30600e-003  1.30592e-003  1.30584e-003  1.30592e-003  1.30600e-003  1.30602e-003  1.30601e-003  1.30597e-003  1.30591e-003  1.30581e-003  1.30567e-003  1.30547e-003  1.30513e-003  1.30454e-003  1.30359e-003  1.30326e-003  1.30374e-003  1.30398e-003  1.30394e-003  1.30372e-003  1.30342e-003  1.30311e-003  1.30285e-003  1.30272e-003  1.30275e-003  1.30284e-003  1.30316e-003  1.31008e-003  1.33579e-003  1.37657e-003  1.43920e-003  1.54153e-003  1.69173e-003
 -1.87500e-003  1.88171e-003  1.68895e-003  1.57182e-003  1.50317e-003  1.45851e-003  1.42921e-003  1.42328e-003  1.42370e-003  1.42362e-003  1.42351e-003  1.42358e-003  1.42381e-003  1.42412e-003  1.42443e-003  1.42465e-003  1.42470e-003  1.42439e-003  1.42369e-003  1.42407e-003  1.42522e-003  1.42587e-003  1.42622e-003  1.42644e-003  1.42658e-003  1.42668e-003  1.42675e-003  1.42679e-003  1.42680e-003  1.42678e-003  1.42667e-003  1.42657e-003  1.42667e-003  1.42678e-003  1.42680e-003  1.42679e-003  1.42675e-003  1.42668e-003  1.42658e-003  1.42644e-003  1.42622e-003  1.42587e-003  1.42522e-003  1.42407e-003  1.42369e-003  1.42439e-003  1.42470e-003  1.42465e-003  1.42443e-003  1.42412e-003  1.42381e-003  1.42358e-003  1.42351e-003  1.42362e-003  1.42370e-003  1.42328e-003  1.42921e-003  1.45851e-003  1.50317e-003  1.57182e-003  1.68895e-003  1.88171e-003
 -2.00000e-003  2.07961e-003  1.83821e-003  1.70626e-003  1.63189e-003  1.58334e-003  1.54944e-003  1.54542e-003  1.54672e-003  1.54657e-003  1.54635e-003  1.54635e-003  1.54654e-003  1.54684e-003  1.54714e-003  1.54736e-003  1.54740e-003  1.54703e-003  1.54605e-003  1.54647e-003  1.54789e-003  1.54859e-003  1.54894e-003  1.54916e-003  1.54931e-003  1.54941e-003  1.54948e-003  1.54952e-003  1.54954e-003  1.54951e-003  1.54939e-003  1.54924e-003  1.54939e-003  1.54951e-003  1.54954e-003  1.54952e-003  1.54948e-003  1.54941e-003  1.54931e-003  1.54916e-003  1.54894e-003  1.54859e-003  1.54789e-003  1.54647e-003  1.54605e-003  1.54703e-003  1.54740e-003  1.54737e-003  1.54714e-003  1.54684e-003  1.54654e-003  1.54635e-003  1.54635e-003  1.54657e-003  1.54672e-003  1.54542e-003  1.54944e-003  1.58334e-003  1.63189e-003  1.70626e-003  1.83821e-003  2.07961e-003
 -2.12500e-003  2.27816e-003  1.98400e-003  1.83788e-003  1.75831e-003  1.70599e-003  1.66577e-003  1.66523e-003  1.66742e-003  1.66711e-003  1.66671e-003  1.66661e-003  1.66676e-003  1.66701e-003  1.66730e-003  1.66752e-003  1.66755e-003  1.66712e-003  1.66573e-003  1.66622e-003  1.66798e-003  1.66870e-003  1.66905e-003  1.66926e-003  1.66941e-003  1.66952e-003  1.66959e-003  1.66964e-003  1.66965e-003  1.66962e-003  1.66949e-003  1.66926e-003  1.66949e-003  1.66962e-003  1.66965e-003  1.66964e-003  1.66959e-003  1.66952e-003  1.66941e-003  1.66926e-003  1.66905e-003  1.66870e-003  1.66798e-003  1.66622e-003  1.66573e-003  1.66712e-003  1.66755e-003  1.66752e-003  1.66730e-003  1.66701e-003  1.66676e-003  1.66661e-003  1.66671e-003  1.66711e-003  1.66742e-003  1.66523e-003  1.66577e-003  1.70599e-003  1.75831e-003  1.83788e-003  1.98400e-003  2.27816e-003
 -2.25000e-003  2.46301e-003  2.11579e-003  1.95703e-003  1.87292e-003  1.81722e-003  1.76772e-003  1.77327e-003  1.77618e-003  1.77555e-003  1.77489e-003  1.77463e-003  1.77468e-003  1.77489e-003  1.77515e-003  1.77535e-003  1.77536e-003  1.77488e-003  1.77296e-003  1.77352e-003  1.77566e-003  1.77638e-003  1.77671e-003  1.77693e-003  1.77707e-003  1.77718e-003  1.77725e-003  1.77730e-003  1.77732e-003  1.77729e-003  1.77713e-003  1.77679e-003  1.77713e-003  1.77729e-003  1.77732e-003  1.77730e-003  1.77725e-003  1.77718e-003  1.77707e-003  1.77693e-003  1.77671e-003  1.77638e-003  1.77566e-003  1.77352e-003  1.77296e-003  1.77488e-003  1.77536e-003  1.77535e-003  1.77515e-003  1.77489e-003  1.77468e-003  1.77463e-003  1.77489e-003  1.77555e-003  1.77618e-003  1.77327e-003  1.76772e-003  1.81722e-003  1.87292e-003  1.95703e-003  2.11579e-003  2.46301e-003
 -2.37500e-003  2.60819e-003  2.21358e-003  2.04464e-003  1.95691e-003  1.89860e-003  1.83431e-003  1.85075e-003  1.85378e-003  1.85257e-003  1.85155e-003  1.85107e-003  1.85097e-003  1.85108e-003  1.85126e-003  1.85141e-003  1.85140e-003  1.85089e-003  1.84830e-003  1.84893e-003  1.85146e-003  1.85213e-003  1.85244e-003  1.85264e-003  1.85277e-003  1.85287e-003  1.85295e-003  1.85299e-003  1.85301e-003  1.85298e-003  1.85282e-003  1.85229e-003  1.85282e-003  1.85298e-003  1.85301e-003  1.85299e-003  1.85295e-003  1.85287e-003  1.85277e-003  1.85263e-003  1.85244e-003  1.85213e-003  1.85146e-003  1.84893e-003  1.84830e-003  1.85089e-003  1.85140e-003  1.85141e-003  1.85126e-003  1.85108e-003  1.85097e-003  1.85107e-003  1.85155e-003  1.85257e-003  1.85378e-003  1.85075e-003  1.83431e-003  1.89860e-003  1.95691e-003  2.04464e-003  2.21358e-003  2.60819e-003
 -2.50000e-003  2.66672e-003  2.25073e-003  2.07743e-003  1.98815e-003  1.92879e-003  1.85530e-003  1.87874e-003  1.88162e-003  1.88005e-003  1.87882e-003  1.87821e-003  1.87801e-003  1.87805e-003  1.87819e-003  1.87830e-003  1.87828e-003  1.87775e-003  1.87480e-003  1.87545e-003  1.87818e-003  1.87881e-003  1.87910e-003  1.87929e-003  1.87941e-003  1.87950e-003  1.87959e-003  1.87962e-003  1.87963e-003  1.87962e-003  1.87946e-003  1.87880e-003  1.87946e-003  1.87962e-003  1.87963e-003  1.87962e-003  1.87959e-003  1.87950e-003  1.87941e-003  1.87928e-003  1.87910e-003  1.87881e-003  1.87818e-003  1.87545e-003  1.87480e-003  1.87775e-003  1.87828e-003  1.87830e-003  1.87819e-003  1.87805e-003  1.87801e-003  1.87821e-003  1.87882e-003  1.88005e-003  1.88162e-003  1.87874e-003  1.85530e-003  1.92879e-003  1.98815e-003  2.07743e-003  2.25073e-003  2.66672e-003
