# Author : Radia User
# 
# Undulator Length [m]
1.04
# Number of Horizontal Points
61
# Number of Vertical Points
41
# Horizontal 2nd Order Kick [T2m2]
START
               -2.00000e-002 -1.93333e-002 -1.86667e-002 -1.80000e-002 -1.73333e-002 -1.66667e-002 -1.60000e-002 -1.53333e-002 -1.46667e-002 -1.40000e-002 -1.33333e-002 -1.26667e-002 -1.20000e-002 -1.13333e-002 -1.06667e-002 -1.00000e-002 -9.33333e-003 -8.66667e-003 -8.00000e-003 -7.33333e-003 -6.66667e-003 -6.00000e-003 -5.33333e-003 -4.66667e-003 -4.00000e-003 -3.33333e-003 -2.66667e-003 -2.00000e-003 -1.33333e-003 -6.66667e-004  0.00000e+000  6.66667e-004  1.33333e-003  2.00000e-003  2.66667e-003  3.33333e-003  4.00000e-003  4.66667e-003  5.33333e-003  6.00000e-003  6.66667e-003  7.33333e-003  8.00000e-003  8.66667e-003  9.33333e-003  1.00000e-002  1.06667e-002  1.13333e-002  1.20000e-002  1.26667e-002  1.33333e-002  1.40000e-002  1.46667e-002  1.53333e-002  1.60000e-002  1.66667e-002  1.73333e-002  1.80000e-002  1.86667e-002  1.93333e-002  2.00000e-002
  4.00000e-003 -6.13479e-004 -5.57875e-004 -4.62937e-004 -3.95315e-004 -3.48855e-004 -3.18805e-004 -2.91617e-004 -2.54474e-004 -2.15112e-004 -1.92056e-004 -1.82198e-004 -1.62149e-004 -1.27404e-004 -1.02866e-004 -1.04207e-004 -1.09800e-004 -9.18679e-005 -5.93712e-005 -4.62403e-005 -6.39624e-005 -8.11326e-005 -6.50526e-005 -2.63015e-005 -4.77391e-006 -2.30072e-005 -5.53291e-005 -5.67059e-005 -1.87582e-005  2.44328e-005  3.26234e-005  0.00000e+000 -3.26234e-005 -2.44328e-005  1.87582e-005  5.67059e-005  5.53291e-005  2.30072e-005  4.77391e-006  2.63015e-005  6.50526e-005  8.11326e-005  6.39624e-005  4.62403e-005  5.93712e-005  9.18679e-005  1.09800e-004  1.04207e-004  1.02866e-004  1.27404e-004  1.62149e-004  1.82198e-004  1.92056e-004  2.15112e-004  2.54474e-004  2.91617e-004  3.18805e-004  3.48855e-004  3.95315e-004  4.62937e-004  5.57875e-004  6.13479e-004
  3.80000e-003 -7.54886e-004 -6.83150e-004 -5.60048e-004 -4.71182e-004 -4.07314e-004 -3.61464e-004 -3.22044e-004 -2.79515e-004 -2.38468e-004 -2.10374e-004 -1.92526e-004 -1.69401e-004 -1.38158e-004 -1.15172e-004 -1.10355e-004 -1.09004e-004 -9.25082e-005 -6.69505e-005 -5.54125e-005 -6.51483e-005 -7.44626e-005 -6.08815e-005 -3.17397e-005 -1.51804e-005 -2.65508e-005 -4.75831e-005 -4.67803e-005 -1.78227e-005  1.48108e-005  2.19325e-005  0.00000e+000 -2.19325e-005 -1.48108e-005  1.78227e-005  4.67803e-005  4.75831e-005  2.65508e-005  1.51804e-005  3.17397e-005  6.08815e-005  7.44626e-005  6.51483e-005  5.54125e-005  6.69505e-005  9.25082e-005  1.09004e-004  1.10355e-004  1.15172e-004  1.38158e-004  1.69401e-004  1.92526e-004  2.10374e-004  2.38468e-004  2.79515e-004  3.22044e-004  3.61464e-004  4.07314e-004  4.71182e-004  5.60048e-004  6.83150e-004  7.54886e-004
  3.60000e-003 -8.88607e-004 -8.02380e-004 -6.53475e-004 -5.44388e-004 -4.63898e-004 -4.03504e-004 -3.52952e-004 -3.04553e-004 -2.60520e-004 -2.27678e-004 -2.03564e-004 -1.77661e-004 -1.48063e-004 -1.25545e-004 -1.16195e-004 -1.09890e-004 -9.41594e-005 -7.31049e-005 -6.23234e-005 -6.64026e-005 -7.02052e-005 -5.82940e-005 -3.58446e-005 -2.26221e-005 -2.91053e-005 -4.21428e-005 -3.97133e-005 -1.72384e-005  7.75932e-006  1.42433e-005  0.00000e+000 -1.42433e-005 -7.75932e-006  1.72384e-005  3.97133e-005  4.21428e-005  2.91053e-005  2.26221e-005  3.58446e-005  5.82940e-005  7.02052e-005  6.64026e-005  6.23234e-005  7.31049e-005  9.41594e-005  1.09890e-004  1.16195e-004  1.25545e-004  1.48063e-004  1.77661e-004  2.03564e-004  2.27678e-004  2.60520e-004  3.04553e-004  3.52952e-004  4.03504e-004  4.63898e-004  5.44388e-004  6.53475e-004  8.02380e-004  8.88607e-004
  3.40000e-003 -1.01424e-003 -9.15013e-004 -7.42637e-004 -6.14582e-004 -5.18353e-004 -4.44575e-004 -3.83758e-004 -3.29223e-004 -2.81481e-004 -2.44162e-004 -2.14866e-004 -1.86407e-004 -1.57365e-004 -1.34564e-004 -1.21751e-004 -1.11848e-004 -9.63939e-005 -7.81768e-005 -6.76677e-005 -6.76683e-005 -6.76110e-005 -5.68373e-005 -3.90149e-005 -2.79915e-005 -3.08717e-005 -3.83165e-005 -3.47712e-005 -1.69070e-005  2.64177e-006  8.74231e-006  0.00000e+000 -8.74231e-006 -2.64177e-006  1.69070e-005  3.47712e-005  3.83165e-005  3.08717e-005  2.79915e-005  3.90149e-005  5.68373e-005  6.76110e-005  6.76683e-005  6.76677e-005  7.81768e-005  9.63939e-005  1.11848e-004  1.21751e-004  1.34564e-004  1.57365e-004  1.86407e-004  2.14866e-004  2.44162e-004  2.81481e-004  3.29223e-004  3.83758e-004  4.44575e-004  5.18353e-004  6.14582e-004  7.42637e-004  9.15013e-004  1.01424e-003
  3.20000e-003 -1.13133e-003 -1.02061e-003 -8.27099e-004 -6.81481e-004 -5.70532e-004 -4.84327e-004 -4.13982e-004 -3.53327e-004 -3.01472e-004 -2.59849e-004 -2.26195e-004 -1.95335e-004 -1.66036e-004 -1.42571e-004 -1.27037e-004 -1.14431e-004 -9.89704e-005 -8.24865e-005 -7.19417e-005 -6.89472e-005 -6.61106e-005 -5.61197e-005 -4.14909e-005 -3.18840e-005 -3.22044e-005 -3.56494e-005 -3.12446e-005 -1.67310e-005 -1.13541e-006  4.75723e-006  0.00000e+000 -4.75723e-006  1.13541e-006  1.67310e-005  3.12446e-005  3.56494e-005  3.22044e-005  3.18840e-005  4.14909e-005  5.61197e-005  6.61106e-005  6.89472e-005  7.19417e-005  8.24865e-005  9.89704e-005  1.14431e-004  1.27037e-004  1.42571e-004  1.66036e-004  1.95335e-004  2.26195e-004  2.59849e-004  3.01472e-004  3.53327e-004  4.13982e-004  4.84327e-004  5.70532e-004  6.81481e-004  8.27099e-004  1.02061e-003  1.13133e-003
  3.00000e-003 -1.23990e-003 -1.11904e-003 -9.06602e-004 -7.44804e-004 -6.20171e-004 -5.22555e-004 -4.43364e-004 -3.76624e-004 -3.20456e-004 -2.74780e-004 -2.37357e-004 -2.04210e-004 -1.74173e-004 -1.49771e-004 -1.32060e-004 -1.17379e-004 -1.01698e-004 -8.61875e-005 -7.54156e-005 -7.02410e-005 -6.54090e-005 -5.58876e-005 -4.34630e-005 -3.47841e-005 -3.31459e-005 -3.37679e-005 -2.88157e-005 -1.66714e-005 -3.85223e-006  1.88166e-006  0.00000e+000 -1.88166e-006  3.85223e-006  1.66714e-005  2.88157e-005  3.37679e-005  3.31459e-005  3.47841e-005  4.34630e-005  5.58876e-005  6.54090e-005  7.02410e-005  7.54156e-005  8.61875e-005  1.01698e-004  1.17379e-004  1.32060e-004  1.49771e-004  1.74173e-004  2.04210e-004  2.37357e-004  2.74780e-004  3.20456e-004  3.76624e-004  4.43364e-004  5.22555e-004  6.20171e-004  7.44804e-004  9.06592e-004  1.11904e-003  1.23992e-003
  2.80000e-003 -1.33996e-003 -1.21019e-003 -9.80906e-004 -8.04354e-004 -6.67147e-004 -5.59017e-004 -4.71580e-004 -3.98941e-004 -3.38461e-004 -2.88991e-004 -2.48158e-004 -2.12848e-004 -1.81817e-004 -1.56357e-004 -1.36825e-004 -1.20481e-004 -1.04464e-004 -8.94223e-005 -7.83191e-005 -7.15132e-005 -6.52330e-005 -5.59854e-005 -4.50230e-005 -3.69217e-005 -3.39020e-005 -3.24648e-005 -2.71020e-005 -1.66800e-005 -5.87284e-006 -1.90965e-007  0.00000e+000  1.90965e-007  5.87284e-006  1.66800e-005  2.71020e-005  3.24648e-005  3.39020e-005  3.69217e-005  4.50230e-005  5.59854e-005  6.52330e-005  7.15132e-005  7.83191e-005  8.94223e-005  1.04464e-004  1.20481e-004  1.36825e-004  1.56357e-004  1.81817e-004  2.12848e-004  2.48158e-004  2.88991e-004  3.38461e-004  3.98941e-004  4.71580e-004  5.59017e-004  6.67147e-004  8.04354e-004  9.80906e-004  1.21019e-003  1.33996e-003
  2.60000e-003 -1.43158e-003 -1.29409e-003 -1.04994e-003 -8.60006e-004 -7.11264e-004 -5.93499e-004 -4.98446e-004 -4.20186e-004 -3.55467e-004 -3.02419e-004 -2.58563e-004 -2.21144e-004 -1.88939e-004 -1.62368e-004 -1.41310e-004 -1.23615e-004 -1.07186e-004 -9.23123e-005 -8.07929e-005 -7.27275e-005 -6.54079e-005 -5.63071e-005 -4.62811e-005 -3.85241e-005 -3.44846e-005 -3.16023e-005 -2.59262e-005 -1.67376e-005 -7.35636e-006 -1.68754e-006  0.00000e+000  1.68754e-006  7.35636e-006  1.67376e-005  2.59262e-005  3.16023e-005  3.44846e-005  3.85241e-005  4.62811e-005  5.63071e-005  6.54079e-005  7.27275e-005  8.07929e-005  9.23123e-005  1.07186e-004  1.23615e-004  1.41310e-004  1.62368e-004  1.88939e-004  2.21144e-004  2.58563e-004  3.02419e-004  3.55467e-004  4.20186e-004  4.98436e-004  5.93499e-004  7.11273e-004  8.60006e-004  1.04994e-003  1.29409e-003  1.43158e-003
  2.40000e-003 -1.51499e-003 -1.37081e-003 -1.11358e-003 -9.11664e-004 -7.52481e-004 -6.25882e-004 -5.23769e-004 -4.40192e-004 -3.71456e-004 -3.15023e-004 -2.68400e-004 -2.29040e-004 -1.95559e-004 -1.67908e-004 -1.45539e-004 -1.26689e-004 -1.09790e-004 -9.48631e-005 -8.29381e-005 -7.39244e-005 -6.57796e-005 -5.67186e-005 -4.73464e-005 -3.97689e-005 -3.49341e-005 -3.09958e-005 -2.51602e-005 -1.68346e-005 -8.42204e-006 -2.78486e-006  0.00000e+000  2.78486e-006  8.42204e-006  1.68346e-005  2.51602e-005  3.09958e-005  3.49341e-005  3.97689e-005  4.73464e-005  5.67186e-005  6.57796e-005  7.39244e-005  8.29381e-005  9.48631e-005  1.09790e-004  1.26689e-004  1.45539e-004  1.67908e-004  1.95559e-004  2.29040e-004  2.68400e-004  3.15023e-004  3.71456e-004  4.40192e-004  5.23769e-004  6.25882e-004  7.52481e-004  9.11664e-004  1.11358e-003  1.37081e-003  1.51499e-003
  2.20000e-003 -1.59038e-003 -1.44044e-003 -1.17187e-003 -9.59264e-004 -7.90586e-004 -6.56003e-004 -5.47454e-004 -4.58905e-004 -3.86342e-004 -3.26798e-004 -2.77625e-004 -2.36442e-004 -2.01752e-004 -1.72976e-004 -1.49424e-004 -1.29641e-004 -1.12262e-004 -9.71464e-005 -8.48356e-005 -7.50390e-005 -6.62720e-005 -5.72303e-005 -4.82309e-005 -4.07359e-005 -3.53284e-005 -3.06057e-005 -2.46107e-005 -1.69236e-005 -9.22604e-006 -3.57198e-006  0.00000e+000  3.57198e-006  9.22604e-006  1.69236e-005  2.46107e-005  3.06057e-005  3.53284e-005  4.07359e-005  4.82309e-005  5.72303e-005  6.62720e-005  7.50390e-005  8.48356e-005  9.71464e-005  1.12262e-004  1.29641e-004  1.49424e-004  1.72976e-004  2.01752e-004  2.36442e-004  2.77625e-004  3.26798e-004  3.86342e-004  4.58905e-004  5.47454e-004  6.56003e-004  7.90586e-004  9.59264e-004  1.17187e-003  1.44044e-003  1.59038e-003
  2.00000e-003 -1.65809e-003 -1.50321e-003 -1.22476e-003 -1.00272e-003 -8.25597e-004 -6.83762e-004 -5.69349e-004 -4.76252e-004 -4.00097e-004 -3.37675e-004 -2.86202e-004 -2.43321e-004 -2.07414e-004 -1.77600e-004 -1.53036e-004 -1.32416e-004 -1.14576e-004 -9.92046e-005 -8.64795e-005 -7.60829e-005 -6.68379e-005 -5.77187e-005 -4.89752e-005 -4.15042e-005 -3.56402e-005 -3.03930e-005 -2.42764e-005 -1.70049e-005 -9.82773e-006 -4.16566e-006  0.00000e+000  4.16566e-006  9.82773e-006  1.70049e-005  2.42764e-005  3.03930e-005  3.56402e-005  4.15042e-005  4.89752e-005  5.77187e-005  6.68379e-005  7.60829e-005  8.64795e-005  9.92046e-005  1.14576e-004  1.32416e-004  1.53036e-004  1.77600e-004  2.07414e-004  2.43321e-004  2.86202e-004  3.37675e-004  4.00097e-004  4.76252e-004  5.69349e-004  6.83762e-004  8.25597e-004  1.00272e-003  1.22476e-003  1.50321e-003  1.65809e-003
  1.80000e-003 -1.71831e-003 -1.55926e-003 -1.27235e-003 -1.04199e-003 -8.57377e-004 -7.09092e-004 -5.89376e-004 -4.92114e-004 -4.12691e-004 -3.47640e-004 -2.94096e-004 -2.49630e-004 -2.12543e-004 -1.81813e-004 -1.56344e-004 -1.34973e-004 -1.16680e-004 -1.01013e-004 -8.79588e-005 -7.70675e-005 -6.74305e-005 -5.82518e-005 -4.95906e-005 -4.21045e-005 -3.59371e-005 -3.02523e-005 -2.40421e-005 -1.71169e-005 -1.02763e-005 -4.59590e-006  0.00000e+000  4.59590e-006  1.02763e-005  1.71169e-005  2.40421e-005  3.02523e-005  3.59371e-005  4.21045e-005  4.95906e-005  5.82518e-005  6.74305e-005  7.70675e-005  8.79588e-005  1.01013e-004  1.16680e-004  1.34973e-004  1.56344e-004  1.81813e-004  2.12543e-004  2.49630e-004  2.94096e-004  3.47640e-004  4.12691e-004  4.92114e-004  5.89376e-004  7.09092e-004  8.57377e-004  1.04199e-003  1.27235e-003  1.55926e-003  1.71831e-003
  1.60000e-003 -1.77136e-003 -1.60878e-003 -1.31465e-003 -1.07712e-003 -8.85901e-004 -7.31910e-004 -6.07468e-004 -5.06456e-004 -4.24085e-004 -3.56649e-004 -3.01221e-004 -2.55340e-004 -2.17205e-004 -1.85577e-004 -1.59333e-004 -1.37314e-004 -1.18577e-004 -1.02651e-004 -8.92478e-005 -7.79568e-005 -6.79938e-005 -5.87164e-005 -5.01359e-005 -4.26050e-005 -3.61628e-005 -3.01834e-005 -2.39170e-005 -1.72123e-005 -1.06204e-005 -4.88286e-006  0.00000e+000  4.88286e-006  1.06204e-005  1.72123e-005  2.39170e-005  3.01834e-005  3.61628e-005  4.26050e-005  5.01359e-005  5.87164e-005  6.79938e-005  7.79568e-005  8.92478e-005  1.02651e-004  1.18577e-004  1.37314e-004  1.59333e-004  1.85577e-004  2.17205e-004  2.55340e-004  3.01221e-004  3.56649e-004  4.24085e-004  5.06456e-004  6.07468e-004  7.31910e-004  8.85901e-004  1.07712e-003  1.31465e-003  1.60878e-003  1.77136e-003
  1.40000e-003 -1.81745e-003 -1.65199e-003 -1.35180e-003 -1.10805e-003 -9.11112e-004 -7.52162e-004 -6.23573e-004 -5.19220e-004 -4.34199e-004 -3.64686e-004 -3.07599e-004 -2.60423e-004 -2.21330e-004 -1.88895e-004 -1.61971e-004 -1.39425e-004 -1.20299e-004 -1.04064e-004 -9.03679e-005 -7.87522e-005 -6.85291e-005 -5.91705e-005 -5.06026e-005 -4.29879e-005 -3.63466e-005 -3.01768e-005 -2.38533e-005 -1.72723e-005 -1.08893e-005 -5.12231e-006  0.00000e+000  5.12231e-006  1.08893e-005  1.72723e-005  2.38533e-005  3.01768e-005  3.63466e-005  4.29879e-005  5.06026e-005  5.91705e-005  6.85291e-005  7.87522e-005  9.03679e-005  1.04064e-004  1.20299e-004  1.39425e-004  1.61971e-004  1.88895e-004  2.21330e-004  2.60423e-004  3.07599e-004  3.64686e-004  4.34199e-004  5.19220e-004  6.23573e-004  7.52162e-004  9.11112e-004  1.10805e-003  1.35180e-003  1.65199e-003  1.81745e-003
  1.20000e-003 -1.85690e-003 -1.68904e-003 -1.38379e-003 -1.13484e-003 -9.33026e-004 -7.69764e-004 -6.37601e-004 -5.30369e-004 -4.43049e-004 -3.71698e-004 -3.13163e-004 -2.64875e-004 -2.24915e-004 -1.91803e-004 -1.64289e-004 -1.41252e-004 -1.21791e-004 -1.05293e-004 -9.13401e-005 -7.94554e-005 -6.89994e-005 -5.95582e-005 -5.09918e-005 -4.33491e-005 -3.65269e-005 -3.01567e-005 -2.38225e-005 -1.73542e-005 -1.10647e-005 -5.30517e-006  0.00000e+000  5.30517e-006  1.10647e-005  1.73542e-005  2.38225e-005  3.01567e-005  3.65269e-005  4.33491e-005  5.09918e-005  5.95582e-005  6.89994e-005  7.94554e-005  9.13401e-005  1.05293e-004  1.21791e-004  1.41252e-004  1.64289e-004  1.91803e-004  2.24915e-004  2.64875e-004  3.13163e-004  3.71698e-004  4.43049e-004  5.30369e-004  6.37601e-004  7.69764e-004  9.33026e-004  1.13484e-003  1.38379e-003  1.68904e-003  1.85690e-003
  1.00000e-003 -1.88990e-003 -1.72008e-003 -1.41071e-003 -1.15747e-003 -9.51580e-004 -7.84729e-004 -6.49551e-004 -5.39863e-004 -4.50572e-004 -3.77657e-004 -3.17912e-004 -2.68676e-004 -2.27976e-004 -1.94268e-004 -1.66255e-004 -1.42817e-004 -1.23047e-004 -1.06340e-004 -9.21567e-005 -8.00204e-005 -6.94341e-005 -5.99276e-005 -5.13045e-005 -4.36040e-005 -3.66663e-005 -3.01802e-005 -2.38151e-005 -1.74107e-005 -1.11945e-005 -5.43179e-006  0.00000e+000  5.43179e-006  1.11945e-005  1.74107e-005  2.38151e-005  3.01802e-005  3.66663e-005  4.36040e-005  5.13045e-005  5.99276e-005  6.94341e-005  8.00204e-005  9.21567e-005  1.06340e-004  1.23047e-004  1.42817e-004  1.66255e-004  1.94268e-004  2.27976e-004  2.68676e-004  3.17912e-004  3.77657e-004  4.50572e-004  5.39863e-004  6.49551e-004  7.84729e-004  9.51580e-004  1.15747e-003  1.41071e-003  1.72008e-003  1.88990e-003
  8.00000e-004 -1.91654e-003 -1.74525e-003 -1.43266e-003 -1.17596e-003 -9.66772e-004 -7.96997e-004 -6.59377e-004 -5.47657e-004 -4.56770e-004 -3.82582e-004 -3.21806e-004 -2.71812e-004 -2.30498e-004 -1.96283e-004 -1.67870e-004 -1.44105e-004 -1.24097e-004 -1.07188e-004 -9.28100e-005 -8.05147e-005 -6.97962e-005 -6.02039e-005 -5.15697e-005 -4.38195e-005 -3.67841e-005 -3.02094e-005 -2.38029e-005 -1.74610e-005 -1.13166e-005 -5.52139e-006  0.00000e+000  5.52139e-006  1.13166e-005  1.74610e-005  2.38029e-005  3.02094e-005  3.67841e-005  4.38195e-005  5.15697e-005  6.02039e-005  6.97962e-005  8.05147e-005  9.28100e-005  1.07188e-004  1.24097e-004  1.44105e-004  1.67870e-004  1.96283e-004  2.30498e-004  2.71812e-004  3.21806e-004  3.82582e-004  4.56770e-004  5.47657e-004  6.59377e-004  7.96997e-004  9.66772e-004  1.17596e-003  1.43266e-003  1.74525e-003  1.91654e-003
  6.00000e-004 -1.93719e-003 -1.76473e-003 -1.44966e-003 -1.19030e-003 -9.78594e-004 -8.06592e-004 -6.67044e-004 -5.53746e-004 -4.61585e-004 -3.86423e-004 -3.24880e-004 -2.74233e-004 -2.32458e-004 -1.97870e-004 -1.69129e-004 -1.45126e-004 -1.24896e-004 -1.07820e-004 -9.33388e-005 -8.09201e-005 -7.00771e-005 -6.04255e-005 -5.17597e-005 -4.39677e-005 -3.68902e-005 -3.02540e-005 -2.38142e-005 -1.74958e-005 -1.13936e-005 -5.57414e-006  0.00000e+000  5.57414e-006  1.13936e-005  1.74958e-005  2.38142e-005  3.02540e-005  3.68902e-005  4.39677e-005  5.17597e-005  6.04255e-005  7.00771e-005  8.09201e-005  9.33388e-005  1.07820e-004  1.24896e-004  1.45126e-004  1.69129e-004  1.97870e-004  2.32458e-004  2.74233e-004  3.24880e-004  3.86423e-004  4.61585e-004  5.53746e-004  6.67044e-004  8.06592e-004  9.78594e-004  1.19030e-003  1.44966e-003  1.76473e-003  1.93719e-003
  4.00000e-004 -1.95179e-003 -1.77855e-003 -1.46178e-003 -1.20055e-003 -9.87047e-004 -8.13417e-004 -6.72509e-004 -5.58138e-004 -4.65083e-004 -3.89187e-004 -3.27053e-004 -2.75989e-004 -2.33858e-004 -1.98996e-004 -1.70033e-004 -1.45825e-004 -1.25484e-004 -1.08294e-004 -9.37253e-005 -8.11997e-005 -7.02678e-005 -6.06023e-005 -5.18937e-005 -4.40774e-005 -3.69468e-005 -3.02480e-005 -2.38209e-005 -1.75435e-005 -1.14539e-005 -5.60906e-006  0.00000e+000  5.60906e-006  1.14539e-005  1.75435e-005  2.38209e-005  3.02480e-005  3.69468e-005  4.40774e-005  5.18937e-005  6.06023e-005  7.02678e-005  8.11997e-005  9.37253e-005  1.08294e-004  1.25484e-004  1.45825e-004  1.70033e-004  1.98996e-004  2.33858e-004  2.75989e-004  3.27053e-004  3.89187e-004  4.65083e-004  5.58138e-004  6.72509e-004  8.13417e-004  9.87047e-004  1.20055e-003  1.46178e-003  1.77855e-003  1.95179e-003
  2.00000e-004 -1.96050e-003 -1.78683e-003 -1.46904e-003 -1.20670e-003 -9.92123e-004 -8.17538e-004 -6.75816e-004 -5.60747e-004 -4.67145e-004 -3.90820e-004 -3.28376e-004 -2.77055e-004 -2.34710e-004 -1.99680e-004 -1.70566e-004 -1.46243e-004 -1.25832e-004 -1.08600e-004 -9.39418e-005 -8.13634e-005 -7.04066e-005 -6.06781e-005 -5.19816e-005 -4.41488e-005 -3.69921e-005 -3.02764e-005 -2.38136e-005 -1.75287e-005 -1.14692e-005 -5.66397e-006  0.00000e+000  5.66397e-006  1.14692e-005  1.75287e-005  2.38136e-005  3.02764e-005  3.69921e-005  4.41488e-005  5.19816e-005  6.06781e-005  7.04066e-005  8.13634e-005  9.39418e-005  1.08600e-004  1.25832e-004  1.46243e-004  1.70566e-004  1.99680e-004  2.34710e-004  2.77055e-004  3.28376e-004  3.90820e-004  4.67145e-004  5.60747e-004  6.75816e-004  8.17538e-004  9.92123e-004  1.20670e-003  1.46904e-003  1.78683e-003  1.96050e-003
  0.00000e+000 -1.96343e-003 -1.78958e-003 -1.47143e-003 -1.20873e-003 -9.93820e-004 -8.18923e-004 -6.76915e-004 -5.61613e-004 -4.67851e-004 -3.91384e-004 -3.28814e-004 -2.77403e-004 -2.34979e-004 -1.99904e-004 -1.70756e-004 -1.46398e-004 -1.25951e-004 -1.08683e-004 -9.40170e-005 -8.14117e-005 -7.04372e-005 -6.07190e-005 -5.20045e-005 -4.41631e-005 -3.69977e-005 -3.02827e-005 -2.38395e-005 -1.75552e-005 -1.14680e-005 -5.65395e-006  0.00000e+000  5.65395e-006  1.14680e-005  1.75552e-005  2.38395e-005  3.02827e-005  3.69977e-005  4.41631e-005  5.20045e-005  6.07190e-005  7.04372e-005  8.14117e-005  9.40170e-005  1.08683e-004  1.25951e-004  1.46398e-004  1.70756e-004  1.99904e-004  2.34979e-004  2.77403e-004  3.28814e-004  3.91384e-004  4.67851e-004  5.61613e-004  6.76915e-004  8.18923e-004  9.93820e-004  1.20873e-003  1.47143e-003  1.78958e-003  1.96343e-003
 -2.00000e-004 -1.96050e-003 -1.78683e-003 -1.46904e-003 -1.20670e-003 -9.92123e-004 -8.17538e-004 -6.75816e-004 -5.60747e-004 -4.67145e-004 -3.90820e-004 -3.28376e-004 -2.77055e-004 -2.34710e-004 -1.99680e-004 -1.70566e-004 -1.46243e-004 -1.25832e-004 -1.08600e-004 -9.39418e-005 -8.13634e-005 -7.04066e-005 -6.06781e-005 -5.19816e-005 -4.41488e-005 -3.69921e-005 -3.02764e-005 -2.38136e-005 -1.75287e-005 -1.14692e-005 -5.66397e-006  0.00000e+000  5.66397e-006  1.14692e-005  1.75287e-005  2.38136e-005  3.02764e-005  3.69921e-005  4.41488e-005  5.19816e-005  6.06781e-005  7.04066e-005  8.13634e-005  9.39418e-005  1.08600e-004  1.25832e-004  1.46243e-004  1.70566e-004  1.99680e-004  2.34710e-004  2.77055e-004  3.28376e-004  3.90820e-004  4.67145e-004  5.60747e-004  6.75816e-004  8.17538e-004  9.92123e-004  1.20670e-003  1.46904e-003  1.78683e-003  1.96050e-003
 -4.00000e-004 -1.95179e-003 -1.77855e-003 -1.46178e-003 -1.20055e-003 -9.87047e-004 -8.13417e-004 -6.72509e-004 -5.58138e-004 -4.65083e-004 -3.89187e-004 -3.27053e-004 -2.75989e-004 -2.33858e-004 -1.98996e-004 -1.70033e-004 -1.45825e-004 -1.25484e-004 -1.08294e-004 -9.37253e-005 -8.11997e-005 -7.02678e-005 -6.06023e-005 -5.18937e-005 -4.40774e-005 -3.69468e-005 -3.02480e-005 -2.38209e-005 -1.75435e-005 -1.14539e-005 -5.60906e-006  0.00000e+000  5.60906e-006  1.14539e-005  1.75435e-005  2.38209e-005  3.02480e-005  3.69468e-005  4.40774e-005  5.18937e-005  6.06023e-005  7.02678e-005  8.11997e-005  9.37253e-005  1.08294e-004  1.25484e-004  1.45825e-004  1.70033e-004  1.98996e-004  2.33858e-004  2.75989e-004  3.27053e-004  3.89187e-004  4.65083e-004  5.58138e-004  6.72509e-004  8.13417e-004  9.87047e-004  1.20055e-003  1.46178e-003  1.77855e-003  1.95179e-003
 -6.00000e-004 -1.93719e-003 -1.76473e-003 -1.44966e-003 -1.19030e-003 -9.78594e-004 -8.06592e-004 -6.67044e-004 -5.53746e-004 -4.61585e-004 -3.86423e-004 -3.24880e-004 -2.74233e-004 -2.32458e-004 -1.97870e-004 -1.69129e-004 -1.45126e-004 -1.24896e-004 -1.07820e-004 -9.33388e-005 -8.09201e-005 -7.00771e-005 -6.04255e-005 -5.17597e-005 -4.39677e-005 -3.68902e-005 -3.02540e-005 -2.38142e-005 -1.74958e-005 -1.13936e-005 -5.57414e-006  0.00000e+000  5.57414e-006  1.13936e-005  1.74958e-005  2.38142e-005  3.02540e-005  3.68902e-005  4.39677e-005  5.17597e-005  6.04255e-005  7.00771e-005  8.09201e-005  9.33388e-005  1.07820e-004  1.24896e-004  1.45126e-004  1.69129e-004  1.97870e-004  2.32458e-004  2.74233e-004  3.24880e-004  3.86423e-004  4.61585e-004  5.53746e-004  6.67044e-004  8.06592e-004  9.78594e-004  1.19030e-003  1.44966e-003  1.76473e-003  1.93719e-003
 -8.00000e-004 -1.91654e-003 -1.74525e-003 -1.43266e-003 -1.17596e-003 -9.66772e-004 -7.96997e-004 -6.59377e-004 -5.47657e-004 -4.56770e-004 -3.82582e-004 -3.21806e-004 -2.71812e-004 -2.30498e-004 -1.96283e-004 -1.67870e-004 -1.44105e-004 -1.24097e-004 -1.07188e-004 -9.28100e-005 -8.05147e-005 -6.97962e-005 -6.02039e-005 -5.15697e-005 -4.38195e-005 -3.67841e-005 -3.02094e-005 -2.38029e-005 -1.74610e-005 -1.13166e-005 -5.52139e-006  0.00000e+000  5.52139e-006  1.13166e-005  1.74610e-005  2.38029e-005  3.02094e-005  3.67841e-005  4.38195e-005  5.15697e-005  6.02039e-005  6.97962e-005  8.05147e-005  9.28100e-005  1.07188e-004  1.24097e-004  1.44105e-004  1.67870e-004  1.96283e-004  2.30498e-004  2.71812e-004  3.21806e-004  3.82582e-004  4.56770e-004  5.47657e-004  6.59377e-004  7.96997e-004  9.66772e-004  1.17596e-003  1.43266e-003  1.74525e-003  1.91654e-003
 -1.00000e-003 -1.88990e-003 -1.72008e-003 -1.41071e-003 -1.15747e-003 -9.51580e-004 -7.84729e-004 -6.49551e-004 -5.39863e-004 -4.50572e-004 -3.77657e-004 -3.17912e-004 -2.68676e-004 -2.27976e-004 -1.94268e-004 -1.66255e-004 -1.42817e-004 -1.23047e-004 -1.06340e-004 -9.21567e-005 -8.00204e-005 -6.94341e-005 -5.99276e-005 -5.13045e-005 -4.36040e-005 -3.66663e-005 -3.01802e-005 -2.38151e-005 -1.74107e-005 -1.11945e-005 -5.43179e-006  0.00000e+000  5.43179e-006  1.11945e-005  1.74107e-005  2.38151e-005  3.01802e-005  3.66663e-005  4.36040e-005  5.13045e-005  5.99276e-005  6.94341e-005  8.00204e-005  9.21567e-005  1.06340e-004  1.23047e-004  1.42817e-004  1.66255e-004  1.94268e-004  2.27976e-004  2.68676e-004  3.17912e-004  3.77657e-004  4.50572e-004  5.39863e-004  6.49551e-004  7.84729e-004  9.51580e-004  1.15747e-003  1.41071e-003  1.72008e-003  1.88990e-003
 -1.20000e-003 -1.85690e-003 -1.68904e-003 -1.38379e-003 -1.13484e-003 -9.33026e-004 -7.69764e-004 -6.37601e-004 -5.30369e-004 -4.43049e-004 -3.71698e-004 -3.13163e-004 -2.64875e-004 -2.24915e-004 -1.91803e-004 -1.64289e-004 -1.41252e-004 -1.21791e-004 -1.05293e-004 -9.13401e-005 -7.94554e-005 -6.89994e-005 -5.95582e-005 -5.09918e-005 -4.33491e-005 -3.65269e-005 -3.01567e-005 -2.38225e-005 -1.73542e-005 -1.10647e-005 -5.30517e-006  0.00000e+000  5.30517e-006  1.10647e-005  1.73542e-005  2.38225e-005  3.01567e-005  3.65269e-005  4.33491e-005  5.09918e-005  5.95582e-005  6.89994e-005  7.94554e-005  9.13401e-005  1.05293e-004  1.21791e-004  1.41252e-004  1.64289e-004  1.91803e-004  2.24915e-004  2.64875e-004  3.13163e-004  3.71698e-004  4.43049e-004  5.30369e-004  6.37601e-004  7.69764e-004  9.33026e-004  1.13484e-003  1.38379e-003  1.68904e-003  1.85690e-003
 -1.40000e-003 -1.81745e-003 -1.65199e-003 -1.35180e-003 -1.10805e-003 -9.11112e-004 -7.52162e-004 -6.23573e-004 -5.19220e-004 -4.34199e-004 -3.64686e-004 -3.07599e-004 -2.60423e-004 -2.21330e-004 -1.88895e-004 -1.61971e-004 -1.39425e-004 -1.20299e-004 -1.04064e-004 -9.03679e-005 -7.87522e-005 -6.85291e-005 -5.91705e-005 -5.06026e-005 -4.29879e-005 -3.63466e-005 -3.01768e-005 -2.38533e-005 -1.72723e-005 -1.08893e-005 -5.12231e-006  0.00000e+000  5.12231e-006  1.08893e-005  1.72723e-005  2.38533e-005  3.01768e-005  3.63466e-005  4.29879e-005  5.06026e-005  5.91705e-005  6.85291e-005  7.87522e-005  9.03679e-005  1.04064e-004  1.20299e-004  1.39425e-004  1.61971e-004  1.88895e-004  2.21330e-004  2.60423e-004  3.07599e-004  3.64686e-004  4.34199e-004  5.19220e-004  6.23573e-004  7.52162e-004  9.11112e-004  1.10805e-003  1.35180e-003  1.65199e-003  1.81745e-003
 -1.60000e-003 -1.77136e-003 -1.60878e-003 -1.31465e-003 -1.07712e-003 -8.85901e-004 -7.31910e-004 -6.07468e-004 -5.06456e-004 -4.24085e-004 -3.56649e-004 -3.01221e-004 -2.55340e-004 -2.17205e-004 -1.85577e-004 -1.59333e-004 -1.37314e-004 -1.18577e-004 -1.02651e-004 -8.92478e-005 -7.79568e-005 -6.79938e-005 -5.87164e-005 -5.01359e-005 -4.26050e-005 -3.61628e-005 -3.01834e-005 -2.39170e-005 -1.72123e-005 -1.06204e-005 -4.88286e-006  0.00000e+000  4.88286e-006  1.06204e-005  1.72123e-005  2.39170e-005  3.01834e-005  3.61628e-005  4.26050e-005  5.01359e-005  5.87164e-005  6.79938e-005  7.79568e-005  8.92478e-005  1.02651e-004  1.18577e-004  1.37314e-004  1.59333e-004  1.85577e-004  2.17205e-004  2.55340e-004  3.01221e-004  3.56649e-004  4.24085e-004  5.06456e-004  6.07468e-004  7.31910e-004  8.85901e-004  1.07712e-003  1.31465e-003  1.60878e-003  1.77136e-003
 -1.80000e-003 -1.71831e-003 -1.55926e-003 -1.27235e-003 -1.04199e-003 -8.57377e-004 -7.09092e-004 -5.89376e-004 -4.92114e-004 -4.12691e-004 -3.47640e-004 -2.94096e-004 -2.49630e-004 -2.12543e-004 -1.81813e-004 -1.56344e-004 -1.34973e-004 -1.16680e-004 -1.01013e-004 -8.79588e-005 -7.70675e-005 -6.74305e-005 -5.82518e-005 -4.95906e-005 -4.21045e-005 -3.59371e-005 -3.02523e-005 -2.40421e-005 -1.71169e-005 -1.02763e-005 -4.59590e-006  0.00000e+000  4.59590e-006  1.02763e-005  1.71169e-005  2.40421e-005  3.02523e-005  3.59371e-005  4.21045e-005  4.95906e-005  5.82518e-005  6.74305e-005  7.70675e-005  8.79588e-005  1.01013e-004  1.16680e-004  1.34973e-004  1.56344e-004  1.81813e-004  2.12543e-004  2.49630e-004  2.94096e-004  3.47640e-004  4.12691e-004  4.92114e-004  5.89376e-004  7.09092e-004  8.57377e-004  1.04199e-003  1.27235e-003  1.55926e-003  1.71831e-003
 -2.00000e-003 -1.65809e-003 -1.50321e-003 -1.22476e-003 -1.00272e-003 -8.25597e-004 -6.83762e-004 -5.69349e-004 -4.76252e-004 -4.00097e-004 -3.37675e-004 -2.86202e-004 -2.43321e-004 -2.07414e-004 -1.77600e-004 -1.53036e-004 -1.32416e-004 -1.14576e-004 -9.92046e-005 -8.64795e-005 -7.60829e-005 -6.68379e-005 -5.77187e-005 -4.89752e-005 -4.15042e-005 -3.56402e-005 -3.03930e-005 -2.42764e-005 -1.70049e-005 -9.82773e-006 -4.16566e-006  0.00000e+000  4.16566e-006  9.82773e-006  1.70049e-005  2.42764e-005  3.03930e-005  3.56402e-005  4.15042e-005  4.89752e-005  5.77187e-005  6.68379e-005  7.60829e-005  8.64795e-005  9.92046e-005  1.14576e-004  1.32416e-004  1.53036e-004  1.77600e-004  2.07414e-004  2.43321e-004  2.86202e-004  3.37675e-004  4.00097e-004  4.76252e-004  5.69349e-004  6.83762e-004  8.25597e-004  1.00272e-003  1.22476e-003  1.50321e-003  1.65809e-003
 -2.20000e-003 -1.59038e-003 -1.44044e-003 -1.17187e-003 -9.59264e-004 -7.90586e-004 -6.56003e-004 -5.47454e-004 -4.58905e-004 -3.86342e-004 -3.26798e-004 -2.77625e-004 -2.36442e-004 -2.01752e-004 -1.72976e-004 -1.49424e-004 -1.29641e-004 -1.12262e-004 -9.71464e-005 -8.48356e-005 -7.50390e-005 -6.62720e-005 -5.72303e-005 -4.82309e-005 -4.07359e-005 -3.53284e-005 -3.06057e-005 -2.46107e-005 -1.69236e-005 -9.22604e-006 -3.57198e-006  0.00000e+000  3.57198e-006  9.22604e-006  1.69236e-005  2.46107e-005  3.06057e-005  3.53284e-005  4.07359e-005  4.82309e-005  5.72303e-005  6.62720e-005  7.50390e-005  8.48356e-005  9.71464e-005  1.12262e-004  1.29641e-004  1.49424e-004  1.72976e-004  2.01752e-004  2.36442e-004  2.77625e-004  3.26798e-004  3.86342e-004  4.58905e-004  5.47454e-004  6.56003e-004  7.90586e-004  9.59264e-004  1.17187e-003  1.44044e-003  1.59038e-003
 -2.40000e-003 -1.51499e-003 -1.37081e-003 -1.11358e-003 -9.11664e-004 -7.52481e-004 -6.25882e-004 -5.23769e-004 -4.40192e-004 -3.71456e-004 -3.15023e-004 -2.68400e-004 -2.29040e-004 -1.95559e-004 -1.67908e-004 -1.45539e-004 -1.26689e-004 -1.09790e-004 -9.48631e-005 -8.29381e-005 -7.39244e-005 -6.57796e-005 -5.67186e-005 -4.73464e-005 -3.97689e-005 -3.49341e-005 -3.09958e-005 -2.51602e-005 -1.68346e-005 -8.42204e-006 -2.78486e-006  0.00000e+000  2.78486e-006  8.42204e-006  1.68346e-005  2.51602e-005  3.09958e-005  3.49341e-005  3.97689e-005  4.73464e-005  5.67186e-005  6.57796e-005  7.39244e-005  8.29381e-005  9.48631e-005  1.09790e-004  1.26689e-004  1.45539e-004  1.67908e-004  1.95559e-004  2.29040e-004  2.68400e-004  3.15023e-004  3.71456e-004  4.40192e-004  5.23769e-004  6.25882e-004  7.52481e-004  9.11664e-004  1.11358e-003  1.37081e-003  1.51499e-003
 -2.60000e-003 -1.43158e-003 -1.29409e-003 -1.04994e-003 -8.60006e-004 -7.11273e-004 -5.93499e-004 -4.98436e-004 -4.20186e-004 -3.55467e-004 -3.02419e-004 -2.58563e-004 -2.21144e-004 -1.88939e-004 -1.62368e-004 -1.41310e-004 -1.23615e-004 -1.07186e-004 -9.23123e-005 -8.07929e-005 -7.27275e-005 -6.54079e-005 -5.63071e-005 -4.62811e-005 -3.85241e-005 -3.44846e-005 -3.16023e-005 -2.59262e-005 -1.67376e-005 -7.35636e-006 -1.68754e-006  0.00000e+000  1.68754e-006  7.35636e-006  1.67376e-005  2.59262e-005  3.16023e-005  3.44846e-005  3.85241e-005  4.62811e-005  5.63071e-005  6.54079e-005  7.27275e-005  8.07929e-005  9.23123e-005  1.07186e-004  1.23615e-004  1.41310e-004  1.62368e-004  1.88939e-004  2.21144e-004  2.58563e-004  3.02419e-004  3.55467e-004  4.20186e-004  4.98436e-004  5.93499e-004  7.11273e-004  8.60006e-004  1.04994e-003  1.29409e-003  1.43158e-003
 -2.80000e-003 -1.33996e-003 -1.21019e-003 -9.80906e-004 -8.04354e-004 -6.67147e-004 -5.59017e-004 -4.71580e-004 -3.98941e-004 -3.38461e-004 -2.88991e-004 -2.48158e-004 -2.12848e-004 -1.81817e-004 -1.56357e-004 -1.36825e-004 -1.20481e-004 -1.04464e-004 -8.94223e-005 -7.83191e-005 -7.15132e-005 -6.52330e-005 -5.59854e-005 -4.50230e-005 -3.69217e-005 -3.39020e-005 -3.24648e-005 -2.71020e-005 -1.66800e-005 -5.87284e-006 -1.90965e-007  0.00000e+000  1.90965e-007  5.87284e-006  1.66800e-005  2.71020e-005  3.24648e-005  3.39020e-005  3.69217e-005  4.50230e-005  5.59854e-005  6.52330e-005  7.15132e-005  7.83191e-005  8.94223e-005  1.04464e-004  1.20481e-004  1.36825e-004  1.56357e-004  1.81817e-004  2.12848e-004  2.48158e-004  2.88991e-004  3.38461e-004  3.98941e-004  4.71580e-004  5.59017e-004  6.67147e-004  8.04354e-004  9.80906e-004  1.21019e-003  1.33996e-003
 -3.00000e-003 -1.23990e-003 -1.11904e-003 -9.06602e-004 -7.44804e-004 -6.20171e-004 -5.22555e-004 -4.43364e-004 -3.76624e-004 -3.20456e-004 -2.74780e-004 -2.37357e-004 -2.04210e-004 -1.74173e-004 -1.49771e-004 -1.32060e-004 -1.17379e-004 -1.01698e-004 -8.61875e-005 -7.54156e-005 -7.02410e-005 -6.54090e-005 -5.58876e-005 -4.34630e-005 -3.47841e-005 -3.31459e-005 -3.37679e-005 -2.88157e-005 -1.66714e-005 -3.85223e-006  1.88166e-006  0.00000e+000 -1.88166e-006  3.85223e-006  1.66714e-005  2.88157e-005  3.37679e-005  3.31459e-005  3.47841e-005  4.34630e-005  5.58876e-005  6.54090e-005  7.02410e-005  7.54156e-005  8.61875e-005  1.01698e-004  1.17379e-004  1.32060e-004  1.49771e-004  1.74173e-004  2.04210e-004  2.37357e-004  2.74780e-004  3.20456e-004  3.76624e-004  4.43364e-004  5.22555e-004  6.20171e-004  7.44804e-004  9.06592e-004  1.11904e-003  1.23992e-003
 -3.20000e-003 -1.13133e-003 -1.02061e-003 -8.27099e-004 -6.81481e-004 -5.70532e-004 -4.84327e-004 -4.13982e-004 -3.53327e-004 -3.01472e-004 -2.59849e-004 -2.26195e-004 -1.95335e-004 -1.66036e-004 -1.42571e-004 -1.27037e-004 -1.14431e-004 -9.89704e-005 -8.24865e-005 -7.19417e-005 -6.89472e-005 -6.61106e-005 -5.61197e-005 -4.14909e-005 -3.18840e-005 -3.22044e-005 -3.56494e-005 -3.12446e-005 -1.67310e-005 -1.13541e-006  4.75723e-006  0.00000e+000 -4.75723e-006  1.13541e-006  1.67310e-005  3.12446e-005  3.56494e-005  3.22044e-005  3.18840e-005  4.14909e-005  5.61197e-005  6.61106e-005  6.89472e-005  7.19417e-005  8.24865e-005  9.89704e-005  1.14431e-004  1.27037e-004  1.42571e-004  1.66036e-004  1.95335e-004  2.26195e-004  2.59849e-004  3.01472e-004  3.53327e-004  4.13982e-004  4.84327e-004  5.70532e-004  6.81481e-004  8.27099e-004  1.02061e-003  1.13133e-003
 -3.40000e-003 -1.01424e-003 -9.15013e-004 -7.42637e-004 -6.14582e-004 -5.18353e-004 -4.44575e-004 -3.83758e-004 -3.29223e-004 -2.81481e-004 -2.44162e-004 -2.14866e-004 -1.86407e-004 -1.57365e-004 -1.34564e-004 -1.21751e-004 -1.11848e-004 -9.63939e-005 -7.81768e-005 -6.76677e-005 -6.76683e-005 -6.76110e-005 -5.68373e-005 -3.90149e-005 -2.79915e-005 -3.08717e-005 -3.83165e-005 -3.47712e-005 -1.69070e-005  2.64177e-006  8.74231e-006  0.00000e+000 -8.74231e-006 -2.64177e-006  1.69070e-005  3.47712e-005  3.83165e-005  3.08717e-005  2.79915e-005  3.90149e-005  5.68373e-005  6.76110e-005  6.76683e-005  6.76677e-005  7.81768e-005  9.63939e-005  1.11848e-004  1.21751e-004  1.34564e-004  1.57365e-004  1.86407e-004  2.14866e-004  2.44162e-004  2.81481e-004  3.29223e-004  3.83758e-004  4.44575e-004  5.18353e-004  6.14582e-004  7.42637e-004  9.15013e-004  1.01424e-003
 -3.60000e-003 -8.88607e-004 -8.02380e-004 -6.53475e-004 -5.44388e-004 -4.63898e-004 -4.03504e-004 -3.52952e-004 -3.04553e-004 -2.60520e-004 -2.27678e-004 -2.03564e-004 -1.77661e-004 -1.48063e-004 -1.25545e-004 -1.16195e-004 -1.09890e-004 -9.41594e-005 -7.31049e-005 -6.23234e-005 -6.64026e-005 -7.02052e-005 -5.82940e-005 -3.58446e-005 -2.26221e-005 -2.91053e-005 -4.21428e-005 -3.97133e-005 -1.72384e-005  7.75932e-006  1.42433e-005  0.00000e+000 -1.42433e-005 -7.75932e-006  1.72384e-005  3.97133e-005  4.21428e-005  2.91053e-005  2.26221e-005  3.58446e-005  5.82940e-005  7.02052e-005  6.64026e-005  6.23234e-005  7.31049e-005  9.41594e-005  1.09890e-004  1.16195e-004  1.25545e-004  1.48063e-004  1.77661e-004  2.03564e-004  2.27678e-004  2.60520e-004  3.04553e-004  3.52952e-004  4.03504e-004  4.63898e-004  5.44388e-004  6.53475e-004  8.02380e-004  8.88607e-004
 -3.80000e-003 -7.54886e-004 -6.83150e-004 -5.60048e-004 -4.71182e-004 -4.07314e-004 -3.61464e-004 -3.22044e-004 -2.79515e-004 -2.38468e-004 -2.10374e-004 -1.92526e-004 -1.69401e-004 -1.38158e-004 -1.15172e-004 -1.10355e-004 -1.09004e-004 -9.25082e-005 -6.69505e-005 -5.54125e-005 -6.51483e-005 -7.44626e-005 -6.08815e-005 -3.17397e-005 -1.51804e-005 -2.65508e-005 -4.75831e-005 -4.67803e-005 -1.78227e-005  1.48108e-005  2.19325e-005  0.00000e+000 -2.19325e-005 -1.48108e-005  1.78227e-005  4.67803e-005  4.75831e-005  2.65508e-005  1.51804e-005  3.17397e-005  6.08815e-005  7.44626e-005  6.51483e-005  5.54125e-005  6.69505e-005  9.25082e-005  1.09004e-004  1.10355e-004  1.15172e-004  1.38158e-004  1.69401e-004  1.92526e-004  2.10374e-004  2.38468e-004  2.79515e-004  3.22044e-004  3.61464e-004  4.07314e-004  4.71182e-004  5.60048e-004  6.83150e-004  7.54886e-004
 -4.00000e-003 -6.13479e-004 -5.57875e-004 -4.62937e-004 -3.95315e-004 -3.48855e-004 -3.18805e-004 -2.91617e-004 -2.54474e-004 -2.15112e-004 -1.92056e-004 -1.82198e-004 -1.62149e-004 -1.27404e-004 -1.02866e-004 -1.04207e-004 -1.09800e-004 -9.18679e-005 -5.93712e-005 -4.62403e-005 -6.39624e-005 -8.11326e-005 -6.50526e-005 -2.63015e-005 -4.77391e-006 -2.30072e-005 -5.53291e-005 -5.67059e-005 -1.87582e-005  2.44328e-005  3.26234e-005  0.00000e+000 -3.26234e-005 -2.44328e-005  1.87582e-005  5.67059e-005  5.53291e-005  2.30072e-005  4.77391e-006  2.63015e-005  6.50526e-005  8.11326e-005  6.39624e-005  4.62403e-005  5.93712e-005  9.18679e-005  1.09800e-004  1.04207e-004  1.02866e-004  1.27404e-004  1.62149e-004  1.82198e-004  1.92056e-004  2.15112e-004  2.54474e-004  2.91617e-004  3.18805e-004  3.48855e-004  3.95315e-004  4.62937e-004  5.57875e-004  6.13479e-004
# Vertical 2nd Order Kick [T2m2]
START
               -2.00000e-002 -1.93333e-002 -1.86667e-002 -1.80000e-002 -1.73333e-002 -1.66667e-002 -1.60000e-002 -1.53333e-002 -1.46667e-002 -1.40000e-002 -1.33333e-002 -1.26667e-002 -1.20000e-002 -1.13333e-002 -1.06667e-002 -1.00000e-002 -9.33333e-003 -8.66667e-003 -8.00000e-003 -7.33333e-003 -6.66667e-003 -6.00000e-003 -5.33333e-003 -4.66667e-003 -4.00000e-003 -3.33333e-003 -2.66667e-003 -2.00000e-003 -1.33333e-003 -6.66667e-004  0.00000e+000  6.66667e-004  1.33333e-003  2.00000e-003  2.66667e-003  3.33333e-003  4.00000e-003  4.66667e-003  5.33333e-003  6.00000e-003  6.66667e-003  7.33333e-003  8.00000e-003  8.66667e-003  9.33333e-003  1.00000e-002  1.06667e-002  1.13333e-002  1.20000e-002  1.26667e-002  1.33333e-002  1.40000e-002  1.46667e-002  1.53333e-002  1.60000e-002  1.66667e-002  1.73333e-002  1.80000e-002  1.86667e-002  1.93333e-002  2.00000e-002
  4.00000e-003 -4.69197e-003 -4.22062e-003 -3.85681e-003 -3.57321e-003 -3.35104e-003 -3.18348e-003 -3.06664e-003 -2.98064e-003 -2.89970e-003 -2.82494e-003 -2.77758e-003 -2.75608e-003 -2.72923e-003 -2.68439e-003 -2.64719e-003 -2.64340e-003 -2.65250e-003 -2.63914e-003 -2.60197e-003 -2.57799e-003 -2.59406e-003 -2.62246e-003 -2.62187e-003 -2.58620e-003 -2.55249e-003 -2.56258e-003 -2.60413e-003 -2.62875e-003 -2.61037e-003 -2.56460e-003 -2.53910e-003 -2.56460e-003 -2.61037e-003 -2.62875e-003 -2.60413e-003 -2.56258e-003 -2.55249e-003 -2.58620e-003 -2.62187e-003 -2.62246e-003 -2.59406e-003 -2.57799e-003 -2.60197e-003 -2.63914e-003 -2.65250e-003 -2.64340e-003 -2.64719e-003 -2.68439e-003 -2.72923e-003 -2.75608e-003 -2.77758e-003 -2.82494e-003 -2.89970e-003 -2.98064e-003 -3.06664e-003 -3.18348e-003 -3.35104e-003 -3.57321e-003 -3.85681e-003 -4.22062e-003 -4.69197e-003
  3.80000e-003 -4.70939e-003 -4.25085e-003 -3.89438e-003 -3.61572e-003 -3.39747e-003 -3.23224e-003 -3.11514e-003 -3.02779e-003 -2.94820e-003 -2.87643e-003 -2.82946e-003 -2.80521e-003 -2.77776e-003 -2.73635e-003 -2.70216e-003 -2.69639e-003 -2.70186e-003 -2.68875e-003 -2.65608e-003 -2.63514e-003 -2.64795e-003 -2.67157e-003 -2.67048e-003 -2.63975e-003 -2.61098e-003 -2.61943e-003 -2.65494e-003 -2.67607e-003 -2.66000e-003 -2.62049e-003 -2.59874e-003 -2.62049e-003 -2.66000e-003 -2.67607e-003 -2.65494e-003 -2.61943e-003 -2.61098e-003 -2.63975e-003 -2.67048e-003 -2.67157e-003 -2.64795e-003 -2.63514e-003 -2.65608e-003 -2.68875e-003 -2.70186e-003 -2.69639e-003 -2.70216e-003 -2.73635e-003 -2.77776e-003 -2.80521e-003 -2.82946e-003 -2.87643e-003 -2.94820e-003 -3.02779e-003 -3.11514e-003 -3.23224e-003 -3.39747e-003 -3.61572e-003 -3.89438e-003 -4.25085e-003 -4.70939e-003
  3.60000e-003 -4.71034e-003 -4.27809e-003 -3.93747e-003 -3.66946e-003 -3.45947e-003 -3.29933e-003 -3.18243e-003 -3.09361e-003 -3.01674e-003 -2.95024e-003 -2.90411e-003 -2.87577e-003 -2.84742e-003 -2.81175e-003 -2.78278e-003 -2.77376e-003 -2.77330e-003 -2.76081e-003 -2.73588e-003 -2.71996e-003 -2.72748e-003 -2.74280e-003 -2.74096e-003 -2.71855e-003 -2.69826e-003 -2.70414e-003 -2.72915e-003 -2.74417e-003 -2.73220e-003 -2.70361e-003 -2.68823e-003 -2.70361e-003 -2.73220e-003 -2.74417e-003 -2.72915e-003 -2.70414e-003 -2.69826e-003 -2.71855e-003 -2.74096e-003 -2.74280e-003 -2.72748e-003 -2.71996e-003 -2.73588e-003 -2.76081e-003 -2.77330e-003 -2.77376e-003 -2.78278e-003 -2.81175e-003 -2.84742e-003 -2.87577e-003 -2.90411e-003 -2.95024e-003 -3.01674e-003 -3.09361e-003 -3.18243e-003 -3.29933e-003 -3.45947e-003 -3.66946e-003 -3.93747e-003 -4.27809e-003 -4.71034e-003
  3.40000e-003 -4.64873e-003 -4.24419e-003 -3.92130e-003 -3.66544e-003 -3.46432e-003 -3.30999e-003 -3.19491e-003 -3.10656e-003 -3.03233e-003 -2.97005e-003 -2.92510e-003 -2.89461e-003 -2.86618e-003 -2.83471e-003 -2.80943e-003 -2.79856e-003 -2.79429e-003 -2.78253e-003 -2.76302e-003 -2.75047e-003 -2.75454e-003 -2.76411e-003 -2.76179e-003 -2.74529e-003 -2.73091e-003 -2.73496e-003 -2.75256e-003 -2.76319e-003 -2.75425e-003 -2.73354e-003 -2.72263e-003 -2.73354e-003 -2.75425e-003 -2.76319e-003 -2.75256e-003 -2.73496e-003 -2.73091e-003 -2.74529e-003 -2.76179e-003 -2.76411e-003 -2.75454e-003 -2.75047e-003 -2.76302e-003 -2.78253e-003 -2.79429e-003 -2.79856e-003 -2.80943e-003 -2.83471e-003 -2.86618e-003 -2.89461e-003 -2.92510e-003 -2.97005e-003 -3.03233e-003 -3.10656e-003 -3.19491e-003 -3.30999e-003 -3.46432e-003 -3.66544e-003 -3.92130e-003 -4.24419e-003 -4.64873e-003
  3.20000e-003 -4.53500e-003 -4.15891e-003 -3.85491e-003 -3.61236e-003 -3.42084e-003 -3.27296e-003 -3.16090e-003 -3.07428e-003 -3.00290e-003 -2.94436e-003 -2.90084e-003 -2.86939e-003 -2.84150e-003 -2.81336e-003 -2.79081e-003 -2.77900e-003 -2.77237e-003 -2.76132e-003 -2.74567e-003 -2.73549e-003 -2.73709e-003 -2.74283e-003 -2.74026e-003 -2.72800e-003 -2.71762e-003 -2.72042e-003 -2.73278e-003 -2.74028e-003 -2.73357e-003 -2.71863e-003 -2.71070e-003 -2.71863e-003 -2.73357e-003 -2.74028e-003 -2.73278e-003 -2.72042e-003 -2.71762e-003 -2.72800e-003 -2.74026e-003 -2.74283e-003 -2.73709e-003 -2.73549e-003 -2.74567e-003 -2.76132e-003 -2.77237e-003 -2.77900e-003 -2.79081e-003 -2.81336e-003 -2.84150e-003 -2.86939e-003 -2.90084e-003 -2.94436e-003 -3.00290e-003 -3.07428e-003 -3.16090e-003 -3.27296e-003 -3.42084e-003 -3.61236e-003 -3.85491e-003 -4.15887e-003 -4.53500e-003
  3.00000e-003 -4.37822e-003 -4.03052e-003 -3.74629e-003 -3.51783e-003 -3.33672e-003 -3.19578e-003 -3.08775e-003 -3.00378e-003 -2.93571e-003 -2.88049e-003 -2.83856e-003 -2.80728e-003 -2.78019e-003 -2.75467e-003 -2.73423e-003 -2.72205e-003 -2.71407e-003 -2.70374e-003 -2.69095e-003 -2.68248e-003 -2.68240e-003 -2.68540e-003 -2.68284e-003 -2.67363e-003 -2.66605e-003 -2.66797e-003 -2.67667e-003 -2.68178e-003 -2.67684e-003 -2.66599e-003 -2.66034e-003 -2.66599e-003 -2.67684e-003 -2.68178e-003 -2.67667e-003 -2.66797e-003 -2.66605e-003 -2.67363e-003 -2.68284e-003 -2.68540e-003 -2.68240e-003 -2.68248e-003 -2.69095e-003 -2.70374e-003 -2.71407e-003 -2.72205e-003 -2.73423e-003 -2.75467e-003 -2.78019e-003 -2.80728e-003 -2.83856e-003 -2.88049e-003 -2.93571e-003 -3.00378e-003 -3.08775e-003 -3.19578e-003 -3.33672e-003 -3.51783e-003 -3.74629e-003 -4.03052e-003 -4.37822e-003
  2.80000e-003 -4.18586e-003 -3.86639e-003 -3.60235e-003 -3.38860e-003 -3.21835e-003 -3.08495e-003 -2.98187e-003 -2.90135e-003 -2.83666e-003 -2.78465e-003 -2.74453e-003 -2.71396e-003 -2.68808e-003 -2.66474e-003 -2.64609e-003 -2.63391e-003 -2.62531e-003 -2.61561e-003 -2.60489e-003 -2.59769e-003 -2.59660e-003 -2.59769e-003 -2.59520e-003 -2.58830e-003 -2.58274e-003 -2.58384e-003 -2.58996e-003 -2.59347e-003 -2.58973e-003 -2.58179e-003 -2.57784e-003 -2.58179e-003 -2.58973e-003 -2.59347e-003 -2.58996e-003 -2.58384e-003 -2.58274e-003 -2.58830e-003 -2.59520e-003 -2.59769e-003 -2.59660e-003 -2.59769e-003 -2.60489e-003 -2.61561e-003 -2.62531e-003 -2.63391e-003 -2.64609e-003 -2.66474e-003 -2.68808e-003 -2.71396e-003 -2.74453e-003 -2.78465e-003 -2.83666e-003 -2.90135e-003 -2.98187e-003 -3.08492e-003 -3.21835e-003 -3.38860e-003 -3.60235e-003 -3.86642e-003 -4.18586e-003
  2.60000e-003 -3.96443e-003 -3.67271e-003 -3.42903e-003 -3.23047e-003 -3.07133e-003 -2.94602e-003 -2.84844e-003 -2.77206e-003 -2.71094e-003 -2.66207e-003 -2.62417e-003 -2.59460e-003 -2.57019e-003 -2.54879e-003 -2.53169e-003 -2.51975e-003 -2.51100e-003 -2.50199e-003 -2.49286e-003 -2.48660e-003 -2.48482e-003 -2.48477e-003 -2.48238e-003 -2.47703e-003 -2.47289e-003 -2.47359e-003 -2.47778e-003 -2.48006e-003 -2.47727e-003 -2.47156e-003 -2.46862e-003 -2.47156e-003 -2.47727e-003 -2.48006e-003 -2.47778e-003 -2.47359e-003 -2.47289e-003 -2.47703e-003 -2.48238e-003 -2.48477e-003 -2.48482e-003 -2.48660e-003 -2.49286e-003 -2.50199e-003 -2.51100e-003 -2.51975e-003 -2.53169e-003 -2.54879e-003 -2.57019e-003 -2.59460e-003 -2.62417e-003 -2.66207e-003 -2.71094e-003 -2.77206e-003 -2.84844e-003 -2.94602e-003 -3.07133e-003 -3.23047e-003 -3.42903e-003 -3.67271e-003 -3.96443e-003
  2.40000e-003 -3.71927e-003 -3.45459e-003 -3.23143e-003 -3.04817e-003 -2.90057e-003 -2.78376e-003 -2.69223e-003 -2.62040e-003 -2.56316e-003 -2.51748e-003 -2.48190e-003 -2.45394e-003 -2.43091e-003 -2.41123e-003 -2.39555e-003 -2.38418e-003 -2.37546e-003 -2.36726e-003 -2.35935e-003 -2.35378e-003 -2.35164e-003 -2.35090e-003 -2.34856e-003 -2.34440e-003 -2.34119e-003 -2.34159e-003 -2.34451e-003 -2.34598e-003 -2.34389e-003 -2.33974e-003 -2.33761e-003 -2.33974e-003 -2.34389e-003 -2.34598e-003 -2.34451e-003 -2.34159e-003 -2.34119e-003 -2.34440e-003 -2.34856e-003 -2.35090e-003 -2.35164e-003 -2.35378e-003 -2.35935e-003 -2.36726e-003 -2.37546e-003 -2.38418e-003 -2.39555e-003 -2.41123e-003 -2.43091e-003 -2.45394e-003 -2.48190e-003 -2.51748e-003 -2.56316e-003 -2.62040e-003 -2.69223e-003 -2.78379e-003 -2.90057e-003 -3.04817e-003 -3.23143e-003 -3.45459e-003 -3.71927e-003
  2.20000e-003 -3.45497e-003 -3.21647e-003 -3.01363e-003 -2.84587e-003 -2.71011e-003 -2.60214e-003 -2.51718e-003 -2.45021e-003 -2.39698e-003 -2.35474e-003 -2.32147e-003 -2.29540e-003 -2.27387e-003 -2.25588e-003 -2.24157e-003 -2.23089e-003 -2.22247e-003 -2.21494e-003 -2.20800e-003 -2.20313e-003 -2.20081e-003 -2.19960e-003 -2.19747e-003 -2.19417e-003 -2.19169e-003 -2.19182e-003 -2.19370e-003 -2.19477e-003 -2.19313e-003 -2.19008e-003 -2.18853e-003 -2.19008e-003 -2.19313e-003 -2.19477e-003 -2.19370e-003 -2.19182e-003 -2.19169e-003 -2.19417e-003 -2.19747e-003 -2.19960e-003 -2.20081e-003 -2.20313e-003 -2.20800e-003 -2.21494e-003 -2.22247e-003 -2.23089e-003 -2.24157e-003 -2.25588e-003 -2.27387e-003 -2.29540e-003 -2.32147e-003 -2.35474e-003 -2.39698e-003 -2.45021e-003 -2.51718e-003 -2.60214e-003 -2.71011e-003 -2.84587e-003 -3.01363e-003 -3.21647e-003 -3.45497e-003
  2.00000e-003 -3.17525e-003 -2.96204e-003 -2.77917e-003 -2.62710e-003 -2.50341e-003 -2.40446e-003 -2.32645e-003 -2.26472e-003 -2.21575e-003 -2.17689e-003 -2.14628e-003 -2.12199e-003 -2.10231e-003 -2.08602e-003 -2.07286e-003 -2.06295e-003 -2.05508e-003 -2.04822e-003 -2.04220e-003 -2.03781e-003 -2.03543e-003 -2.03395e-003 -2.03203e-003 -2.02942e-003 -2.02747e-003 -2.02739e-003 -2.02865e-003 -2.02929e-003 -2.02800e-003 -2.02578e-003 -2.02459e-003 -2.02578e-003 -2.02800e-003 -2.02929e-003 -2.02865e-003 -2.02739e-003 -2.02747e-003 -2.02942e-003 -2.03203e-003 -2.03395e-003 -2.03543e-003 -2.03781e-003 -2.04220e-003 -2.04822e-003 -2.05508e-003 -2.06295e-003 -2.07286e-003 -2.08602e-003 -2.10231e-003 -2.12199e-003 -2.14628e-003 -2.17689e-003 -2.21575e-003 -2.26472e-003 -2.32645e-003 -2.40446e-003 -2.50341e-003 -2.62710e-003 -2.77917e-003 -2.96204e-003 -3.17525e-003
  1.80000e-003 -2.88321e-003 -2.69444e-003 -2.53130e-003 -2.39480e-003 -2.28329e-003 -2.19379e-003 -2.12280e-003 -2.06672e-003 -2.02213e-003 -1.98676e-003 -1.95888e-003 -1.93670e-003 -1.91882e-003 -1.90407e-003 -1.89223e-003 -1.88307e-003 -1.87590e-003 -1.86974e-003 -1.86441e-003 -1.86051e-003 -1.85817e-003 -1.85666e-003 -1.85484e-003 -1.85279e-003 -1.85117e-003 -1.85105e-003 -1.85187e-003 -1.85224e-003 -1.85118e-003 -1.84960e-003 -1.84879e-003 -1.84960e-003 -1.85118e-003 -1.85224e-003 -1.85187e-003 -1.85105e-003 -1.85117e-003 -1.85279e-003 -1.85484e-003 -1.85666e-003 -1.85817e-003 -1.86051e-003 -1.86441e-003 -1.86974e-003 -1.87590e-003 -1.88307e-003 -1.89223e-003 -1.90407e-003 -1.91882e-003 -1.93670e-003 -1.95888e-003 -1.98676e-003 -2.02213e-003 -2.06672e-003 -2.12280e-003 -2.19379e-003 -2.28329e-003 -2.39480e-003 -2.53130e-003 -2.69444e-003 -2.88321e-003
  1.60000e-003 -2.58149e-003 -2.41626e-003 -2.27242e-003 -2.15142e-003 -2.05221e-003 -1.97231e-003 -1.90864e-003 -1.85832e-003 -1.81829e-003 -1.78663e-003 -1.76147e-003 -1.74161e-003 -1.72549e-003 -1.71233e-003 -1.70189e-003 -1.69357e-003 -1.68705e-003 -1.68151e-003 -1.67688e-003 -1.67348e-003 -1.67126e-003 -1.66982e-003 -1.66820e-003 -1.66644e-003 -1.66525e-003 -1.66508e-003 -1.66551e-003 -1.66571e-003 -1.66499e-003 -1.66366e-003 -1.66323e-003 -1.66366e-003 -1.66499e-003 -1.66571e-003 -1.66551e-003 -1.66508e-003 -1.66525e-003 -1.66644e-003 -1.66820e-003 -1.66982e-003 -1.67126e-003 -1.67348e-003 -1.67688e-003 -1.68151e-003 -1.68705e-003 -1.69357e-003 -1.70189e-003 -1.71233e-003 -1.72549e-003 -1.74161e-003 -1.76147e-003 -1.78663e-003 -1.81829e-003 -1.85832e-003 -1.90864e-003 -1.97231e-003 -2.05221e-003 -2.15142e-003 -2.27242e-003 -2.41626e-003 -2.58149e-003
  1.40000e-003 -2.27208e-003 -2.12950e-003 -2.00456e-003 -1.89904e-003 -1.81217e-003 -1.74195e-003 -1.68599e-003 -1.64151e-003 -1.60628e-003 -1.57830e-003 -1.55612e-003 -1.53849e-003 -1.52433e-003 -1.51279e-003 -1.50358e-003 -1.49627e-003 -1.49045e-003 -1.48556e-003 -1.48164e-003 -1.47859e-003 -1.47665e-003 -1.47523e-003 -1.47384e-003 -1.47238e-003 -1.47136e-003 -1.47117e-003 -1.47145e-003 -1.47148e-003 -1.47098e-003 -1.47000e-003 -1.46957e-003 -1.47000e-003 -1.47098e-003 -1.47148e-003 -1.47145e-003 -1.47117e-003 -1.47136e-003 -1.47238e-003 -1.47384e-003 -1.47523e-003 -1.47665e-003 -1.47859e-003 -1.48164e-003 -1.48556e-003 -1.49045e-003 -1.49627e-003 -1.50358e-003 -1.51279e-003 -1.52433e-003 -1.53849e-003 -1.55612e-003 -1.57830e-003 -1.60628e-003 -1.64151e-003 -1.68599e-003 -1.74195e-003 -1.81217e-003 -1.89904e-003 -2.00456e-003 -2.12950e-003 -2.27208e-003
  1.20000e-003 -1.95662e-003 -1.83586e-003 -1.72964e-003 -1.63948e-003 -1.56493e-003 -1.50458e-003 -1.45637e-003 -1.41799e-003 -1.38757e-003 -1.36341e-003 -1.34433e-003 -1.32904e-003 -1.31682e-003 -1.30688e-003 -1.29891e-003 -1.29260e-003 -1.28760e-003 -1.28344e-003 -1.28001e-003 -1.27748e-003 -1.27579e-003 -1.27446e-003 -1.27326e-003 -1.27212e-003 -1.27121e-003 -1.27106e-003 -1.27120e-003 -1.27119e-003 -1.27074e-003 -1.27017e-003 -1.26971e-003 -1.27017e-003 -1.27074e-003 -1.27119e-003 -1.27120e-003 -1.27106e-003 -1.27121e-003 -1.27212e-003 -1.27326e-003 -1.27446e-003 -1.27579e-003 -1.27748e-003 -1.28001e-003 -1.28344e-003 -1.28760e-003 -1.29260e-003 -1.29891e-003 -1.30688e-003 -1.31682e-003 -1.32904e-003 -1.34433e-003 -1.36341e-003 -1.38757e-003 -1.41799e-003 -1.45637e-003 -1.50458e-003 -1.56493e-003 -1.63948e-003 -1.72964e-003 -1.83586e-003 -1.95662e-003
  1.00000e-003 -1.63642e-003 -1.53702e-003 -1.44906e-003 -1.37413e-003 -1.31199e-003 -1.26164e-003 -1.22121e-003 -1.18906e-003 -1.16359e-003 -1.14332e-003 -1.12731e-003 -1.11451e-003 -1.10418e-003 -1.09590e-003 -1.08925e-003 -1.08397e-003 -1.07974e-003 -1.07628e-003 -1.07342e-003 -1.07138e-003 -1.06989e-003 -1.06872e-003 -1.06774e-003 -1.06680e-003 -1.06617e-003 -1.06594e-003 -1.06600e-003 -1.06600e-003 -1.06564e-003 -1.06516e-003 -1.06492e-003 -1.06516e-003 -1.06564e-003 -1.06600e-003 -1.06600e-003 -1.06594e-003 -1.06617e-003 -1.06680e-003 -1.06774e-003 -1.06872e-003 -1.06989e-003 -1.07138e-003 -1.07342e-003 -1.07628e-003 -1.07974e-003 -1.08397e-003 -1.08925e-003 -1.09590e-003 -1.10418e-003 -1.11451e-003 -1.12731e-003 -1.14332e-003 -1.16359e-003 -1.18906e-003 -1.22121e-003 -1.26164e-003 -1.31199e-003 -1.37413e-003 -1.44906e-003 -1.53702e-003 -1.63642e-003
  8.00000e-004 -1.31290e-003 -1.23409e-003 -1.16405e-003 -1.10427e-003 -1.05460e-003 -1.01422e-003 -9.81727e-004 -9.55909e-004 -9.35448e-004 -9.19199e-004 -9.06229e-004 -8.95973e-004 -8.87704e-004 -8.81033e-004 -8.75695e-004 -8.71452e-004 -8.68001e-004 -8.65287e-004 -8.63067e-004 -8.61347e-004 -8.60069e-004 -8.59204e-004 -8.58409e-004 -8.57687e-004 -8.57197e-004 -8.56940e-004 -8.56951e-004 -8.56943e-004 -8.56667e-004 -8.56280e-004 -8.56192e-004 -8.56280e-004 -8.56667e-004 -8.56943e-004 -8.56951e-004 -8.56940e-004 -8.57197e-004 -8.57687e-004 -8.58409e-004 -8.59204e-004 -8.60069e-004 -8.61347e-004 -8.63067e-004 -8.65287e-004 -8.68001e-004 -8.71452e-004 -8.75695e-004 -8.81033e-004 -8.87704e-004 -8.95973e-004 -9.06229e-004 -9.19199e-004 -9.35448e-004 -9.55909e-004 -9.81727e-004 -1.01422e-003 -1.05460e-003 -1.10427e-003 -1.16405e-003 -1.23409e-003 -1.31290e-003
  6.00000e-004 -9.86788e-004 -9.28048e-004 -8.75765e-004 -8.30988e-004 -7.93817e-004 -7.63403e-004 -7.39083e-004 -7.19629e-004 -7.04146e-004 -6.91919e-004 -6.82131e-004 -6.74430e-004 -6.68208e-004 -6.63230e-004 -6.59164e-004 -6.56020e-004 -6.53429e-004 -6.51398e-004 -6.49744e-004 -6.48347e-004 -6.47461e-004 -6.46775e-004 -6.46133e-004 -6.45695e-004 -6.45273e-004 -6.45153e-004 -6.45145e-004 -6.45092e-004 -6.44870e-004 -6.44635e-004 -6.44577e-004 -6.44635e-004 -6.44870e-004 -6.45092e-004 -6.45145e-004 -6.45153e-004 -6.45273e-004 -6.45695e-004 -6.46133e-004 -6.46775e-004 -6.47461e-004 -6.48347e-004 -6.49744e-004 -6.51398e-004 -6.53429e-004 -6.56020e-004 -6.59164e-004 -6.63230e-004 -6.68208e-004 -6.74430e-004 -6.82131e-004 -6.91919e-004 -7.04146e-004 -7.19629e-004 -7.39083e-004 -7.63403e-004 -7.93817e-004 -8.30988e-004 -8.75765e-004 -9.28048e-004 -9.86788e-004
  4.00000e-004 -6.58757e-004 -6.19903e-004 -5.85112e-004 -5.55307e-004 -5.30453e-004 -5.10212e-004 -4.93966e-004 -4.80972e-004 -4.70631e-004 -4.62438e-004 -4.55973e-004 -4.50784e-004 -4.46568e-004 -4.43275e-004 -4.40537e-004 -4.38485e-004 -4.36813e-004 -4.35367e-004 -4.34214e-004 -4.33357e-004 -4.32736e-004 -4.32258e-004 -4.31894e-004 -4.31519e-004 -4.31291e-004 -4.31179e-004 -4.31216e-004 -4.31181e-004 -4.31106e-004 -4.30929e-004 -4.30807e-004 -4.30929e-004 -4.31106e-004 -4.31181e-004 -4.31216e-004 -4.31179e-004 -4.31291e-004 -4.31519e-004 -4.31894e-004 -4.32258e-004 -4.32736e-004 -4.33357e-004 -4.34214e-004 -4.35367e-004 -4.36813e-004 -4.38485e-004 -4.40537e-004 -4.43275e-004 -4.46568e-004 -4.50784e-004 -4.55973e-004 -4.62438e-004 -4.70631e-004 -4.80972e-004 -4.93966e-004 -5.10212e-004 -5.30453e-004 -5.55307e-004 -5.85112e-004 -6.19903e-004 -6.58757e-004
  2.00000e-004 -3.29636e-004 -3.10239e-004 -2.92887e-004 -2.78072e-004 -2.65623e-004 -2.55494e-004 -2.47269e-004 -2.40807e-004 -2.35688e-004 -2.31579e-004 -2.28364e-004 -2.25709e-004 -2.23650e-004 -2.21974e-004 -2.20621e-004 -2.19565e-004 -2.18714e-004 -2.18007e-004 -2.17415e-004 -2.17035e-004 -2.16709e-004 -2.16470e-004 -2.16320e-004 -2.16101e-004 -2.16034e-004 -2.15931e-004 -2.15918e-004 -2.15869e-004 -2.15879e-004 -2.15822e-004 -2.15730e-004 -2.15822e-004 -2.15879e-004 -2.15869e-004 -2.15918e-004 -2.15931e-004 -2.16034e-004 -2.16101e-004 -2.16320e-004 -2.16470e-004 -2.16709e-004 -2.17035e-004 -2.17415e-004 -2.18007e-004 -2.18714e-004 -2.19565e-004 -2.20621e-004 -2.21974e-004 -2.23650e-004 -2.25709e-004 -2.28364e-004 -2.31579e-004 -2.35688e-004 -2.40807e-004 -2.47269e-004 -2.55494e-004 -2.65623e-004 -2.78072e-004 -2.92887e-004 -3.10239e-004 -3.29636e-004
  0.00000e+000  0.00000e+000  0.00000e+000  0.00000e+000  0.00000e+000  0.00000e+000  0.00000e+000  0.00000e+000  0.00000e+000  0.00000e+000  0.00000e+000  0.00000e+000  0.00000e+000  0.00000e+000  0.00000e+000  0.00000e+000  0.00000e+000  0.00000e+000  0.00000e+000  0.00000e+000  0.00000e+000  0.00000e+000  0.00000e+000  0.00000e+000  0.00000e+000  0.00000e+000  0.00000e+000  0.00000e+000  0.00000e+000  0.00000e+000  0.00000e+000  0.00000e+000  0.00000e+000  0.00000e+000  0.00000e+000  0.00000e+000  0.00000e+000  0.00000e+000  0.00000e+000  0.00000e+000  0.00000e+000  0.00000e+000  0.00000e+000  0.00000e+000  0.00000e+000  0.00000e+000  0.00000e+000  0.00000e+000  0.00000e+000  0.00000e+000  0.00000e+000  0.00000e+000  0.00000e+000  0.00000e+000  0.00000e+000  0.00000e+000  0.00000e+000  0.00000e+000  0.00000e+000  0.00000e+000  0.00000e+000  0.00000e+000
 -2.00000e-004  3.29636e-004  3.10239e-004  2.92887e-004  2.78072e-004  2.65623e-004  2.55494e-004  2.47269e-004  2.40807e-004  2.35688e-004  2.31579e-004  2.28364e-004  2.25709e-004  2.23650e-004  2.21974e-004  2.20621e-004  2.19565e-004  2.18714e-004  2.18007e-004  2.17415e-004  2.17035e-004  2.16709e-004  2.16470e-004  2.16320e-004  2.16101e-004  2.16034e-004  2.15931e-004  2.15918e-004  2.15869e-004  2.15879e-004  2.15822e-004  2.15730e-004  2.15822e-004  2.15879e-004  2.15869e-004  2.15918e-004  2.15931e-004  2.16034e-004  2.16101e-004  2.16320e-004  2.16470e-004  2.16709e-004  2.17035e-004  2.17415e-004  2.18007e-004  2.18714e-004  2.19565e-004  2.20621e-004  2.21974e-004  2.23650e-004  2.25709e-004  2.28364e-004  2.31579e-004  2.35688e-004  2.40807e-004  2.47269e-004  2.55494e-004  2.65623e-004  2.78072e-004  2.92887e-004  3.10239e-004  3.29636e-004
 -4.00000e-004  6.58757e-004  6.19903e-004  5.85112e-004  5.55307e-004  5.30453e-004  5.10212e-004  4.93966e-004  4.80972e-004  4.70631e-004  4.62438e-004  4.55973e-004  4.50784e-004  4.46568e-004  4.43275e-004  4.40537e-004  4.38485e-004  4.36813e-004  4.35367e-004  4.34214e-004  4.33357e-004  4.32736e-004  4.32258e-004  4.31894e-004  4.31519e-004  4.31291e-004  4.31179e-004  4.31216e-004  4.31181e-004  4.31106e-004  4.30929e-004  4.30807e-004  4.30929e-004  4.31106e-004  4.31181e-004  4.31216e-004  4.31179e-004  4.31291e-004  4.31519e-004  4.31894e-004  4.32258e-004  4.32736e-004  4.33357e-004  4.34214e-004  4.35367e-004  4.36813e-004  4.38485e-004  4.40537e-004  4.43275e-004  4.46568e-004  4.50784e-004  4.55973e-004  4.62438e-004  4.70631e-004  4.80972e-004  4.93966e-004  5.10212e-004  5.30453e-004  5.55307e-004  5.85112e-004  6.19903e-004  6.58757e-004
 -6.00000e-004  9.86788e-004  9.28048e-004  8.75765e-004  8.30988e-004  7.93817e-004  7.63403e-004  7.39083e-004  7.19629e-004  7.04146e-004  6.91919e-004  6.82131e-004  6.74430e-004  6.68208e-004  6.63230e-004  6.59164e-004  6.56020e-004  6.53429e-004  6.51398e-004  6.49744e-004  6.48347e-004  6.47461e-004  6.46775e-004  6.46133e-004  6.45695e-004  6.45273e-004  6.45153e-004  6.45145e-004  6.45092e-004  6.44870e-004  6.44635e-004  6.44577e-004  6.44635e-004  6.44870e-004  6.45092e-004  6.45145e-004  6.45153e-004  6.45273e-004  6.45695e-004  6.46133e-004  6.46775e-004  6.47461e-004  6.48347e-004  6.49744e-004  6.51398e-004  6.53429e-004  6.56020e-004  6.59164e-004  6.63230e-004  6.68208e-004  6.74430e-004  6.82131e-004  6.91919e-004  7.04146e-004  7.19629e-004  7.39083e-004  7.63403e-004  7.93817e-004  8.30988e-004  8.75765e-004  9.28048e-004  9.86788e-004
 -8.00000e-004  1.31290e-003  1.23409e-003  1.16405e-003  1.10427e-003  1.05460e-003  1.01422e-003  9.81727e-004  9.55909e-004  9.35448e-004  9.19199e-004  9.06229e-004  8.95973e-004  8.87704e-004  8.81033e-004  8.75695e-004  8.71452e-004  8.68001e-004  8.65287e-004  8.63067e-004  8.61347e-004  8.60069e-004  8.59204e-004  8.58409e-004  8.57687e-004  8.57197e-004  8.56940e-004  8.56951e-004  8.56943e-004  8.56667e-004  8.56280e-004  8.56192e-004  8.56280e-004  8.56667e-004  8.56943e-004  8.56951e-004  8.56940e-004  8.57197e-004  8.57687e-004  8.58409e-004  8.59204e-004  8.60069e-004  8.61347e-004  8.63067e-004  8.65287e-004  8.68001e-004  8.71452e-004  8.75695e-004  8.81033e-004  8.87704e-004  8.95973e-004  9.06229e-004  9.19199e-004  9.35448e-004  9.55909e-004  9.81727e-004  1.01422e-003  1.05460e-003  1.10427e-003  1.16405e-003  1.23409e-003  1.31290e-003
 -1.00000e-003  1.63642e-003  1.53702e-003  1.44906e-003  1.37413e-003  1.31199e-003  1.26164e-003  1.22121e-003  1.18906e-003  1.16359e-003  1.14332e-003  1.12731e-003  1.11451e-003  1.10418e-003  1.09590e-003  1.08925e-003  1.08397e-003  1.07974e-003  1.07628e-003  1.07342e-003  1.07138e-003  1.06989e-003  1.06872e-003  1.06774e-003  1.06680e-003  1.06617e-003  1.06594e-003  1.06600e-003  1.06600e-003  1.06564e-003  1.06516e-003  1.06492e-003  1.06516e-003  1.06564e-003  1.06600e-003  1.06600e-003  1.06594e-003  1.06617e-003  1.06680e-003  1.06774e-003  1.06872e-003  1.06989e-003  1.07138e-003  1.07342e-003  1.07628e-003  1.07974e-003  1.08397e-003  1.08925e-003  1.09590e-003  1.10418e-003  1.11451e-003  1.12731e-003  1.14332e-003  1.16359e-003  1.18906e-003  1.22121e-003  1.26164e-003  1.31199e-003  1.37413e-003  1.44906e-003  1.53702e-003  1.63642e-003
 -1.20000e-003  1.95662e-003  1.83586e-003  1.72964e-003  1.63948e-003  1.56493e-003  1.50458e-003  1.45637e-003  1.41799e-003  1.38757e-003  1.36341e-003  1.34433e-003  1.32904e-003  1.31682e-003  1.30688e-003  1.29891e-003  1.29260e-003  1.28760e-003  1.28344e-003  1.28001e-003  1.27748e-003  1.27579e-003  1.27446e-003  1.27326e-003  1.27212e-003  1.27121e-003  1.27106e-003  1.27120e-003  1.27119e-003  1.27074e-003  1.27017e-003  1.26971e-003  1.27017e-003  1.27074e-003  1.27119e-003  1.27120e-003  1.27106e-003  1.27121e-003  1.27212e-003  1.27326e-003  1.27446e-003  1.27579e-003  1.27748e-003  1.28001e-003  1.28344e-003  1.28760e-003  1.29260e-003  1.29891e-003  1.30688e-003  1.31682e-003  1.32904e-003  1.34433e-003  1.36341e-003  1.38757e-003  1.41799e-003  1.45637e-003  1.50458e-003  1.56493e-003  1.63948e-003  1.72964e-003  1.83586e-003  1.95662e-003
 -1.40000e-003  2.27208e-003  2.12950e-003  2.00456e-003  1.89904e-003  1.81217e-003  1.74195e-003  1.68599e-003  1.64151e-003  1.60628e-003  1.57830e-003  1.55612e-003  1.53849e-003  1.52433e-003  1.51279e-003  1.50358e-003  1.49627e-003  1.49045e-003  1.48556e-003  1.48164e-003  1.47859e-003  1.47665e-003  1.47523e-003  1.47384e-003  1.47238e-003  1.47136e-003  1.47117e-003  1.47145e-003  1.47148e-003  1.47098e-003  1.47000e-003  1.46957e-003  1.47000e-003  1.47098e-003  1.47148e-003  1.47145e-003  1.47117e-003  1.47136e-003  1.47238e-003  1.47384e-003  1.47523e-003  1.47665e-003  1.47859e-003  1.48164e-003  1.48556e-003  1.49045e-003  1.49627e-003  1.50358e-003  1.51279e-003  1.52433e-003  1.53849e-003  1.55612e-003  1.57830e-003  1.60628e-003  1.64151e-003  1.68599e-003  1.74195e-003  1.81217e-003  1.89904e-003  2.00456e-003  2.12950e-003  2.27208e-003
 -1.60000e-003  2.58149e-003  2.41626e-003  2.27242e-003  2.15142e-003  2.05221e-003  1.97231e-003  1.90864e-003  1.85832e-003  1.81829e-003  1.78663e-003  1.76147e-003  1.74161e-003  1.72549e-003  1.71233e-003  1.70189e-003  1.69357e-003  1.68705e-003  1.68151e-003  1.67688e-003  1.67348e-003  1.67126e-003  1.66982e-003  1.66820e-003  1.66644e-003  1.66525e-003  1.66508e-003  1.66551e-003  1.66571e-003  1.66499e-003  1.66366e-003  1.66323e-003  1.66366e-003  1.66499e-003  1.66571e-003  1.66551e-003  1.66508e-003  1.66525e-003  1.66644e-003  1.66820e-003  1.66982e-003  1.67126e-003  1.67348e-003  1.67688e-003  1.68151e-003  1.68705e-003  1.69357e-003  1.70189e-003  1.71233e-003  1.72549e-003  1.74161e-003  1.76147e-003  1.78663e-003  1.81829e-003  1.85832e-003  1.90864e-003  1.97231e-003  2.05221e-003  2.15142e-003  2.27242e-003  2.41626e-003  2.58149e-003
 -1.80000e-003  2.88321e-003  2.69444e-003  2.53130e-003  2.39480e-003  2.28329e-003  2.19379e-003  2.12280e-003  2.06672e-003  2.02213e-003  1.98676e-003  1.95888e-003  1.93670e-003  1.91882e-003  1.90407e-003  1.89223e-003  1.88307e-003  1.87590e-003  1.86974e-003  1.86441e-003  1.86051e-003  1.85817e-003  1.85666e-003  1.85484e-003  1.85279e-003  1.85117e-003  1.85105e-003  1.85187e-003  1.85224e-003  1.85118e-003  1.84960e-003  1.84879e-003  1.84960e-003  1.85118e-003  1.85224e-003  1.85187e-003  1.85105e-003  1.85117e-003  1.85279e-003  1.85484e-003  1.85666e-003  1.85817e-003  1.86051e-003  1.86441e-003  1.86974e-003  1.87590e-003  1.88307e-003  1.89223e-003  1.90407e-003  1.91882e-003  1.93670e-003  1.95888e-003  1.98676e-003  2.02213e-003  2.06672e-003  2.12280e-003  2.19379e-003  2.28329e-003  2.39480e-003  2.53130e-003  2.69444e-003  2.88321e-003
 -2.00000e-003  3.17525e-003  2.96204e-003  2.77917e-003  2.62710e-003  2.50341e-003  2.40446e-003  2.32645e-003  2.26472e-003  2.21575e-003  2.17689e-003  2.14628e-003  2.12199e-003  2.10231e-003  2.08602e-003  2.07286e-003  2.06295e-003  2.05508e-003  2.04822e-003  2.04220e-003  2.03781e-003  2.03543e-003  2.03395e-003  2.03203e-003  2.02942e-003  2.02747e-003  2.02739e-003  2.02865e-003  2.02929e-003  2.02800e-003  2.02578e-003  2.02459e-003  2.02578e-003  2.02800e-003  2.02929e-003  2.02865e-003  2.02739e-003  2.02747e-003  2.02942e-003  2.03203e-003  2.03395e-003  2.03543e-003  2.03781e-003  2.04220e-003  2.04822e-003  2.05508e-003  2.06295e-003  2.07286e-003  2.08602e-003  2.10231e-003  2.12199e-003  2.14628e-003  2.17689e-003  2.21575e-003  2.26472e-003  2.32645e-003  2.40446e-003  2.50341e-003  2.62710e-003  2.77917e-003  2.96204e-003  3.17525e-003
 -2.20000e-003  3.45497e-003  3.21647e-003  3.01363e-003  2.84587e-003  2.71011e-003  2.60214e-003  2.51718e-003  2.45021e-003  2.39698e-003  2.35474e-003  2.32147e-003  2.29540e-003  2.27387e-003  2.25588e-003  2.24157e-003  2.23089e-003  2.22247e-003  2.21494e-003  2.20800e-003  2.20313e-003  2.20081e-003  2.19960e-003  2.19747e-003  2.19417e-003  2.19169e-003  2.19182e-003  2.19370e-003  2.19477e-003  2.19313e-003  2.19008e-003  2.18853e-003  2.19008e-003  2.19313e-003  2.19477e-003  2.19370e-003  2.19182e-003  2.19169e-003  2.19417e-003  2.19747e-003  2.19960e-003  2.20081e-003  2.20313e-003  2.20800e-003  2.21494e-003  2.22247e-003  2.23089e-003  2.24157e-003  2.25588e-003  2.27387e-003  2.29540e-003  2.32147e-003  2.35474e-003  2.39698e-003  2.45021e-003  2.51718e-003  2.60214e-003  2.71011e-003  2.84587e-003  3.01363e-003  3.21647e-003  3.45497e-003
 -2.40000e-003  3.71927e-003  3.45459e-003  3.23143e-003  3.04817e-003  2.90057e-003  2.78379e-003  2.69223e-003  2.62040e-003  2.56316e-003  2.51748e-003  2.48190e-003  2.45394e-003  2.43091e-003  2.41123e-003  2.39555e-003  2.38418e-003  2.37546e-003  2.36726e-003  2.35935e-003  2.35378e-003  2.35164e-003  2.35090e-003  2.34856e-003  2.34440e-003  2.34119e-003  2.34159e-003  2.34451e-003  2.34598e-003  2.34389e-003  2.33974e-003  2.33761e-003  2.33974e-003  2.34389e-003  2.34598e-003  2.34451e-003  2.34159e-003  2.34119e-003  2.34440e-003  2.34856e-003  2.35090e-003  2.35164e-003  2.35378e-003  2.35935e-003  2.36726e-003  2.37546e-003  2.38418e-003  2.39555e-003  2.41123e-003  2.43091e-003  2.45394e-003  2.48190e-003  2.51748e-003  2.56316e-003  2.62040e-003  2.69223e-003  2.78379e-003  2.90057e-003  3.04817e-003  3.23143e-003  3.45459e-003  3.71927e-003
 -2.60000e-003  3.96443e-003  3.67271e-003  3.42903e-003  3.23047e-003  3.07133e-003  2.94602e-003  2.84844e-003  2.77206e-003  2.71094e-003  2.66207e-003  2.62417e-003  2.59460e-003  2.57019e-003  2.54879e-003  2.53169e-003  2.51975e-003  2.51100e-003  2.50199e-003  2.49286e-003  2.48660e-003  2.48482e-003  2.48477e-003  2.48238e-003  2.47703e-003  2.47289e-003  2.47359e-003  2.47778e-003  2.48006e-003  2.47727e-003  2.47156e-003  2.46862e-003  2.47156e-003  2.47727e-003  2.48006e-003  2.47778e-003  2.47359e-003  2.47289e-003  2.47703e-003  2.48238e-003  2.48477e-003  2.48482e-003  2.48660e-003  2.49286e-003  2.50199e-003  2.51100e-003  2.51975e-003  2.53169e-003  2.54879e-003  2.57019e-003  2.59460e-003  2.62417e-003  2.66207e-003  2.71094e-003  2.77206e-003  2.84844e-003  2.94602e-003  3.07133e-003  3.23047e-003  3.42903e-003  3.67271e-003  3.96443e-003
 -2.80000e-003  4.18586e-003  3.86639e-003  3.60235e-003  3.38860e-003  3.21835e-003  3.08492e-003  2.98187e-003  2.90135e-003  2.83666e-003  2.78465e-003  2.74453e-003  2.71396e-003  2.68808e-003  2.66474e-003  2.64609e-003  2.63391e-003  2.62531e-003  2.61561e-003  2.60489e-003  2.59769e-003  2.59660e-003  2.59769e-003  2.59520e-003  2.58830e-003  2.58274e-003  2.58384e-003  2.58996e-003  2.59347e-003  2.58973e-003  2.58179e-003  2.57784e-003  2.58179e-003  2.58973e-003  2.59347e-003  2.58996e-003  2.58384e-003  2.58274e-003  2.58830e-003  2.59520e-003  2.59769e-003  2.59660e-003  2.59769e-003  2.60489e-003  2.61561e-003  2.62531e-003  2.63391e-003  2.64609e-003  2.66474e-003  2.68808e-003  2.71396e-003  2.74453e-003  2.78465e-003  2.83666e-003  2.90135e-003  2.98187e-003  3.08492e-003  3.21835e-003  3.38860e-003  3.60235e-003  3.86642e-003  4.18586e-003
 -3.00000e-003  4.37822e-003  4.03052e-003  3.74629e-003  3.51783e-003  3.33672e-003  3.19578e-003  3.08775e-003  3.00378e-003  2.93571e-003  2.88049e-003  2.83856e-003  2.80728e-003  2.78019e-003  2.75467e-003  2.73423e-003  2.72205e-003  2.71407e-003  2.70374e-003  2.69095e-003  2.68248e-003  2.68240e-003  2.68540e-003  2.68284e-003  2.67363e-003  2.66605e-003  2.66797e-003  2.67667e-003  2.68178e-003  2.67684e-003  2.66599e-003  2.66034e-003  2.66599e-003  2.67684e-003  2.68178e-003  2.67667e-003  2.66797e-003  2.66605e-003  2.67363e-003  2.68284e-003  2.68540e-003  2.68240e-003  2.68248e-003  2.69095e-003  2.70374e-003  2.71407e-003  2.72205e-003  2.73423e-003  2.75467e-003  2.78019e-003  2.80728e-003  2.83856e-003  2.88049e-003  2.93571e-003  3.00378e-003  3.08775e-003  3.19578e-003  3.33672e-003  3.51783e-003  3.74629e-003  4.03052e-003  4.37822e-003
 -3.20000e-003  4.53500e-003  4.15891e-003  3.85491e-003  3.61236e-003  3.42084e-003  3.27296e-003  3.16090e-003  3.07428e-003  3.00290e-003  2.94436e-003  2.90084e-003  2.86939e-003  2.84150e-003  2.81336e-003  2.79081e-003  2.77900e-003  2.77237e-003  2.76132e-003  2.74567e-003  2.73549e-003  2.73709e-003  2.74283e-003  2.74026e-003  2.72800e-003  2.71762e-003  2.72042e-003  2.73278e-003  2.74028e-003  2.73357e-003  2.71863e-003  2.71070e-003  2.71863e-003  2.73357e-003  2.74028e-003  2.73278e-003  2.72042e-003  2.71762e-003  2.72800e-003  2.74026e-003  2.74283e-003  2.73709e-003  2.73549e-003  2.74567e-003  2.76132e-003  2.77237e-003  2.77900e-003  2.79081e-003  2.81336e-003  2.84150e-003  2.86939e-003  2.90084e-003  2.94436e-003  3.00290e-003  3.07428e-003  3.16090e-003  3.27296e-003  3.42084e-003  3.61236e-003  3.85491e-003  4.15887e-003  4.53500e-003
 -3.40000e-003  4.64873e-003  4.24419e-003  3.92130e-003  3.66544e-003  3.46432e-003  3.30999e-003  3.19491e-003  3.10656e-003  3.03233e-003  2.97005e-003  2.92510e-003  2.89461e-003  2.86618e-003  2.83471e-003  2.80943e-003  2.79856e-003  2.79429e-003  2.78253e-003  2.76302e-003  2.75047e-003  2.75454e-003  2.76411e-003  2.76179e-003  2.74529e-003  2.73091e-003  2.73496e-003  2.75256e-003  2.76319e-003  2.75425e-003  2.73354e-003  2.72263e-003  2.73354e-003  2.75425e-003  2.76319e-003  2.75256e-003  2.73496e-003  2.73091e-003  2.74529e-003  2.76179e-003  2.76411e-003  2.75454e-003  2.75047e-003  2.76302e-003  2.78253e-003  2.79429e-003  2.79856e-003  2.80943e-003  2.83471e-003  2.86618e-003  2.89461e-003  2.92510e-003  2.97005e-003  3.03233e-003  3.10656e-003  3.19491e-003  3.30999e-003  3.46432e-003  3.66544e-003  3.92130e-003  4.24419e-003  4.64873e-003
 -3.60000e-003  4.71034e-003  4.27809e-003  3.93747e-003  3.66946e-003  3.45947e-003  3.29933e-003  3.18243e-003  3.09361e-003  3.01674e-003  2.95024e-003  2.90411e-003  2.87577e-003  2.84742e-003  2.81175e-003  2.78278e-003  2.77376e-003  2.77330e-003  2.76081e-003  2.73588e-003  2.71996e-003  2.72748e-003  2.74280e-003  2.74096e-003  2.71855e-003  2.69826e-003  2.70414e-003  2.72915e-003  2.74417e-003  2.73220e-003  2.70361e-003  2.68823e-003  2.70361e-003  2.73220e-003  2.74417e-003  2.72915e-003  2.70414e-003  2.69826e-003  2.71855e-003  2.74096e-003  2.74280e-003  2.72748e-003  2.71996e-003  2.73588e-003  2.76081e-003  2.77330e-003  2.77376e-003  2.78278e-003  2.81175e-003  2.84742e-003  2.87577e-003  2.90411e-003  2.95024e-003  3.01674e-003  3.09361e-003  3.18243e-003  3.29933e-003  3.45947e-003  3.66946e-003  3.93747e-003  4.27809e-003  4.71034e-003
 -3.80000e-003  4.70939e-003  4.25085e-003  3.89438e-003  3.61572e-003  3.39747e-003  3.23224e-003  3.11514e-003  3.02779e-003  2.94820e-003  2.87643e-003  2.82946e-003  2.80521e-003  2.77776e-003  2.73635e-003  2.70216e-003  2.69639e-003  2.70186e-003  2.68875e-003  2.65608e-003  2.63514e-003  2.64795e-003  2.67157e-003  2.67048e-003  2.63975e-003  2.61098e-003  2.61943e-003  2.65494e-003  2.67607e-003  2.66000e-003  2.62049e-003  2.59874e-003  2.62049e-003  2.66000e-003  2.67607e-003  2.65494e-003  2.61943e-003  2.61098e-003  2.63975e-003  2.67048e-003  2.67157e-003  2.64795e-003  2.63514e-003  2.65608e-003  2.68875e-003  2.70186e-003  2.69639e-003  2.70216e-003  2.73635e-003  2.77776e-003  2.80521e-003  2.82946e-003  2.87643e-003  2.94820e-003  3.02779e-003  3.11514e-003  3.23224e-003  3.39747e-003  3.61572e-003  3.89438e-003  4.25085e-003  4.70939e-003
 -4.00000e-003  4.69197e-003  4.22062e-003  3.85681e-003  3.57321e-003  3.35104e-003  3.18348e-003  3.06664e-003  2.98064e-003  2.89970e-003  2.82494e-003  2.77758e-003  2.75608e-003  2.72923e-003  2.68439e-003  2.64719e-003  2.64340e-003  2.65250e-003  2.63914e-003  2.60197e-003  2.57799e-003  2.59406e-003  2.62246e-003  2.62187e-003  2.58620e-003  2.55249e-003  2.56258e-003  2.60413e-003  2.62875e-003  2.61037e-003  2.56460e-003  2.53910e-003  2.56460e-003  2.61037e-003  2.62875e-003  2.60413e-003  2.56258e-003  2.55249e-003  2.58620e-003  2.62187e-003  2.62246e-003  2.59406e-003  2.57799e-003  2.60197e-003  2.63914e-003  2.65250e-003  2.64340e-003  2.64719e-003  2.68439e-003  2.72923e-003  2.75608e-003  2.77758e-003  2.82494e-003  2.89970e-003  2.98064e-003  3.06664e-003  3.18348e-003  3.35104e-003  3.57321e-003  3.85681e-003  4.22062e-003  4.69197e-003
